file_name:nqueens-2 model:o-u card_nodes=0 size_nodes_bytes=0 card_edges=1 size_edges_bytes=1 size_total_bytes=11
file_name:nqueens-2 model:o-nu card_nodes=0 size_nodes_bytes=0 card_edges=1 size_edges_bytes=1 size_total_bytes=11
file_name:nqueens-2 model:o-c10 card_nodes=0 size_nodes_bytes=0 card_edges=1 size_edges_bytes=1 size_total_bytes=11
file_name:nqueens-2 model:o-uc0 card_nodes=0 size_nodes_bytes=0 card_edges=1 size_edges_bytes=1 size_total_bytes=11
file_name:nqueens-2 model:o-nucx card_nodes=0 size_nodes_bytes=0 card_edges=1 size_edges_bytes=1 size_total_bytes=11
file_name:nqueens-2 model:u-nu card_nodes=0 size_nodes_bytes=0 card_edges=1 size_edges_bytes=2 size_total_bytes=12
file_name:nqueens-2 model:u-nux card_nodes=0 size_nodes_bytes=0 card_edges=1 size_edges_bytes=2 size_total_bytes=12
file_name:nqueens-2 model:u-nuc card_nodes=0 size_nodes_bytes=0 card_edges=1 size_edges_bytes=2 size_total_bytes=12
file_name:nqueens-2 model:u-nucx card_nodes=0 size_nodes_bytes=0 card_edges=1 size_edges_bytes=2 size_total_bytes=12
file_name:nqueens-3 model:o-u card_nodes=0 size_nodes_bytes=0 card_edges=1 size_edges_bytes=2 size_total_bytes=12
file_name:nqueens-3 model:o-nu card_nodes=0 size_nodes_bytes=0 card_edges=1 size_edges_bytes=2 size_total_bytes=12
file_name:nqueens-3 model:o-c10 card_nodes=0 size_nodes_bytes=0 card_edges=1 size_edges_bytes=2 size_total_bytes=12
file_name:nqueens-3 model:o-uc0 card_nodes=0 size_nodes_bytes=0 card_edges=1 size_edges_bytes=2 size_total_bytes=12
file_name:nqueens-3 model:o-nucx card_nodes=0 size_nodes_bytes=0 card_edges=1 size_edges_bytes=2 size_total_bytes=12
file_name:nqueens-3 model:u-nu card_nodes=0 size_nodes_bytes=0 card_edges=1 size_edges_bytes=3 size_total_bytes=13
file_name:nqueens-3 model:u-nux card_nodes=0 size_nodes_bytes=0 card_edges=1 size_edges_bytes=4 size_total_bytes=14
file_name:nqueens-3 model:u-nuc card_nodes=0 size_nodes_bytes=0 card_edges=1 size_edges_bytes=2 size_total_bytes=12
file_name:nqueens-3 model:u-nucx card_nodes=0 size_nodes_bytes=0 card_edges=1 size_edges_bytes=2 size_total_bytes=12
file_name:nqueens-4 model:o-u card_nodes=29 size_nodes_bytes=50 card_edges=1 size_edges_bytes=3 size_total_bytes=701
file_name:nqueens-4 model:o-nu card_nodes=29 size_nodes_bytes=50 card_edges=1 size_edges_bytes=3 size_total_bytes=701
file_name:nqueens-4 model:o-c10 card_nodes=8 size_nodes_bytes=15 card_edges=1 size_edges_bytes=3 size_total_bytes=204
file_name:nqueens-4 model:o-uc0 card_nodes=1 size_nodes_bytes=9 card_edges=1 size_edges_bytes=2 size_total_bytes=43
file_name:nqueens-4 model:o-nucx card_nodes=1 size_nodes_bytes=12 card_edges=1 size_edges_bytes=3 size_total_bytes=47
file_name:nqueens-4 model:u-nu card_nodes=29 size_nodes_bytes=79 card_edges=1 size_edges_bytes=4 size_total_bytes=731
file_name:nqueens-4 model:u-nux card_nodes=28 size_nodes_bytes=102 card_edges=1 size_edges_bytes=4 size_total_bytes=732
file_name:nqueens-4 model:u-nuc card_nodes=1 size_nodes_bytes=9 card_edges=1 size_edges_bytes=9 size_total_bytes=50
file_name:nqueens-4 model:u-nucx card_nodes=1 size_nodes_bytes=7 card_edges=1 size_edges_bytes=9 size_total_bytes=48
file_name:nqueens-5 model:o-u card_nodes=167 size_nodes_bytes=347 card_edges=1 size_edges_bytes=3 size_total_bytes=4034
file_name:nqueens-5 model:o-nu card_nodes=166 size_nodes_bytes=347 card_edges=1 size_edges_bytes=3 size_total_bytes=4012
file_name:nqueens-5 model:o-c10 card_nodes=40 size_nodes_bytes=81 card_edges=1 size_edges_bytes=3 size_total_bytes=974
file_name:nqueens-5 model:o-uc0 card_nodes=9 size_nodes_bytes=57 card_edges=1 size_edges_bytes=2 size_total_bytes=267
file_name:nqueens-5 model:o-nucx card_nodes=9 size_nodes_bytes=77 card_edges=1 size_edges_bytes=2 size_total_bytes=287
file_name:nqueens-5 model:u-nu card_nodes=166 size_nodes_bytes=681 card_edges=1 size_edges_bytes=5 size_total_bytes=4348
file_name:nqueens-5 model:u-nux card_nodes=165 size_nodes_bytes=909 card_edges=1 size_edges_bytes=5 size_total_bytes=4554
file_name:nqueens-5 model:u-nuc card_nodes=6 size_nodes_bytes=73 card_edges=1 size_edges_bytes=7 size_total_bytes=222
file_name:nqueens-5 model:u-nucx card_nodes=6 size_nodes_bytes=69 card_edges=1 size_edges_bytes=4 size_total_bytes=215
file_name:nqueens-6 model:o-u card_nodes=129 size_nodes_bytes=248 card_edges=1 size_edges_bytes=3 size_total_bytes=3099
file_name:nqueens-6 model:o-nu card_nodes=129 size_nodes_bytes=249 card_edges=1 size_edges_bytes=4 size_total_bytes=3101
file_name:nqueens-6 model:o-c10 card_nodes=24 size_nodes_bytes=53 card_edges=1 size_edges_bytes=3 size_total_bytes=594
file_name:nqueens-6 model:o-uc0 card_nodes=3 size_nodes_bytes=28 card_edges=1 size_edges_bytes=3 size_total_bytes=107
file_name:nqueens-6 model:o-nucx card_nodes=3 size_nodes_bytes=39 card_edges=1 size_edges_bytes=3 size_total_bytes=118
file_name:nqueens-6 model:u-nu card_nodes=129 size_nodes_bytes=682 card_edges=1 size_edges_bytes=7 size_total_bytes=3537
file_name:nqueens-6 model:u-nux card_nodes=128 size_nodes_bytes=948 card_edges=1 size_edges_bytes=7 size_total_bytes=3781
file_name:nqueens-6 model:u-nuc card_nodes=3 size_nodes_bytes=47 card_edges=1 size_edges_bytes=13 size_total_bytes=136
file_name:nqueens-6 model:u-nucx card_nodes=3 size_nodes_bytes=36 card_edges=1 size_edges_bytes=14 size_total_bytes=126
file_name:nqueens-7 model:o-u card_nodes=1099 size_nodes_bytes=3056 card_edges=1 size_edges_bytes=3 size_total_bytes=27247
file_name:nqueens-7 model:o-nu card_nodes=1098 size_nodes_bytes=3063 card_edges=1 size_edges_bytes=4 size_total_bytes=27233
file_name:nqueens-7 model:o-c10 card_nodes=186 size_nodes_bytes=505 card_edges=1 size_edges_bytes=3 size_total_bytes=4610
file_name:nqueens-7 model:o-uc0 card_nodes=39 size_nodes_bytes=323 card_edges=1 size_edges_bytes=2 size_total_bytes=1193
file_name:nqueens-7 model:o-nucx card_nodes=39 size_nodes_bytes=432 card_edges=1 size_edges_bytes=2 size_total_bytes=1302
file_name:nqueens-7 model:u-nu card_nodes=1098 size_nodes_bytes=8279 card_edges=1 size_edges_bytes=8 size_total_bytes=32453
file_name:nqueens-7 model:u-nux card_nodes=1097 size_nodes_bytes=11376 card_edges=1 size_edges_bytes=8 size_total_bytes=35528
file_name:nqueens-7 model:u-nuc card_nodes=30 size_nodes_bytes=468 card_edges=1 size_edges_bytes=10 size_total_bytes=1148
file_name:nqueens-7 model:u-nucx card_nodes=30 size_nodes_bytes=415 card_edges=1 size_edges_bytes=4 size_total_bytes=1089
file_name:nqueens-8 model:o-u card_nodes=2451 size_nodes_bytes=7586 card_edges=1 size_edges_bytes=4 size_total_bytes=61522
file_name:nqueens-8 model:o-nu card_nodes=2450 size_nodes_bytes=7606 card_edges=1 size_edges_bytes=4 size_total_bytes=61520
file_name:nqueens-8 model:o-c10 card_nodes=373 size_nodes_bytes=1130 card_edges=1 size_edges_bytes=4 size_total_bytes=9350
file_name:nqueens-8 model:o-uc0 card_nodes=91 size_nodes_bytes=823 card_edges=1 size_edges_bytes=2 size_total_bytes=2837
file_name:nqueens-8 model:o-nucx card_nodes=91 size_nodes_bytes=1082 card_edges=1 size_edges_bytes=2 size_total_bytes=3096
file_name:nqueens-8 model:u-nu card_nodes=2450 size_nodes_bytes=23539 card_edges=1 size_edges_bytes=10 size_total_bytes=77459
file_name:nqueens-8 model:u-nux card_nodes=2449 size_nodes_bytes=32687 card_edges=1 size_edges_bytes=10 size_total_bytes=86585
file_name:nqueens-8 model:u-nuc card_nodes=70 size_nodes_bytes=1138 card_edges=1 size_edges_bytes=13 size_total_bytes=2701
file_name:nqueens-8 model:u-nucx card_nodes=70 size_nodes_bytes=1013 card_edges=1 size_edges_bytes=4 size_total_bytes=2567
file_name:nqueens-9 model:o-u card_nodes=9557 size_nodes_bytes=35436 card_edges=1 size_edges_bytes=4 size_total_bytes=245704
file_name:nqueens-9 model:o-nu card_nodes=9556 size_nodes_bytes=35519 card_edges=1 size_edges_bytes=4 size_total_bytes=245765
file_name:nqueens-9 model:o-c10 card_nodes=1309 size_nodes_bytes=4653 card_edges=1 size_edges_bytes=4 size_total_bytes=33465
file_name:nqueens-9 model:o-uc0 card_nodes=351 size_nodes_bytes=3534 card_edges=1 size_edges_bytes=2 size_total_bytes=11268
file_name:nqueens-9 model:o-nucx card_nodes=351 size_nodes_bytes=4591 card_edges=1 size_edges_bytes=2 size_total_bytes=12325
file_name:nqueens-9 model:u-nu card_nodes=9556 size_nodes_bytes=116332 card_edges=1 size_edges_bytes=12 size_total_bytes=326586
file_name:nqueens-9 model:u-nux card_nodes=9555 size_nodes_bytes=161674 card_edges=1 size_edges_bytes=12 size_total_bytes=371906
file_name:nqueens-9 model:u-nuc card_nodes=262 size_nodes_bytes=4456 card_edges=1 size_edges_bytes=15 size_total_bytes=10245
file_name:nqueens-9 model:u-nucx card_nodes=262 size_nodes_bytes=4011 card_edges=1 size_edges_bytes=5 size_total_bytes=9790
file_name:nqueens-2 model:o-c10 time=0.049
file_name:nqueens-2 model:o-nucx time=0.047
file_name:nqueens-2 model:o-nu time=0.044
file_name:nqueens-2 model:o-uc0 time=0.05
file_name:nqueens-2 model:o-u time=0.258
file_name:nqueens-2 model:u-nuc time=0.047
file_name:nqueens-2 model:u-nucx time=0.046
file_name:nqueens-2 model:u-nu time=0.047
file_name:nqueens-2 model:u-nux time=0.043
file_name:nqueens-3 model:o-c10 time=0.092
file_name:nqueens-3 model:o-nucx time=0.07
file_name:nqueens-3 model:o-nu time=0.068
file_name:nqueens-3 model:o-uc0 time=0.086
file_name:nqueens-3 model:o-u time=0.07
file_name:nqueens-3 model:u-nuc time=0.069
file_name:nqueens-3 model:u-nucx time=0.072
file_name:nqueens-3 model:u-nu time=0.066
file_name:nqueens-3 model:u-nux time=0.066
file_name:nqueens-4 model:o-c10 time=0.209
file_name:nqueens-4 model:o-nucx time=0.141
file_name:nqueens-4 model:o-nu time=0.141
file_name:nqueens-4 model:o-uc0 time=0.192
file_name:nqueens-4 model:o-u time=0.147
file_name:nqueens-4 model:u-nuc time=0.148
file_name:nqueens-4 model:u-nucx time=0.169
file_name:nqueens-4 model:u-nu time=0.159
file_name:nqueens-4 model:u-nux time=0.161
file_name:nqueens-5 model:o-c10 time=0.339
file_name:nqueens-5 model:o-nucx time=0.231
file_name:nqueens-5 model:o-nu time=0.234
file_name:nqueens-5 model:o-uc0 time=0.299
file_name:nqueens-5 model:o-u time=0.236
file_name:nqueens-5 model:u-nuc time=0.277
file_name:nqueens-5 model:u-nucx time=0.313
file_name:nqueens-5 model:u-nu time=0.282
file_name:nqueens-5 model:u-nux time=0.3
file_name:nqueens-6 model:o-c10 time=0.851
file_name:nqueens-6 model:o-nucx time=0.612
file_name:nqueens-6 model:o-nu time=0.622
file_name:nqueens-6 model:o-uc0 time=0.75
file_name:nqueens-6 model:o-u time=0.623
file_name:nqueens-6 model:u-nuc time=0.944
file_name:nqueens-6 model:u-nucx time=1.207
file_name:nqueens-6 model:u-nu time=1.083
file_name:nqueens-6 model:u-nux time=1.217
file_name:nqueens-7 model:o-c10 time=3.98
file_name:nqueens-7 model:o-nucx time=3.8529999999999998
file_name:nqueens-7 model:o-nu time=4.08
file_name:nqueens-7 model:o-uc0 time=3.989
file_name:nqueens-7 model:o-u time=3.977
file_name:nqueens-7 model:u-nuc time=4.781
file_name:nqueens-7 model:u-nucx time=6.757
file_name:nqueens-7 model:u-nu time=10.805
file_name:nqueens-7 model:u-nux time=13.057
file_name:nqueens-8 model:o-c10 time=130.383
file_name:nqueens-8 model:o-nucx time=165.518
file_name:nqueens-8 model:o-nu time=179.564
file_name:nqueens-8 model:o-uc0 time=155.134
file_name:nqueens-8 model:o-u time=174.601
file_name:nqueens-8 model:u-nuc time=55.787
file_name:nqueens-8 model:u-nucx time=82.31
file_name:nqueens-8 model:u-nu time=479.2
file_name:nqueens-8 model:u-nux time=573.064
file_name:nqueens-9 model:o-c10 time=6710.253
file_name:nqueens-9 model:o-nucx time=8816.966
file_name:nqueens-9 model:o-nu time=9483.068
file_name:nqueens-9 model:o-uc0 time=8341.055
file_name:nqueens-9 model:o-u time=9188.099
file_name:nqueens-9 model:u-nuc time=388.127
file_name:nqueens-9 model:u-nucx time=574.012
file_name:nqueens-9 model:u-nu time=24517.11
file_name:nqueens-9 model:u-nux time=17153.468
