
file_name:uf50-01000 model:dd time=0.451
file_name:uf50-0100 model:dd time=0.44
file_name:uf50-0101 model:dd time=0.439
file_name:uf50-0102 model:dd time=0.439
file_name:uf50-0103 model:dd time=0.44
file_name:uf50-0104 model:dd time=0.435
file_name:uf50-0105 model:dd time=0.438
file_name:uf50-0106 model:dd time=0.434
file_name:uf50-0107 model:dd time=0.433
file_name:uf50-0108 model:dd time=0.439
file_name:uf50-0109 model:dd time=0.439
file_name:uf50-010 model:dd time=0.435
file_name:uf50-0110 model:dd time=0.437
file_name:uf50-0111 model:dd time=0.433
file_name:uf50-0112 model:dd time=0.434
file_name:uf50-0113 model:dd time=0.435
file_name:uf50-0114 model:dd time=0.444
file_name:uf50-0115 model:dd time=0.439
file_name:uf50-0116 model:dd time=0.434
file_name:uf50-0117 model:dd time=0.442
file_name:uf50-0118 model:dd time=0.435
file_name:uf50-0119 model:dd time=0.436
file_name:uf50-011 model:dd time=0.433
file_name:uf50-0120 model:dd time=0.434
file_name:uf50-0121 model:dd time=0.437
file_name:uf50-0122 model:dd time=0.434
file_name:uf50-0123 model:dd time=0.435
file_name:uf50-0124 model:dd time=0.435
file_name:uf50-0125 model:dd time=0.431
file_name:uf50-0126 model:dd time=0.433
file_name:uf50-0127 model:dd time=0.436
file_name:uf50-0128 model:dd time=0.438
file_name:uf50-0129 model:dd time=0.433
file_name:uf50-012 model:dd time=0.433
file_name:uf50-0130 model:dd time=0.434
file_name:uf50-0131 model:dd time=0.436
file_name:uf50-0132 model:dd time=0.437
file_name:uf50-0133 model:dd time=0.434
file_name:uf50-0134 model:dd time=0.435
file_name:uf50-0135 model:dd time=0.436
file_name:uf50-0136 model:dd time=0.459
file_name:uf50-0137 model:dd time=0.434
file_name:uf50-0138 model:dd time=0.432
file_name:uf50-0139 model:dd time=0.432
file_name:uf50-013 model:dd time=0.433
file_name:uf50-0140 model:dd time=0.435
file_name:uf50-0141 model:dd time=0.437
file_name:uf50-0142 model:dd time=0.434
file_name:uf50-0143 model:dd time=0.434
file_name:uf50-0144 model:dd time=0.432
file_name:uf50-0145 model:dd time=0.44
file_name:uf50-0146 model:dd time=0.434
file_name:uf50-0147 model:dd time=0.434
file_name:uf50-0148 model:dd time=0.431
file_name:uf50-0149 model:dd time=0.44
file_name:uf50-014 model:dd time=0.433
file_name:uf50-0150 model:dd time=0.434
file_name:uf50-0151 model:dd time=0.433
file_name:uf50-0152 model:dd time=0.434
file_name:uf50-0153 model:dd time=0.432
file_name:uf50-0154 model:dd time=0.433
file_name:uf50-0155 model:dd time=0.439
file_name:uf50-0156 model:dd time=0.433
file_name:uf50-0157 model:dd time=0.439
file_name:uf50-0158 model:dd time=0.436
file_name:uf50-0159 model:dd time=0.436
file_name:uf50-015 model:dd time=0.434
file_name:uf50-0160 model:dd time=0.436
file_name:uf50-0161 model:dd time=0.437
file_name:uf50-0162 model:dd time=0.435
file_name:uf50-0163 model:dd time=0.436
file_name:uf50-0164 model:dd time=0.438
file_name:uf50-0165 model:dd time=0.433
file_name:uf50-0166 model:dd time=0.441
file_name:uf50-0167 model:dd time=0.434
file_name:uf50-0168 model:dd time=0.435
file_name:uf50-0169 model:dd time=0.441
file_name:uf50-016 model:dd time=0.435
file_name:uf50-0170 model:dd time=0.434
file_name:uf50-0171 model:dd time=0.434
file_name:uf50-0172 model:dd time=0.433
file_name:uf50-0173 model:dd time=0.437
file_name:uf50-0174 model:dd time=0.436
file_name:uf50-0175 model:dd time=0.435
file_name:uf50-0176 model:dd time=0.44
file_name:uf50-0177 model:dd time=0.433
file_name:uf50-0178 model:dd time=0.446
file_name:uf50-0179 model:dd time=0.438
file_name:uf50-017 model:dd time=0.434
file_name:uf50-0180 model:dd time=0.437
file_name:uf50-0181 model:dd time=0.432
file_name:uf50-0182 model:dd time=0.436
file_name:uf50-0183 model:dd time=0.437
file_name:uf50-0184 model:dd time=0.433
file_name:uf50-0185 model:dd time=0.445
file_name:uf50-0186 model:dd time=0.433
file_name:uf50-0187 model:dd time=0.431
file_name:uf50-0188 model:dd time=0.435
file_name:uf50-0189 model:dd time=0.432
file_name:uf50-018 model:dd time=0.441
file_name:uf50-0190 model:dd time=0.435
file_name:uf50-0191 model:dd time=0.438
file_name:uf50-0192 model:dd time=0.443
file_name:uf50-0193 model:dd time=0.435
file_name:uf50-0194 model:dd time=0.436
file_name:uf50-0195 model:dd time=0.437
file_name:uf50-0196 model:dd time=0.437
file_name:uf50-0197 model:dd time=0.436
file_name:uf50-0198 model:dd time=0.439
file_name:uf50-0199 model:dd time=0.438
file_name:uf50-019 model:dd time=0.435
file_name:uf50-01 model:dd time=0.437
file_name:uf50-0200 model:dd time=0.438
file_name:uf50-0201 model:dd time=0.433
file_name:uf50-0202 model:dd time=0.433
file_name:uf50-0203 model:dd time=0.434
file_name:uf50-0204 model:dd time=0.435
file_name:uf50-0205 model:dd time=0.434
file_name:uf50-0206 model:dd time=0.444
file_name:uf50-0207 model:dd time=0.436
file_name:uf50-0208 model:dd time=0.437
file_name:uf50-0209 model:dd time=0.439
file_name:uf50-020 model:dd time=0.437
file_name:uf50-0210 model:dd time=0.436
file_name:uf50-0211 model:dd time=0.434
file_name:uf50-0212 model:dd time=0.434
file_name:uf50-0213 model:dd time=0.435
file_name:uf50-0214 model:dd time=0.432
file_name:uf50-0215 model:dd time=0.435
file_name:uf50-0216 model:dd time=0.432
file_name:uf50-0217 model:dd time=0.44
file_name:uf50-0218 model:dd time=0.434
file_name:uf50-0219 model:dd time=0.438
file_name:uf50-021 model:dd time=0.435
file_name:uf50-0220 model:dd time=0.435
file_name:uf50-0221 model:dd time=0.433
file_name:uf50-0222 model:dd time=0.437
file_name:uf50-0223 model:dd time=0.436
file_name:uf50-0224 model:dd time=0.449
file_name:uf50-0225 model:dd time=0.434
file_name:uf50-0226 model:dd time=0.435
file_name:uf50-0227 model:dd time=0.434
file_name:uf50-0228 model:dd time=0.434
file_name:uf50-0229 model:dd time=0.442
file_name:uf50-022 model:dd time=0.434
file_name:uf50-0230 model:dd time=0.433
file_name:uf50-0231 model:dd time=0.434
file_name:uf50-0232 model:dd time=0.434
file_name:uf50-0233 model:dd time=0.435
file_name:uf50-0234 model:dd time=0.435
file_name:uf50-0235 model:dd time=0.432
file_name:uf50-0236 model:dd time=0.436
file_name:uf50-0237 model:dd time=0.438
file_name:uf50-0238 model:dd time=0.44
file_name:uf50-0239 model:dd time=0.437
file_name:uf50-023 model:dd time=0.435
file_name:uf50-0240 model:dd time=0.437
file_name:uf50-0241 model:dd time=0.433
file_name:uf50-0242 model:dd time=0.442
file_name:uf50-0243 model:dd time=0.434
file_name:uf50-0244 model:dd time=0.448
file_name:uf50-0245 model:dd time=0.434
file_name:uf50-0246 model:dd time=0.437
file_name:uf50-0247 model:dd time=0.434
file_name:uf50-0248 model:dd time=0.438
file_name:uf50-0249 model:dd time=0.436
file_name:uf50-024 model:dd time=0.433
file_name:uf50-0250 model:dd time=0.444
file_name:uf50-0251 model:dd time=0.439
file_name:uf50-0252 model:dd time=0.439
file_name:uf50-0253 model:dd time=0.432
file_name:uf50-0254 model:dd time=0.436
file_name:uf50-0255 model:dd time=0.435
file_name:uf50-0256 model:dd time=0.437
file_name:uf50-0257 model:dd time=0.434
file_name:uf50-0258 model:dd time=0.433
file_name:uf50-0259 model:dd time=0.449
file_name:uf50-025 model:dd time=0.433
file_name:uf50-0260 model:dd time=0.443
file_name:uf50-0261 model:dd time=0.433
file_name:uf50-0262 model:dd time=0.437
file_name:uf50-0263 model:dd time=0.432
file_name:uf50-0264 model:dd time=0.438
file_name:uf50-0265 model:dd time=0.435
file_name:uf50-0266 model:dd time=0.435
file_name:uf50-0267 model:dd time=0.433
file_name:uf50-0268 model:dd time=0.434
file_name:uf50-0269 model:dd time=0.438
file_name:uf50-026 model:dd time=0.436
file_name:uf50-0270 model:dd time=0.434
file_name:uf50-0271 model:dd time=0.433
file_name:uf50-0272 model:dd time=0.434
file_name:uf50-0273 model:dd time=0.437
file_name:uf50-0274 model:dd time=0.436
file_name:uf50-0275 model:dd time=0.434
file_name:uf50-0276 model:dd time=0.435
file_name:uf50-0277 model:dd time=0.434
file_name:uf50-0278 model:dd time=0.44
file_name:uf50-0279 model:dd time=0.435
file_name:uf50-027 model:dd time=0.44
file_name:uf50-0280 model:dd time=0.436
file_name:uf50-0281 model:dd time=0.436
file_name:uf50-0282 model:dd time=0.433
file_name:uf50-0283 model:dd time=0.436
file_name:uf50-0284 model:dd time=0.434
file_name:uf50-0285 model:dd time=0.435
file_name:uf50-0286 model:dd time=0.435
file_name:uf50-0287 model:dd time=0.435
file_name:uf50-0288 model:dd time=0.437
file_name:uf50-0289 model:dd time=0.435
file_name:uf50-028 model:dd time=0.438
file_name:uf50-0290 model:dd time=0.437
file_name:uf50-0291 model:dd time=0.441
file_name:uf50-0292 model:dd time=0.438
file_name:uf50-0293 model:dd time=0.434
file_name:uf50-0294 model:dd time=0.44
file_name:uf50-0295 model:dd time=0.434
file_name:uf50-0296 model:dd time=0.434
file_name:uf50-0297 model:dd time=0.433
file_name:uf50-0298 model:dd time=0.436
file_name:uf50-0299 model:dd time=0.435
file_name:uf50-029 model:dd time=0.437
file_name:uf50-02 model:dd time=0.434
file_name:uf50-0300 model:dd time=0.439
file_name:uf50-0301 model:dd time=0.433
file_name:uf50-0302 model:dd time=0.435
file_name:uf50-0303 model:dd time=0.433
file_name:uf50-0304 model:dd time=0.436
file_name:uf50-0305 model:dd time=0.437
file_name:uf50-0306 model:dd time=0.434
file_name:uf50-0307 model:dd time=0.433
file_name:uf50-0308 model:dd time=0.434
file_name:uf50-0309 model:dd time=0.433
file_name:uf50-030 model:dd time=0.435
file_name:uf50-0310 model:dd time=0.437
file_name:uf50-0311 model:dd time=0.433
file_name:uf50-0312 model:dd time=0.434
file_name:uf50-0313 model:dd time=0.433
file_name:uf50-0314 model:dd time=0.434
file_name:uf50-0315 model:dd time=0.437
file_name:uf50-0316 model:dd time=0.44
file_name:uf50-0317 model:dd time=0.444
file_name:uf50-0318 model:dd time=0.434
file_name:uf50-0319 model:dd time=0.435
file_name:uf50-031 model:dd time=0.441
file_name:uf50-0320 model:dd time=0.439
file_name:uf50-0321 model:dd time=0.435
file_name:uf50-0322 model:dd time=0.435
file_name:uf50-0323 model:dd time=0.433
file_name:uf50-0324 model:dd time=0.435
file_name:uf50-0325 model:dd time=0.437
file_name:uf50-0326 model:dd time=0.433
file_name:uf50-0327 model:dd time=0.434
file_name:uf50-0328 model:dd time=0.435
file_name:uf50-0329 model:dd time=0.44
file_name:uf50-032 model:dd time=0.434
file_name:uf50-0330 model:dd time=0.436
file_name:uf50-0331 model:dd time=0.436
file_name:uf50-0332 model:dd time=0.435
file_name:uf50-0333 model:dd time=0.434
file_name:uf50-0334 model:dd time=0.442
file_name:uf50-0335 model:dd time=0.438
file_name:uf50-0336 model:dd time=0.436
file_name:uf50-0337 model:dd time=0.433
file_name:uf50-0338 model:dd time=0.438
file_name:uf50-0339 model:dd time=0.437
file_name:uf50-033 model:dd time=0.44
file_name:uf50-0340 model:dd time=0.433
file_name:uf50-0341 model:dd time=0.433
file_name:uf50-0342 model:dd time=0.435
file_name:uf50-0343 model:dd time=0.435
file_name:uf50-0344 model:dd time=0.432
file_name:uf50-0345 model:dd time=0.432
file_name:uf50-0346 model:dd time=0.436
file_name:uf50-0347 model:dd time=0.437
file_name:uf50-0348 model:dd time=0.446
file_name:uf50-0349 model:dd time=0.434
file_name:uf50-034 model:dd time=0.438
file_name:uf50-0350 model:dd time=0.435
file_name:uf50-0351 model:dd time=0.434
file_name:uf50-0352 model:dd time=0.437
file_name:uf50-0353 model:dd time=0.434
file_name:uf50-0354 model:dd time=0.437
file_name:uf50-0355 model:dd time=0.433
file_name:uf50-0356 model:dd time=0.438
file_name:uf50-0357 model:dd time=0.437
file_name:uf50-0358 model:dd time=0.434
file_name:uf50-0359 model:dd time=0.435
file_name:uf50-035 model:dd time=0.434
file_name:uf50-0360 model:dd time=0.441
file_name:uf50-0361 model:dd time=0.447
file_name:uf50-0362 model:dd time=0.458
file_name:uf50-0363 model:dd time=0.433
file_name:uf50-0364 model:dd time=0.432
file_name:uf50-0365 model:dd time=0.438
file_name:uf50-0366 model:dd time=0.44
file_name:uf50-0367 model:dd time=0.434
file_name:uf50-0368 model:dd time=0.437
file_name:uf50-0369 model:dd time=0.434
file_name:uf50-036 model:dd time=0.436
file_name:uf50-0370 model:dd time=0.436
file_name:uf50-0371 model:dd time=0.436
file_name:uf50-0372 model:dd time=0.433
file_name:uf50-0373 model:dd time=0.432
file_name:uf50-0374 model:dd time=0.435
file_name:uf50-0375 model:dd time=0.436
file_name:uf50-0376 model:dd time=0.439
file_name:uf50-0377 model:dd time=0.441
file_name:uf50-0378 model:dd time=0.44
file_name:uf50-0379 model:dd time=0.436
file_name:uf50-037 model:dd time=0.437
file_name:uf50-0380 model:dd time=0.436
file_name:uf50-0381 model:dd time=0.434
file_name:uf50-0382 model:dd time=0.434
file_name:uf50-0383 model:dd time=0.435
file_name:uf50-0384 model:dd time=0.434
file_name:uf50-0385 model:dd time=0.436
file_name:uf50-0386 model:dd time=0.435
file_name:uf50-0387 model:dd time=0.436
file_name:uf50-0388 model:dd time=0.435
file_name:uf50-0389 model:dd time=0.434
file_name:uf50-038 model:dd time=0.434
file_name:uf50-0390 model:dd time=0.434
file_name:uf50-0391 model:dd time=0.435
file_name:uf50-0392 model:dd time=0.433
file_name:uf50-0393 model:dd time=0.436
file_name:uf50-0394 model:dd time=0.434
file_name:uf50-0395 model:dd time=0.436
file_name:uf50-0396 model:dd time=0.435
file_name:uf50-0397 model:dd time=0.435
file_name:uf50-0398 model:dd time=0.435
file_name:uf50-0399 model:dd time=0.434
file_name:uf50-039 model:dd time=0.439
file_name:uf50-03 model:dd time=0.437
file_name:uf50-0400 model:dd time=0.432
file_name:uf50-0401 model:dd time=0.436
file_name:uf50-0402 model:dd time=0.434
file_name:uf50-0403 model:dd time=0.433
file_name:uf50-0404 model:dd time=0.444
file_name:uf50-0405 model:dd time=0.434
file_name:uf50-0406 model:dd time=0.435
file_name:uf50-0407 model:dd time=0.436
file_name:uf50-0408 model:dd time=0.433
file_name:uf50-0409 model:dd time=0.449
file_name:uf50-040 model:dd time=0.439
file_name:uf50-0410 model:dd time=0.439
file_name:uf50-0411 model:dd time=0.435
file_name:uf50-0412 model:dd time=0.434
file_name:uf50-0413 model:dd time=0.434
file_name:uf50-0414 model:dd time=0.437
file_name:uf50-0415 model:dd time=0.434
file_name:uf50-0416 model:dd time=0.435
file_name:uf50-0417 model:dd time=0.437
file_name:uf50-0418 model:dd time=0.435
file_name:uf50-0419 model:dd time=0.434
file_name:uf50-041 model:dd time=0.436
file_name:uf50-0420 model:dd time=0.435
file_name:uf50-0421 model:dd time=0.424
file_name:uf50-0422 model:dd time=0.429
file_name:uf50-0423 model:dd time=0.434
file_name:uf50-0424 model:dd time=0.436
file_name:uf50-0425 model:dd time=0.437
file_name:uf50-0426 model:dd time=0.437
file_name:uf50-0427 model:dd time=0.437
file_name:uf50-0428 model:dd time=0.435
file_name:uf50-0429 model:dd time=0.434
file_name:uf50-042 model:dd time=0.435
file_name:uf50-0430 model:dd time=0.434
file_name:uf50-0431 model:dd time=0.436
file_name:uf50-0432 model:dd time=0.438
file_name:uf50-0433 model:dd time=0.433
file_name:uf50-0434 model:dd time=0.435
file_name:uf50-0435 model:dd time=0.435
file_name:uf50-0436 model:dd time=0.435
file_name:uf50-0437 model:dd time=0.434
file_name:uf50-0438 model:dd time=0.435
file_name:uf50-0439 model:dd time=0.448
file_name:uf50-043 model:dd time=0.437
file_name:uf50-0440 model:dd time=0.436
file_name:uf50-0441 model:dd time=0.438
file_name:uf50-0442 model:dd time=0.438
file_name:uf50-0443 model:dd time=0.436
file_name:uf50-0444 model:dd time=0.437
file_name:uf50-0445 model:dd time=0.435
file_name:uf50-0446 model:dd time=0.436
file_name:uf50-0447 model:dd time=0.436
file_name:uf50-0448 model:dd time=0.433
file_name:uf50-0449 model:dd time=0.436
file_name:uf50-044 model:dd time=0.436
file_name:uf50-0450 model:dd time=0.437
file_name:uf50-0451 model:dd time=0.435
file_name:uf50-0452 model:dd time=0.435
file_name:uf50-0453 model:dd time=0.434
file_name:uf50-0454 model:dd time=0.434
file_name:uf50-0455 model:dd time=0.435
file_name:uf50-0456 model:dd time=0.436
file_name:uf50-0457 model:dd time=0.441
file_name:uf50-0458 model:dd time=0.44
file_name:uf50-0459 model:dd time=0.435
file_name:uf50-045 model:dd time=0.435
file_name:uf50-0460 model:dd time=0.435
file_name:uf50-0461 model:dd time=0.448
file_name:uf50-0462 model:dd time=0.438
file_name:uf50-0463 model:dd time=0.434
file_name:uf50-0464 model:dd time=0.435
file_name:uf50-0465 model:dd time=0.433
file_name:uf50-0466 model:dd time=0.438
file_name:uf50-0467 model:dd time=0.434
file_name:uf50-0468 model:dd time=0.434
file_name:uf50-0469 model:dd time=0.435
file_name:uf50-046 model:dd time=0.438
file_name:uf50-0470 model:dd time=0.432
file_name:uf50-0471 model:dd time=0.436
file_name:uf50-0472 model:dd time=0.44
file_name:uf50-0473 model:dd time=0.435
file_name:uf50-0474 model:dd time=0.434
file_name:uf50-0475 model:dd time=0.436
file_name:uf50-0476 model:dd time=0.433
file_name:uf50-0477 model:dd time=0.433
file_name:uf50-0478 model:dd time=0.435
file_name:uf50-0479 model:dd time=0.432
file_name:uf50-047 model:dd time=0.434
file_name:uf50-0480 model:dd time=0.435
file_name:uf50-0481 model:dd time=0.44
file_name:uf50-0482 model:dd time=0.434
file_name:uf50-0483 model:dd time=0.439
file_name:uf50-0484 model:dd time=0.439
file_name:uf50-0485 model:dd time=0.434
file_name:uf50-0486 model:dd time=0.434
file_name:uf50-0487 model:dd time=0.446
file_name:uf50-0488 model:dd time=0.445
file_name:uf50-0489 model:dd time=0.437
file_name:uf50-048 model:dd time=0.435
file_name:uf50-0490 model:dd time=0.436
file_name:uf50-0491 model:dd time=0.436
file_name:uf50-0492 model:dd time=0.44
file_name:uf50-0493 model:dd time=0.437
file_name:uf50-0494 model:dd time=0.435
file_name:uf50-0495 model:dd time=0.435
file_name:uf50-0496 model:dd time=0.438
file_name:uf50-0497 model:dd time=0.436
file_name:uf50-0498 model:dd time=0.437
file_name:uf50-0499 model:dd time=0.435
file_name:uf50-049 model:dd time=0.435
file_name:uf50-04 model:dd time=0.436
file_name:uf50-0500 model:dd time=0.434
file_name:uf50-0501 model:dd time=0.434
file_name:uf50-0502 model:dd time=0.437
file_name:uf50-0503 model:dd time=0.433
file_name:uf50-0504 model:dd time=0.437
file_name:uf50-0505 model:dd time=0.436
file_name:uf50-0506 model:dd time=0.441
file_name:uf50-0507 model:dd time=0.435
file_name:uf50-0508 model:dd time=0.439
file_name:uf50-0509 model:dd time=0.435
file_name:uf50-050 model:dd time=0.435
file_name:uf50-0510 model:dd time=0.434
file_name:uf50-0511 model:dd time=0.442
file_name:uf50-0512 model:dd time=0.442
file_name:uf50-0513 model:dd time=0.436
file_name:uf50-0514 model:dd time=0.432
file_name:uf50-0515 model:dd time=0.435
file_name:uf50-0516 model:dd time=0.44
file_name:uf50-0517 model:dd time=0.434
file_name:uf50-0518 model:dd time=0.434
file_name:uf50-0519 model:dd time=0.435
file_name:uf50-051 model:dd time=0.446
file_name:uf50-0520 model:dd time=0.436
file_name:uf50-0521 model:dd time=0.442
file_name:uf50-0522 model:dd time=0.433
file_name:uf50-0523 model:dd time=0.436
file_name:uf50-0524 model:dd time=0.436
file_name:uf50-0525 model:dd time=0.438
file_name:uf50-0526 model:dd time=0.435
file_name:uf50-0527 model:dd time=0.444
file_name:uf50-0528 model:dd time=0.434
file_name:uf50-0529 model:dd time=0.439
file_name:uf50-052 model:dd time=0.436
file_name:uf50-0530 model:dd time=0.433
file_name:uf50-0531 model:dd time=0.435
file_name:uf50-0532 model:dd time=0.438
file_name:uf50-0533 model:dd time=0.437
file_name:uf50-0534 model:dd time=0.435
file_name:uf50-0535 model:dd time=0.437
file_name:uf50-0536 model:dd time=0.435
file_name:uf50-0537 model:dd time=0.445
file_name:uf50-0538 model:dd time=0.435
file_name:uf50-0539 model:dd time=0.436
file_name:uf50-053 model:dd time=0.436
file_name:uf50-0540 model:dd time=0.436
file_name:uf50-0541 model:dd time=0.436
file_name:uf50-0542 model:dd time=0.436
file_name:uf50-0543 model:dd time=0.461
file_name:uf50-0544 model:dd time=0.441
file_name:uf50-0545 model:dd time=0.434
file_name:uf50-0546 model:dd time=0.435
file_name:uf50-0547 model:dd time=0.439
file_name:uf50-0548 model:dd time=0.438
file_name:uf50-0549 model:dd time=0.44
file_name:uf50-054 model:dd time=0.437
file_name:uf50-0550 model:dd time=0.435
file_name:uf50-0551 model:dd time=0.435
file_name:uf50-0552 model:dd time=0.434
file_name:uf50-0553 model:dd time=0.435
file_name:uf50-0554 model:dd time=0.436
file_name:uf50-0555 model:dd time=0.436
file_name:uf50-0556 model:dd time=0.433
file_name:uf50-0557 model:dd time=0.438
file_name:uf50-0558 model:dd time=0.434
file_name:uf50-0559 model:dd time=0.439
file_name:uf50-055 model:dd time=0.434
file_name:uf50-0560 model:dd time=0.437
file_name:uf50-0561 model:dd time=0.435
file_name:uf50-0562 model:dd time=0.434
file_name:uf50-0563 model:dd time=0.433
file_name:uf50-0564 model:dd time=0.436
file_name:uf50-0565 model:dd time=0.433
file_name:uf50-0566 model:dd time=0.434
file_name:uf50-0567 model:dd time=0.436
file_name:uf50-0568 model:dd time=0.435
file_name:uf50-0569 model:dd time=0.434
file_name:uf50-056 model:dd time=0.435
file_name:uf50-0570 model:dd time=0.439
file_name:uf50-0571 model:dd time=0.439
file_name:uf50-0572 model:dd time=0.435
file_name:uf50-0573 model:dd time=0.441
file_name:uf50-0574 model:dd time=0.435
file_name:uf50-0575 model:dd time=0.434
file_name:uf50-0576 model:dd time=0.437
file_name:uf50-0577 model:dd time=0.434
file_name:uf50-0578 model:dd time=0.435
file_name:uf50-0579 model:dd time=0.433
file_name:uf50-057 model:dd time=0.435
file_name:uf50-0580 model:dd time=0.434
file_name:uf50-0581 model:dd time=0.437
file_name:uf50-0582 model:dd time=0.433
file_name:uf50-0583 model:dd time=0.434
file_name:uf50-0584 model:dd time=0.444
file_name:uf50-0585 model:dd time=0.438
file_name:uf50-0586 model:dd time=0.435
file_name:uf50-0587 model:dd time=0.436
file_name:uf50-0588 model:dd time=0.433
file_name:uf50-0589 model:dd time=0.434
file_name:uf50-058 model:dd time=0.436
file_name:uf50-0590 model:dd time=0.435
file_name:uf50-0591 model:dd time=0.437
file_name:uf50-0592 model:dd time=0.436
file_name:uf50-0593 model:dd time=0.436
file_name:uf50-0594 model:dd time=0.439
file_name:uf50-0595 model:dd time=0.441
file_name:uf50-0596 model:dd time=0.457
file_name:uf50-0597 model:dd time=0.435
file_name:uf50-0598 model:dd time=0.442
file_name:uf50-0599 model:dd time=0.436
file_name:uf50-059 model:dd time=0.436
file_name:uf50-05 model:dd time=0.447
file_name:uf50-0600 model:dd time=0.433
file_name:uf50-0601 model:dd time=0.435
file_name:uf50-0602 model:dd time=0.438
file_name:uf50-0603 model:dd time=0.437
file_name:uf50-0604 model:dd time=0.444
file_name:uf50-0605 model:dd time=0.435
file_name:uf50-0606 model:dd time=0.439
file_name:uf50-0607 model:dd time=0.438
file_name:uf50-0608 model:dd time=0.435
file_name:uf50-0609 model:dd time=0.434
file_name:uf50-060 model:dd time=0.435
file_name:uf50-0610 model:dd time=0.437
file_name:uf50-0611 model:dd time=0.44
file_name:uf50-0612 model:dd time=0.435
file_name:uf50-0613 model:dd time=0.436
file_name:uf50-0614 model:dd time=0.435
file_name:uf50-0615 model:dd time=0.434
file_name:uf50-0616 model:dd time=0.436
file_name:uf50-0617 model:dd time=0.434
file_name:uf50-0618 model:dd time=0.438
file_name:uf50-0619 model:dd time=0.436
file_name:uf50-061 model:dd time=0.438
file_name:uf50-0620 model:dd time=0.437
file_name:uf50-0621 model:dd time=0.436
file_name:uf50-0622 model:dd time=0.437
file_name:uf50-0623 model:dd time=0.435
file_name:uf50-0624 model:dd time=0.438
file_name:uf50-0625 model:dd time=0.437
file_name:uf50-0626 model:dd time=0.442
file_name:uf50-0627 model:dd time=0.438
file_name:uf50-0628 model:dd time=0.443
file_name:uf50-0629 model:dd time=0.436
file_name:uf50-062 model:dd time=0.441
file_name:uf50-0630 model:dd time=0.435
file_name:uf50-0631 model:dd time=0.436
file_name:uf50-0632 model:dd time=0.433
file_name:uf50-0633 model:dd time=0.433
file_name:uf50-0634 model:dd time=0.434
file_name:uf50-0635 model:dd time=0.462
file_name:uf50-0636 model:dd time=0.443
file_name:uf50-0637 model:dd time=0.451
file_name:uf50-0638 model:dd time=0.435
file_name:uf50-0639 model:dd time=0.436
file_name:uf50-063 model:dd time=0.446
file_name:uf50-0640 model:dd time=0.435
file_name:uf50-0641 model:dd time=0.436
file_name:uf50-0642 model:dd time=0.434
file_name:uf50-0643 model:dd time=0.435
file_name:uf50-0644 model:dd time=0.435
file_name:uf50-0645 model:dd time=0.437
file_name:uf50-0646 model:dd time=0.434
file_name:uf50-0647 model:dd time=0.439
file_name:uf50-0648 model:dd time=0.437
file_name:uf50-0649 model:dd time=0.441
file_name:uf50-064 model:dd time=0.44
file_name:uf50-0650 model:dd time=0.437
file_name:uf50-0651 model:dd time=0.438
file_name:uf50-0652 model:dd time=0.436
file_name:uf50-0653 model:dd time=0.437
file_name:uf50-0654 model:dd time=0.436
file_name:uf50-0655 model:dd time=0.438
file_name:uf50-0656 model:dd time=0.434
file_name:uf50-0657 model:dd time=0.437
file_name:uf50-0658 model:dd time=0.439
file_name:uf50-0659 model:dd time=0.44
file_name:uf50-065 model:dd time=0.437
file_name:uf50-0660 model:dd time=0.434
file_name:uf50-0661 model:dd time=0.438
file_name:uf50-0662 model:dd time=0.434
file_name:uf50-0663 model:dd time=0.437
file_name:uf50-0664 model:dd time=0.435
file_name:uf50-0665 model:dd time=0.436
file_name:uf50-0666 model:dd time=0.435
file_name:uf50-0667 model:dd time=0.447
file_name:uf50-0668 model:dd time=0.443
file_name:uf50-0669 model:dd time=0.436
file_name:uf50-066 model:dd time=0.436
file_name:uf50-0670 model:dd time=0.435
file_name:uf50-0671 model:dd time=0.434
file_name:uf50-0672 model:dd time=0.435
file_name:uf50-0673 model:dd time=0.436
file_name:uf50-0674 model:dd time=0.437
file_name:uf50-0675 model:dd time=0.433
file_name:uf50-0676 model:dd time=0.437
file_name:uf50-0677 model:dd time=0.44
file_name:uf50-0678 model:dd time=0.448
file_name:uf50-0679 model:dd time=0.435
file_name:uf50-067 model:dd time=0.436
file_name:uf50-0680 model:dd time=0.438
file_name:uf50-0681 model:dd time=0.435
file_name:uf50-0682 model:dd time=0.438
file_name:uf50-0683 model:dd time=0.44
file_name:uf50-0684 model:dd time=0.442
file_name:uf50-0685 model:dd time=0.439
file_name:uf50-0686 model:dd time=0.435
file_name:uf50-0687 model:dd time=0.436
file_name:uf50-0688 model:dd time=0.435
file_name:uf50-0689 model:dd time=0.437
file_name:uf50-068 model:dd time=0.436
file_name:uf50-0690 model:dd time=0.437
file_name:uf50-0691 model:dd time=0.435
file_name:uf50-0692 model:dd time=0.437
file_name:uf50-0693 model:dd time=0.435
file_name:uf50-0694 model:dd time=0.465
file_name:uf50-0695 model:dd time=0.438
file_name:uf50-0696 model:dd time=0.435
file_name:uf50-0697 model:dd time=0.437
file_name:uf50-0698 model:dd time=0.434
file_name:uf50-0699 model:dd time=0.439
file_name:uf50-069 model:dd time=0.436
file_name:uf50-06 model:dd time=0.441
file_name:uf50-0700 model:dd time=0.434
file_name:uf50-0701 model:dd time=0.437
file_name:uf50-0702 model:dd time=0.441
file_name:uf50-0703 model:dd time=0.441
file_name:uf50-0704 model:dd time=0.441
file_name:uf50-0705 model:dd time=0.442
file_name:uf50-0706 model:dd time=0.433
file_name:uf50-0707 model:dd time=0.435
file_name:uf50-0708 model:dd time=0.434
file_name:uf50-0709 model:dd time=0.44
file_name:uf50-070 model:dd time=0.435
file_name:uf50-0710 model:dd time=0.435
file_name:uf50-0711 model:dd time=0.439
file_name:uf50-0712 model:dd time=0.436
file_name:uf50-0713 model:dd time=0.436
file_name:uf50-0714 model:dd time=0.435
file_name:uf50-0715 model:dd time=0.435
file_name:uf50-0716 model:dd time=0.442
file_name:uf50-0717 model:dd time=0.433
file_name:uf50-0718 model:dd time=0.439
file_name:uf50-0719 model:dd time=0.44
file_name:uf50-071 model:dd time=0.441
file_name:uf50-0720 model:dd time=0.433
file_name:uf50-0721 model:dd time=0.436
file_name:uf50-0722 model:dd time=0.436
file_name:uf50-0723 model:dd time=0.436
file_name:uf50-0724 model:dd time=0.438
file_name:uf50-0725 model:dd time=0.441
file_name:uf50-0726 model:dd time=0.433
file_name:uf50-0727 model:dd time=0.434
file_name:uf50-0728 model:dd time=0.434
file_name:uf50-0729 model:dd time=0.435
file_name:uf50-072 model:dd time=0.438
file_name:uf50-0730 model:dd time=0.437
file_name:uf50-0731 model:dd time=0.432
file_name:uf50-0732 model:dd time=0.436
file_name:uf50-0733 model:dd time=0.441
file_name:uf50-0734 model:dd time=0.437
file_name:uf50-0735 model:dd time=0.435
file_name:uf50-0736 model:dd time=0.437
file_name:uf50-0737 model:dd time=0.436
file_name:uf50-0738 model:dd time=0.435
file_name:uf50-0739 model:dd time=0.436
file_name:uf50-073 model:dd time=0.439
file_name:uf50-0740 model:dd time=0.434
file_name:uf50-0741 model:dd time=0.436
file_name:uf50-0742 model:dd time=0.435
file_name:uf50-0743 model:dd time=0.435
file_name:uf50-0744 model:dd time=0.439
file_name:uf50-0745 model:dd time=0.435
file_name:uf50-0746 model:dd time=0.449
file_name:uf50-0747 model:dd time=0.446
file_name:uf50-0748 model:dd time=0.438
file_name:uf50-0749 model:dd time=0.436
file_name:uf50-074 model:dd time=0.433
file_name:uf50-0750 model:dd time=0.437
file_name:uf50-0751 model:dd time=0.435
file_name:uf50-0752 model:dd time=0.437
file_name:uf50-0753 model:dd time=0.438
file_name:uf50-0754 model:dd time=0.441
file_name:uf50-0755 model:dd time=0.439
file_name:uf50-0756 model:dd time=0.451
file_name:uf50-0757 model:dd time=0.437
file_name:uf50-0758 model:dd time=0.441
file_name:uf50-0759 model:dd time=0.435
file_name:uf50-075 model:dd time=0.432
file_name:uf50-0760 model:dd time=0.437
file_name:uf50-0761 model:dd time=0.439
file_name:uf50-0762 model:dd time=0.435
file_name:uf50-0763 model:dd time=0.434
file_name:uf50-0764 model:dd time=0.439
file_name:uf50-0765 model:dd time=0.434
file_name:uf50-0766 model:dd time=0.438
file_name:uf50-0767 model:dd time=0.437
file_name:uf50-0768 model:dd time=0.437
file_name:uf50-0769 model:dd time=0.437
file_name:uf50-076 model:dd time=0.436
file_name:uf50-0770 model:dd time=0.438
file_name:uf50-0771 model:dd time=0.436
file_name:uf50-0772 model:dd time=0.438
file_name:uf50-0773 model:dd time=0.434
file_name:uf50-0774 model:dd time=0.434
file_name:uf50-0775 model:dd time=0.439
file_name:uf50-0776 model:dd time=0.438
file_name:uf50-0777 model:dd time=0.436
file_name:uf50-0778 model:dd time=0.434
file_name:uf50-0779 model:dd time=0.438
file_name:uf50-077 model:dd time=0.435
file_name:uf50-0780 model:dd time=0.435
file_name:uf50-0781 model:dd time=0.433
file_name:uf50-0782 model:dd time=0.437
file_name:uf50-0783 model:dd time=0.432
file_name:uf50-0784 model:dd time=0.435
file_name:uf50-0785 model:dd time=0.435
file_name:uf50-0786 model:dd time=0.445
file_name:uf50-0787 model:dd time=0.439
file_name:uf50-0788 model:dd time=0.437
file_name:uf50-0789 model:dd time=0.435
file_name:uf50-078 model:dd time=0.435
file_name:uf50-0790 model:dd time=0.434
file_name:uf50-0791 model:dd time=0.435
file_name:uf50-0792 model:dd time=0.437
file_name:uf50-0793 model:dd time=0.435
file_name:uf50-0794 model:dd time=0.434
file_name:uf50-0795 model:dd time=0.437
file_name:uf50-0796 model:dd time=0.437
file_name:uf50-0797 model:dd time=0.437
file_name:uf50-0798 model:dd time=0.441
file_name:uf50-0799 model:dd time=0.435
file_name:uf50-079 model:dd time=0.443
file_name:uf50-07 model:dd time=0.436
file_name:uf50-0800 model:dd time=0.442
file_name:uf50-0801 model:dd time=0.437
file_name:uf50-0802 model:dd time=0.44
file_name:uf50-0803 model:dd time=0.439
file_name:uf50-0804 model:dd time=0.436
file_name:uf50-0805 model:dd time=0.438
file_name:uf50-0806 model:dd time=0.439
file_name:uf50-0807 model:dd time=0.436
file_name:uf50-0808 model:dd time=0.441
file_name:uf50-0809 model:dd time=0.436
file_name:uf50-080 model:dd time=0.437
file_name:uf50-0810 model:dd time=0.439
file_name:uf50-0811 model:dd time=0.445
file_name:uf50-0812 model:dd time=0.438
file_name:uf50-0813 model:dd time=0.44
file_name:uf50-0814 model:dd time=0.435
file_name:uf50-0815 model:dd time=0.439
file_name:uf50-0816 model:dd time=0.439
file_name:uf50-0817 model:dd time=0.437
file_name:uf50-0818 model:dd time=0.436
file_name:uf50-0819 model:dd time=0.433
file_name:uf50-081 model:dd time=0.437
file_name:uf50-0820 model:dd time=0.436
file_name:uf50-0821 model:dd time=0.439
file_name:uf50-0822 model:dd time=0.442
file_name:uf50-0823 model:dd time=0.437
file_name:uf50-0824 model:dd time=0.439
file_name:uf50-0825 model:dd time=0.437
file_name:uf50-0826 model:dd time=0.434
file_name:uf50-0827 model:dd time=0.435
file_name:uf50-0828 model:dd time=0.435
file_name:uf50-0829 model:dd time=0.436
file_name:uf50-082 model:dd time=0.445
file_name:uf50-0830 model:dd time=0.443
file_name:uf50-0831 model:dd time=0.437
file_name:uf50-0832 model:dd time=0.435
file_name:uf50-0833 model:dd time=0.436
file_name:uf50-0834 model:dd time=0.437
file_name:uf50-0835 model:dd time=0.435
file_name:uf50-0836 model:dd time=0.435
file_name:uf50-0837 model:dd time=0.436
file_name:uf50-0838 model:dd time=0.437
file_name:uf50-0839 model:dd time=0.436
file_name:uf50-083 model:dd time=0.436
file_name:uf50-0840 model:dd time=0.437
file_name:uf50-0841 model:dd time=0.434
file_name:uf50-0842 model:dd time=0.435
file_name:uf50-0843 model:dd time=0.434
file_name:uf50-0844 model:dd time=0.435
file_name:uf50-0845 model:dd time=0.435
file_name:uf50-0846 model:dd time=0.444
file_name:uf50-0847 model:dd time=0.437
file_name:uf50-0848 model:dd time=0.441
file_name:uf50-0849 model:dd time=0.438
file_name:uf50-084 model:dd time=0.435
file_name:uf50-0850 model:dd time=0.438
file_name:uf50-0851 model:dd time=0.435
file_name:uf50-0852 model:dd time=0.436
file_name:uf50-0853 model:dd time=0.436
file_name:uf50-0854 model:dd time=0.436
file_name:uf50-0855 model:dd time=0.436
file_name:uf50-0856 model:dd time=0.435
file_name:uf50-0857 model:dd time=0.436
file_name:uf50-0858 model:dd time=0.436
file_name:uf50-0859 model:dd time=0.437
file_name:uf50-085 model:dd time=0.435
file_name:uf50-0860 model:dd time=0.437
file_name:uf50-0861 model:dd time=0.434
file_name:uf50-0862 model:dd time=0.435
file_name:uf50-0863 model:dd time=0.436
file_name:uf50-0864 model:dd time=0.438
file_name:uf50-0865 model:dd time=0.435
file_name:uf50-0866 model:dd time=0.441
file_name:uf50-0867 model:dd time=0.435
file_name:uf50-0868 model:dd time=0.436
file_name:uf50-0869 model:dd time=0.434
file_name:uf50-086 model:dd time=0.434
file_name:uf50-0870 model:dd time=0.434
file_name:uf50-0871 model:dd time=0.44
file_name:uf50-0872 model:dd time=0.44
file_name:uf50-0873 model:dd time=0.436
file_name:uf50-0874 model:dd time=0.437
file_name:uf50-0875 model:dd time=0.438
file_name:uf50-0876 model:dd time=0.436
file_name:uf50-0877 model:dd time=0.437
file_name:uf50-0878 model:dd time=0.436
file_name:uf50-0879 model:dd time=0.434
file_name:uf50-087 model:dd time=0.434
file_name:uf50-0880 model:dd time=0.436
file_name:uf50-0881 model:dd time=0.438
file_name:uf50-0882 model:dd time=0.437
file_name:uf50-0883 model:dd time=0.443
file_name:uf50-0884 model:dd time=0.436
file_name:uf50-0885 model:dd time=0.434
file_name:uf50-0886 model:dd time=0.441
file_name:uf50-0887 model:dd time=0.435
file_name:uf50-0888 model:dd time=0.438
file_name:uf50-0889 model:dd time=0.435
file_name:uf50-088 model:dd time=0.437
file_name:uf50-0890 model:dd time=0.436
file_name:uf50-0891 model:dd time=0.438
file_name:uf50-0892 model:dd time=0.436
file_name:uf50-0893 model:dd time=0.435
file_name:uf50-0894 model:dd time=0.438
file_name:uf50-0895 model:dd time=0.436
file_name:uf50-0896 model:dd time=0.434
file_name:uf50-0897 model:dd time=0.436
file_name:uf50-0898 model:dd time=0.434
file_name:uf50-0899 model:dd time=0.433
file_name:uf50-089 model:dd time=0.435
file_name:uf50-08 model:dd time=0.434
file_name:uf50-0900 model:dd time=0.436
file_name:uf50-0901 model:dd time=0.434
file_name:uf50-0902 model:dd time=0.436
file_name:uf50-0903 model:dd time=0.434
file_name:uf50-0904 model:dd time=0.444
file_name:uf50-0905 model:dd time=0.434
file_name:uf50-0906 model:dd time=0.436
file_name:uf50-0907 model:dd time=0.438
file_name:uf50-0908 model:dd time=0.438
file_name:uf50-0909 model:dd time=0.435
file_name:uf50-090 model:dd time=0.437
file_name:uf50-0910 model:dd time=0.438
file_name:uf50-0911 model:dd time=0.437
file_name:uf50-0912 model:dd time=0.436
file_name:uf50-0913 model:dd time=0.438
file_name:uf50-0914 model:dd time=0.439
file_name:uf50-0915 model:dd time=0.441
file_name:uf50-0916 model:dd time=0.437
file_name:uf50-0917 model:dd time=0.435
file_name:uf50-0918 model:dd time=0.437
file_name:uf50-0919 model:dd time=0.434
file_name:uf50-091 model:dd time=0.441
file_name:uf50-0920 model:dd time=0.437
file_name:uf50-0921 model:dd time=0.436
file_name:uf50-0922 model:dd time=0.445
file_name:uf50-0923 model:dd time=0.435
file_name:uf50-0924 model:dd time=0.44
file_name:uf50-0925 model:dd time=0.451
file_name:uf50-0926 model:dd time=0.457
file_name:uf50-0927 model:dd time=0.436
file_name:uf50-0928 model:dd time=0.435
file_name:uf50-0929 model:dd time=0.435
file_name:uf50-092 model:dd time=0.437
file_name:uf50-0930 model:dd time=0.438
file_name:uf50-0931 model:dd time=0.439
file_name:uf50-0932 model:dd time=0.436
file_name:uf50-0933 model:dd time=0.444
file_name:uf50-0934 model:dd time=0.434
file_name:uf50-0935 model:dd time=0.435
file_name:uf50-0936 model:dd time=0.445
file_name:uf50-0937 model:dd time=0.44
file_name:uf50-0938 model:dd time=0.435
file_name:uf50-0939 model:dd time=0.433
file_name:uf50-093 model:dd time=0.434
file_name:uf50-0940 model:dd time=0.439
file_name:uf50-0941 model:dd time=0.434
file_name:uf50-0942 model:dd time=0.442
file_name:uf50-0943 model:dd time=0.437
file_name:uf50-0944 model:dd time=0.436
file_name:uf50-0945 model:dd time=0.435
file_name:uf50-0946 model:dd time=0.435
file_name:uf50-0947 model:dd time=0.433
file_name:uf50-0948 model:dd time=0.437
file_name:uf50-0949 model:dd time=0.441
file_name:uf50-094 model:dd time=0.439
file_name:uf50-0950 model:dd time=0.434
file_name:uf50-0951 model:dd time=0.442
file_name:uf50-0952 model:dd time=0.444
file_name:uf50-0953 model:dd time=0.435
file_name:uf50-0954 model:dd time=0.437
file_name:uf50-0955 model:dd time=0.446
file_name:uf50-0956 model:dd time=0.436
file_name:uf50-0957 model:dd time=0.434
file_name:uf50-0958 model:dd time=0.437
file_name:uf50-0959 model:dd time=0.438
file_name:uf50-095 model:dd time=0.435
file_name:uf50-0960 model:dd time=0.435
file_name:uf50-0961 model:dd time=0.438
file_name:uf50-0962 model:dd time=0.436
file_name:uf50-0963 model:dd time=0.434
file_name:uf50-0964 model:dd time=0.435
file_name:uf50-0965 model:dd time=0.436
file_name:uf50-0966 model:dd time=0.434
file_name:uf50-0967 model:dd time=0.438
file_name:uf50-0968 model:dd time=0.439
file_name:uf50-0969 model:dd time=0.435
file_name:uf50-096 model:dd time=0.441
file_name:uf50-0970 model:dd time=0.434
file_name:uf50-0971 model:dd time=0.438
file_name:uf50-0972 model:dd time=0.433
file_name:uf50-0973 model:dd time=0.437
file_name:uf50-0974 model:dd time=0.436
file_name:uf50-0975 model:dd time=0.44
file_name:uf50-0976 model:dd time=0.436
file_name:uf50-0977 model:dd time=0.437
file_name:uf50-0978 model:dd time=0.44
file_name:uf50-0979 model:dd time=0.437
file_name:uf50-097 model:dd time=0.438
file_name:uf50-0980 model:dd time=0.441
file_name:uf50-0981 model:dd time=0.435
file_name:uf50-0982 model:dd time=0.434
file_name:uf50-0983 model:dd time=0.439
file_name:uf50-0984 model:dd time=0.434
file_name:uf50-0985 model:dd time=0.438
file_name:uf50-0986 model:dd time=0.438
file_name:uf50-0987 model:dd time=0.439
file_name:uf50-0988 model:dd time=0.436
file_name:uf50-0989 model:dd time=0.436
file_name:uf50-098 model:dd time=0.442
file_name:uf50-0990 model:dd time=0.437
file_name:uf50-0991 model:dd time=0.436
file_name:uf50-0992 model:dd time=0.44
file_name:uf50-0993 model:dd time=0.435
file_name:uf50-0994 model:dd time=0.436
file_name:uf50-0995 model:dd time=0.435
file_name:uf50-0996 model:dd time=0.438
file_name:uf50-0997 model:dd time=0.437
file_name:uf50-0998 model:dd time=0.438
file_name:uf50-0999 model:dd time=0.436
file_name:uf50-099 model:dd time=0.434
file_name:uf50-09 model:dd time=0.436
