file_name: , model:\H , card_nodes= , size_nodes_bytes= ,  size_total_bytes= , time= ,      ,      ,         
nqueens-2  ,        0 ,           0 ,                11 , 0.047              ,     0 ,    0 ,   12 , 0.046   
nqueens-3  ,        0 ,           0 ,                12 , 0.07               ,     0 ,    0 ,   12 , 0.072   
nqueens-4  ,        1 ,          12 ,                47 , 0.141              ,     1 ,    7 ,   48 , 0.169   
nqueens-5  ,        9 ,          77 ,               287 , 0.231              ,     6 ,   69 ,  215 , 0.313   
nqueens-6  ,        3 ,          39 ,               118 , 0.612              ,     3 ,   36 ,  126 , 1.207   
nqueens-7  ,       39 ,         432 ,              1302 , 3.8529999999999998 ,    30 ,  415 , 1089 , 6.757   
nqueens-8  ,       91 ,        1082 ,              3096 , 165.518            ,    70 , 1013 , 2567 , 82.31   
nqueens-9  ,      351 ,        4591 ,             12325 , 8816.966           ,   262 , 4011 , 9790 , 574.012
