bench:cnf-uf100 model:o-c10 num_nodes_log_mean_rel=0.24473892137759412 num_nodes_log_mean_rel100=1.7568671456633664
bench:cnf-uf100 model:o-nu num_nodes_log_mean_rel=7.909683028017866e-05 num_nodes_log_mean_rel100=1.0001821437684684
bench:cnf-uf100 model:o-nucx num_nodes_log_mean_rel=1.3609506480456703 num_nodes_log_mean_rel100=22.958877353226825
bench:cnf-uf100 model:o-uc0 num_nodes_log_mean_rel=1.3608769075012306 num_nodes_log_mean_rel100=22.954979407330896
bench:cnf-uf100 model:u-nu num_nodes_log_mean_rel=0.017471376579312192 num_nodes_log_mean_rel100=1.041049492016178
bench:cnf-uf125 model:o-c10 num_nodes_log_mean_rel=0.24557438253248431 num_nodes_log_mean_rel100=1.7602501197382119
bench:cnf-uf125 model:o-nu num_nodes_log_mean_rel=3.659447311621378e-05 num_nodes_log_mean_rel100=1.0000842654384159
bench:cnf-uf125 model:o-nucx num_nodes_log_mean_rel=1.3841047723743065 num_nodes_log_mean_rel100=24.216131839323726
bench:cnf-uf125 model:o-uc0 num_nodes_log_mean_rel=1.3841044851709983 num_nodes_log_mean_rel100=24.216115824957512
bench:cnf-uf125 model:u-nu num_nodes_log_mean_rel=0.019806398968046146 num_nodes_log_mean_rel100=1.046661860130724
bench:cnf-uf20 model:l-nux num_nodes_log_mean_rel=0.17162337309170694 num_nodes_log_mean_rel100=1.4846475744560172
bench:cnf-uf20 model:o-c10 num_nodes_log_mean_rel=0.2392157462770097 num_nodes_log_mean_rel100=1.7346655207544661
bench:cnf-uf20 model:o-nu num_nodes_log_mean_rel=0.0014044306114997518 num_nodes_log_mean_rel100=1.003239055430175
bench:cnf-uf20 model:o-nucx num_nodes_log_mean_rel=1.0926157199002398 num_nodes_log_mean_rel100=12.377009375028596
bench:cnf-uf20 model:o-uc0 num_nodes_log_mean_rel=1.0917729513407175 num_nodes_log_mean_rel100=12.353014504117601
bench:cnf-uf20 model:u-nu num_nodes_log_mean_rel=0.014452617083999142 num_nodes_log_mean_rel100=1.0338382997662972
bench:cnf-uf20 model:u-nuc num_nodes_log_mean_rel=1.191332328495937 num_nodes_log_mean_rel100=15.53575373844903
bench:cnf-uf20 model:u-nux num_nodes_log_mean_rel=0.0282913263997584 num_nodes_log_mean_rel100=1.0673118380143474
bench:cnf-uf50 model:o-c10 num_nodes_log_mean_rel=0.2416187871207205 num_nodes_log_mean_rel100=1.744290386089449
bench:cnf-uf50 model:o-nu num_nodes_log_mean_rel=0.0003715279569349583 num_nodes_log_mean_rel100=1.0008558407581474
bench:cnf-uf50 model:o-nucx num_nodes_log_mean_rel=1.2957387497056492 num_nodes_log_mean_rel100=19.757807496070313
bench:cnf-uf50 model:o-uc0 num_nodes_log_mean_rel=1.2955696905248388 num_nodes_log_mean_rel100=19.750117808909238
bench:cnf-uf50 model:u-nu num_nodes_log_mean_rel=0.015551866992904895 num_nodes_log_mean_rel100=1.0364583793618043
bench:cnf-uf75 model:o-c10 num_nodes_log_mean_rel=0.2436767288216477 num_nodes_log_mean_rel100=1.7525754701768308
bench:cnf-uf75 model:o-nu num_nodes_log_mean_rel=0.00021357371849095586 num_nodes_log_mean_rel100=1.0004918925999597
bench:cnf-uf75 model:o-nucx num_nodes_log_mean_rel=1.3499841390304956 num_nodes_log_mean_rel100=22.38639379207372
bench:cnf-uf75 model:o-uc0 num_nodes_log_mean_rel=1.349708489454284 num_nodes_log_mean_rel100=22.372189508323284
bench:cnf-uf75 model:u-nu num_nodes_log_mean_rel=0.01766155546132131 num_nodes_log_mean_rel100=1.0415054706029294
bench:iscas99 model:l-nux num_nodes_log_mean_rel=0.5365660671832373 num_nodes_log_mean_rel100=3.4400603942615122
bench:iscas99 model:o-c10 num_nodes_log_mean_rel=-0.3072689201167411 num_nodes_log_mean_rel100=0.49286851961522754
bench:iscas99 model:o-nu num_nodes_log_mean_rel=0.04963891531679865 num_nodes_log_mean_rel100=1.121085964211209
bench:iscas99 model:o-nucx num_nodes_log_mean_rel=0.1972767354058469 num_nodes_log_mean_rel100=1.5749861366943523
bench:iscas99 model:o-uc0 num_nodes_log_mean_rel=0.08864887723079207 num_nodes_log_mean_rel100=1.2264472598014164
bench:iscas99 model:u-nu num_nodes_log_mean_rel=0.1934612303055805 num_nodes_log_mean_rel100=1.5612096617496438
bench:iscas99 model:u-nuc num_nodes_log_mean_rel=0.440681260569344 num_nodes_log_mean_rel100=2.7585525433558993
bench:iscas99 model:u-nux num_nodes_log_mean_rel=0.21413039967942593 num_nodes_log_mean_rel100=1.6373080597852754
bench:lgsynth91 model:l-nux num_nodes_log_mean_rel=0.5030877756780749 num_nodes_log_mean_rel100=3.1848411480088816
bench:lgsynth91 model:o-c10 num_nodes_log_mean_rel=-0.30946806655059556 num_nodes_log_mean_rel100=0.49037907878719533
bench:lgsynth91 model:o-nu num_nodes_log_mean_rel=0.0580797705835141 num_nodes_log_mean_rel100=1.1430882763128019
bench:lgsynth91 model:o-nucx num_nodes_log_mean_rel=0.1984595226639181 num_nodes_log_mean_rel100=1.5792814078867015
bench:lgsynth91 model:o-uc0 num_nodes_log_mean_rel=0.17155258620408187 num_nodes_log_mean_rel100=1.4844056072629956
bench:lgsynth91 model:u-nu num_nodes_log_mean_rel=0.211584637718087 num_nodes_log_mean_rel100=1.62773850744416
bench:lgsynth91 model:u-nuc num_nodes_log_mean_rel=0.6787778071948414 num_nodes_log_mean_rel100=4.772850236483808
bench:lgsynth91 model:u-nux num_nodes_log_mean_rel=0.2655512273929137 num_nodes_log_mean_rel100=1.8431098809699176
bench:negb-cnf-uf125 model:o-c10 num_nodes_log_mean_rel=-0.019555988452166773 num_nodes_log_mean_rel100=0.9559694452388557
bench:negb-cnf-uf125 model:o-nu num_nodes_log_mean_rel=3.6594473117101955e-05 num_nodes_log_mean_rel100=1.000084265438418
bench:negb-cnf-uf125 model:o-nucx num_nodes_log_mean_rel=1.3841047723743047 num_nodes_log_mean_rel100=24.216131839323626
bench:negb-cnf-uf125 model:o-uc0 num_nodes_log_mean_rel=0.0005028923558887399 num_nodes_log_mean_rel100=1.0011586231278282
bench:negb-cnf-uf20 model:o-c10 num_nodes_log_mean_rel=-0.005591256784388987 num_nodes_log_mean_rel100=0.9872081753412844
bench:negb-cnf-uf20 model:o-nu num_nodes_log_mean_rel=0.0014044306114997518 num_nodes_log_mean_rel100=1.003239055430175
bench:negb-cnf-uf20 model:o-nucx num_nodes_log_mean_rel=1.0926157199002406 num_nodes_log_mean_rel100=12.377009375028623
bench:negb-cnf-uf20 model:o-uc0 num_nodes_log_mean_rel=0.01633337106223376 num_nodes_log_mean_rel100=1.0383251441914987
bench:negb-cnf-uf50 model:o-c10 num_nodes_log_mean_rel=-0.015651815278396874 num_nodes_log_mean_rel100=0.9646020592388943
bench:negb-cnf-uf50 model:o-nu num_nodes_log_mean_rel=0.00037152795693717877 num_nodes_log_mean_rel100=1.0008558407581525
bench:negb-cnf-uf50 model:o-nucx num_nodes_log_mean_rel=1.295738749705652 num_nodes_log_mean_rel100=19.757807496070445
bench:negb-cnf-uf50 model:o-uc0 num_nodes_log_mean_rel=0.003979851299857895 num_nodes_log_mean_rel100=1.0092060637869509
bench:negb-cnf-uf75 model:o-c10 num_nodes_log_mean_rel=-0.016035947513150184 num_nodes_log_mean_rel100=0.9637492486692577
bench:negb-cnf-uf75 model:o-nu num_nodes_log_mean_rel=0.00021357371849051177 num_nodes_log_mean_rel100=1.0004918925999586
bench:negb-cnf-uf75 model:o-nucx num_nodes_log_mean_rel=1.3499841390304945 num_nodes_log_mean_rel100=22.386393792073658
bench:negb-cnf-uf75 model:o-uc0 num_nodes_log_mean_rel=0.0017746438917938256 num_nodes_log_mean_rel100=1.0040946287494663
