file_name:uf75-01 model:o-c10 num_nodes=2669 num_edges=1 size_nodes_bits=175936 size_nodes_byte=21992 size_edges_bits=30 size_total_byte=80723
file_name:uf75-01 model:o-nu num_nodes=2521 num_edges=1 size_nodes_bits=164468 size_nodes_byte=20558 size_edges_bits=31 size_total_byte=76034
file_name:uf75-01 model:o-nucx num_nodes=144 num_edges=1 size_nodes_bits=32550 size_nodes_byte=4068 size_edges_bits=17 size_total_byte=7248
file_name:uf75-01 model:o-u num_nodes=2522 num_edges=1 size_nodes_bits=161836 size_nodes_byte=20229 size_edges_bits=30 size_total_byte=75727
file_name:uf75-01 model:o-uc0 num_nodes=2520 num_edges=1 size_nodes_bits=171237 size_nodes_byte=21404 size_edges_bits=16 size_total_byte=76856
file_name:uf75-010 model:o-c10 num_nodes=8429 num_edges=1 size_nodes_bits=595414 size_nodes_byte=74426 size_edges_bits=30 size_total_byte=259878
file_name:uf75-010 model:o-nu num_nodes=7843 num_edges=1 size_nodes_bits=545991 size_nodes_byte=68248 size_edges_bits=31 size_total_byte=240808
file_name:uf75-010 model:o-nucx num_nodes=819 num_edges=1 size_nodes_bits=130403 size_nodes_byte=16300 size_edges_bits=25 size_total_byte=34331
file_name:uf75-010 model:o-u num_nodes=7843 num_edges=1 size_nodes_bits=537330 size_nodes_byte=67166 size_edges_bits=30 size_total_byte=239726
file_name:uf75-010 model:o-uc0 num_nodes=7842 num_edges=1 size_nodes_bits=558368 size_nodes_byte=69796 size_edges_bits=16 size_total_byte=242332
file_name:uf75-0100 model:o-c10 num_nodes=483 num_edges=1 size_nodes_bits=27412 size_nodes_byte=3426 size_edges_bits=30 size_total_byte=14066
file_name:uf75-0100 model:o-nu num_nodes=445 num_edges=1 size_nodes_bits=24989 size_nodes_byte=3123 size_edges_bits=31 size_total_byte=12927
file_name:uf75-0100 model:o-nucx num_nodes=19 num_edges=1 size_nodes_bits=3577 size_nodes_byte=447 size_edges_bits=63 size_total_byte=883
file_name:uf75-0100 model:o-u num_nodes=446 num_edges=1 size_nodes_bits=24552 size_nodes_byte=3069 size_edges_bits=30 size_total_byte=12894
file_name:uf75-0100 model:o-uc0 num_nodes=444 num_edges=1 size_nodes_bits=26514 size_nodes_byte=3314 size_edges_bits=16 size_total_byte=13094
file_name:uf75-011 model:o-c10 num_nodes=305 num_edges=1 size_nodes_bits=16768 size_nodes_byte=2096 size_edges_bits=30 size_total_byte=8819
file_name:uf75-011 model:o-nu num_nodes=291 num_edges=1 size_nodes_bits=16014 size_nodes_byte=2001 size_edges_bits=31 size_total_byte=8417
file_name:uf75-011 model:o-nucx num_nodes=8 num_edges=1 size_nodes_bits=1868 size_nodes_byte=233 size_edges_bits=17 size_total_byte=421
file_name:uf75-011 model:o-u num_nodes=292 num_edges=1 size_nodes_bits=15742 size_nodes_byte=1967 size_edges_bits=30 size_total_byte=8405
file_name:uf75-011 model:o-uc0 num_nodes=290 num_edges=1 size_nodes_bits=17043 size_nodes_byte=2130 size_edges_bits=16 size_total_byte=8522
file_name:uf75-012 model:o-c10 num_nodes=95 num_edges=1 size_nodes_bits=5140 size_nodes_byte=642 size_edges_bits=30 size_total_byte=2746
file_name:uf75-012 model:o-nu num_nodes=92 num_edges=1 size_nodes_bits=4940 size_nodes_byte=617 size_edges_bits=31 size_total_byte=2655
file_name:uf75-012 model:o-nucx num_nodes=1 num_edges=1 size_nodes_bits=595 size_nodes_byte=74 size_edges_bits=17 size_total_byte=108
file_name:uf75-012 model:o-u num_nodes=92 num_edges=1 size_nodes_bits=4848 size_nodes_byte=606 size_edges_bits=30 size_total_byte=2643
file_name:uf75-012 model:o-uc0 num_nodes=91 num_edges=1 size_nodes_bits=5283 size_nodes_byte=660 size_edges_bits=16 size_total_byte=2674
file_name:uf75-013 model:o-c10 num_nodes=2942 num_edges=1 size_nodes_bits=193414 size_nodes_byte=24176 size_edges_bits=30 size_total_byte=88914
file_name:uf75-013 model:o-nu num_nodes=2856 num_edges=1 size_nodes_bits=188092 size_nodes_byte=23511 size_edges_bits=31 size_total_byte=86357
file_name:uf75-013 model:o-nucx num_nodes=165 num_edges=1 size_nodes_bits=35771 size_nodes_byte=4471 size_edges_bits=25 size_total_byte=8114
file_name:uf75-013 model:o-u num_nodes=2857 num_edges=1 size_nodes_bits=185104 size_nodes_byte=23138 size_edges_bits=30 size_total_byte=86005
file_name:uf75-013 model:o-uc0 num_nodes=2855 num_edges=1 size_nodes_bits=195064 size_nodes_byte=24383 size_edges_bits=16 size_total_byte=87205
file_name:uf75-014 model:o-c10 num_nodes=1790 num_edges=1 size_nodes_bits=113826 size_nodes_byte=14228 size_edges_bits=30 size_total_byte=53622
file_name:uf75-014 model:o-nu num_nodes=1689 num_edges=1 size_nodes_bits=106533 size_nodes_byte=13316 size_edges_bits=31 size_total_byte=50488
file_name:uf75-014 model:o-nucx num_nodes=110 num_edges=1 size_nodes_bits=20543 size_nodes_byte=2567 size_edges_bits=25 size_total_byte=5001
file_name:uf75-014 model:o-u num_nodes=1690 num_edges=1 size_nodes_bits=104766 size_nodes_byte=13095 size_edges_bits=30 size_total_byte=50289
file_name:uf75-014 model:o-uc0 num_nodes=1687 num_edges=1 size_nodes_bits=110818 size_nodes_byte=13852 size_edges_bits=16 size_total_byte=50978
file_name:uf75-015 model:o-c10 num_nodes=679 num_edges=1 size_nodes_bits=40720 size_nodes_byte=5090 size_edges_bits=30 size_total_byte=20041
file_name:uf75-015 model:o-nu num_nodes=661 num_edges=1 size_nodes_bits=39331 size_nodes_byte=4916 size_edges_bits=31 size_total_byte=19472
file_name:uf75-015 model:o-nucx num_nodes=19 num_edges=1 size_nodes_bits=3997 size_nodes_byte=499 size_edges_bits=17 size_total_byte=929
file_name:uf75-015 model:o-u num_nodes=661 num_edges=1 size_nodes_bits=38652 size_nodes_byte=4831 size_edges_bits=30 size_total_byte=19387
file_name:uf75-015 model:o-uc0 num_nodes=660 num_edges=1 size_nodes_bits=41626 size_nodes_byte=5203 size_edges_bits=16 size_total_byte=19735
file_name:uf75-016 model:o-c10 num_nodes=222 num_edges=1 size_nodes_bits=12650 size_nodes_byte=1581 size_edges_bits=30 size_total_byte=6479
file_name:uf75-016 model:o-nu num_nodes=212 num_edges=1 size_nodes_bits=11964 size_nodes_byte=1495 size_edges_bits=31 size_total_byte=6173
file_name:uf75-016 model:o-nucx num_nodes=8 num_edges=1 size_nodes_bits=2324 size_nodes_byte=290 size_edges_bits=39 size_total_byte=481
file_name:uf75-016 model:o-u num_nodes=212 num_edges=1 size_nodes_bits=11746 size_nodes_byte=1468 size_edges_bits=30 size_total_byte=6146
file_name:uf75-016 model:o-uc0 num_nodes=210 num_edges=1 size_nodes_bits=12606 size_nodes_byte=1575 size_edges_bits=16 size_total_byte=6207
file_name:uf75-017 model:o-c10 num_nodes=2168 num_edges=1 size_nodes_bits=141564 size_nodes_byte=17695 size_edges_bits=30 size_total_byte=65405
file_name:uf75-017 model:o-nu num_nodes=2053 num_edges=1 size_nodes_bits=133004 size_nodes_byte=16625 size_edges_bits=31 size_total_byte=61805
file_name:uf75-017 model:o-nucx num_nodes=133 num_edges=1 size_nodes_bits=25382 size_nodes_byte=3172 size_edges_bits=17 size_total_byte=6110
file_name:uf75-017 model:o-u num_nodes=2054 num_edges=1 size_nodes_bits=130852 size_nodes_byte=16356 size_edges_bits=30 size_total_byte=61558
file_name:uf75-017 model:o-uc0 num_nodes=2051 num_edges=1 size_nodes_bits=138156 size_nodes_byte=17269 size_edges_bits=16 size_total_byte=62403
file_name:uf75-018 model:o-c10 num_nodes=5821 num_edges=1 size_nodes_bits=407988 size_nodes_byte=50998 size_edges_bits=30 size_total_byte=179074
file_name:uf75-018 model:o-nu num_nodes=5478 num_edges=1 size_nodes_bits=379215 size_nodes_byte=47401 size_edges_bits=31 size_total_byte=167931
file_name:uf75-018 model:o-nucx num_nodes=468 num_edges=1 size_nodes_bits=92794 size_nodes_byte=11599 size_edges_bits=17 size_total_byte=21907
file_name:uf75-018 model:o-u num_nodes=5478 num_edges=1 size_nodes_bits=373270 size_nodes_byte=46658 size_edges_bits=30 size_total_byte=167188
file_name:uf75-018 model:o-uc0 num_nodes=5477 num_edges=1 size_nodes_bits=389754 size_nodes_byte=48719 size_edges_bits=16 size_total_byte=169225
file_name:uf75-019 model:o-c10 num_nodes=74 num_edges=1 size_nodes_bits=3822 size_nodes_byte=477 size_edges_bits=30 size_total_byte=2119
file_name:uf75-019 model:o-nu num_nodes=109 num_edges=1 size_nodes_bits=5543 size_nodes_byte=692 size_edges_bits=31 size_total_byte=3104
file_name:uf75-019 model:o-nucx num_nodes=1 num_edges=1 size_nodes_bits=304 size_nodes_byte=38 size_edges_bits=179 size_total_byte=92
file_name:uf75-019 model:o-u num_nodes=109 num_edges=1 size_nodes_bits=5434 size_nodes_byte=679 size_edges_bits=30 size_total_byte=3091
file_name:uf75-019 model:o-uc0 num_nodes=108 num_edges=1 size_nodes_bits=5960 size_nodes_byte=745 size_edges_bits=16 size_total_byte=3133
file_name:uf75-02 model:o-c10 num_nodes=3236 num_edges=1 size_nodes_bits=213896 size_nodes_byte=26737 size_edges_bits=30 size_total_byte=97942
file_name:uf75-02 model:o-nu num_nodes=3432 num_edges=1 size_nodes_bits=225790 size_nodes_byte=28223 size_edges_bits=31 size_total_byte=103741
file_name:uf75-02 model:o-nucx num_nodes=252 num_edges=1 size_nodes_bits=44439 size_nodes_byte=5554 size_edges_bits=25 size_total_byte=11112
file_name:uf75-02 model:o-u num_nodes=3433 num_edges=1 size_nodes_bits=222140 size_nodes_byte=27767 size_edges_bits=30 size_total_byte=103307
file_name:uf75-02 model:o-uc0 num_nodes=3430 num_edges=1 size_nodes_bits=233663 size_nodes_byte=29207 size_edges_bits=16 size_total_byte=104679
file_name:uf75-020 model:o-c10 num_nodes=176 num_edges=1 size_nodes_bits=10234 size_nodes_byte=1279 size_edges_bits=30 size_total_byte=5165
file_name:uf75-020 model:o-nu num_nodes=162 num_edges=1 size_nodes_bits=9139 size_nodes_byte=1142 size_edges_bits=31 size_total_byte=4720
file_name:uf75-020 model:o-nucx num_nodes=6 num_edges=1 size_nodes_bits=1792 size_nodes_byte=224 size_edges_bits=49 size_total_byte=372
file_name:uf75-020 model:o-u num_nodes=162 num_edges=1 size_nodes_bits=8972 size_nodes_byte=1121 size_edges_bits=30 size_total_byte=4699
file_name:uf75-020 model:o-uc0 num_nodes=161 num_edges=1 size_nodes_bits=9681 size_nodes_byte=1210 size_edges_bits=16 size_total_byte=4764
file_name:uf75-021 model:o-c10 num_nodes=1809 num_edges=1 size_nodes_bits=117734 size_nodes_byte=14716 size_edges_bits=30 size_total_byte=54528
file_name:uf75-021 model:o-nu num_nodes=1711 num_edges=1 size_nodes_bits=110726 size_nodes_byte=13840 size_edges_bits=31 size_total_byte=51496
file_name:uf75-021 model:o-nucx num_nodes=143 num_edges=1 size_nodes_bits=29259 size_nodes_byte=3657 size_edges_bits=17 size_total_byte=6815
file_name:uf75-021 model:o-u num_nodes=1712 num_edges=1 size_nodes_bits=108894 size_nodes_byte=13611 size_edges_bits=30 size_total_byte=51289
file_name:uf75-021 model:o-uc0 num_nodes=1709 num_edges=1 size_nodes_bits=113984 size_nodes_byte=14248 size_edges_bits=16 size_total_byte=51858
file_name:uf75-022 model:o-c10 num_nodes=3760 num_edges=1 size_nodes_bits=242186 size_nodes_byte=30273 size_edges_bits=30 size_total_byte=113007
file_name:uf75-022 model:o-nu num_nodes=3594 num_edges=1 size_nodes_bits=231088 size_nodes_byte=28886 size_edges_bits=31 size_total_byte=107967
file_name:uf75-022 model:o-nucx num_nodes=208 num_edges=1 size_nodes_bits=38243 size_nodes_byte=4780 size_edges_bits=25 size_total_byte=9369
file_name:uf75-022 model:o-u num_nodes=3595 num_edges=1 size_nodes_bits=227340 size_nodes_byte=28417 size_edges_bits=30 size_total_byte=107521
file_name:uf75-022 model:o-uc0 num_nodes=3592 num_edges=1 size_nodes_bits=240552 size_nodes_byte=30069 size_edges_bits=16 size_total_byte=109105
file_name:uf75-023 model:o-c10 num_nodes=495 num_edges=1 size_nodes_bits=28246 size_nodes_byte=3530 size_edges_bits=30 size_total_byte=14434
file_name:uf75-023 model:o-nu num_nodes=474 num_edges=1 size_nodes_bits=27181 size_nodes_byte=3397 size_edges_bits=31 size_total_byte=13839
file_name:uf75-023 model:o-nucx num_nodes=25 num_edges=1 size_nodes_bits=3987 size_nodes_byte=498 size_edges_bits=51 size_total_byte=1064
file_name:uf75-023 model:o-u num_nodes=475 num_edges=1 size_nodes_bits=26712 size_nodes_byte=3339 size_edges_bits=30 size_total_byte=13802
file_name:uf75-023 model:o-uc0 num_nodes=472 num_edges=1 size_nodes_bits=28529 size_nodes_byte=3566 size_edges_bits=16 size_total_byte=13962
file_name:uf75-024 model:o-c10 num_nodes=724 num_edges=1 size_nodes_bits=43078 size_nodes_byte=5384 size_edges_bits=30 size_total_byte=21326
file_name:uf75-024 model:o-nu num_nodes=692 num_edges=1 size_nodes_bits=40974 size_nodes_byte=5121 size_edges_bits=31 size_total_byte=20359
file_name:uf75-024 model:o-nucx num_nodes=32 num_edges=1 size_nodes_bits=6553 size_nodes_byte=819 size_edges_bits=51 size_total_byte=1539
file_name:uf75-024 model:o-u num_nodes=692 num_edges=1 size_nodes_bits=40252 size_nodes_byte=5031 size_edges_bits=30 size_total_byte=20269
file_name:uf75-024 model:o-uc0 num_nodes=690 num_edges=1 size_nodes_bits=43016 size_nodes_byte=5377 size_edges_bits=16 size_total_byte=20569
file_name:uf75-025 model:o-c10 num_nodes=32304 num_edges=1 size_nodes_bits=2440510 size_nodes_byte=305063 size_edges_bits=30 size_total_byte=1015765
file_name:uf75-025 model:o-nu num_nodes=34053 num_edges=1 size_nodes_bits=2538878 size_nodes_byte=317359 size_edges_bits=31 size_total_byte=1066539
file_name:uf75-025 model:o-nucx num_nodes=3472 num_edges=1 size_nodes_bits=594249 size_nodes_byte=74281 size_edges_bits=17 size_total_byte=150677
file_name:uf75-025 model:o-u num_nodes=34054 num_edges=1 size_nodes_bits=2501394 size_nodes_byte=312674 size_edges_bits=30 size_total_byte=1061876
file_name:uf75-025 model:o-uc0 num_nodes=34052 num_edges=1 size_nodes_bits=2589671 size_nodes_byte=323708 size_edges_bits=16 size_total_byte=1072864
file_name:uf75-026 model:o-c10 num_nodes=1099 num_edges=1 size_nodes_bits=65764 size_nodes_byte=8220 size_edges_bits=30 size_total_byte=32412
file_name:uf75-026 model:o-nu num_nodes=1071 num_edges=1 size_nodes_bits=64482 size_nodes_byte=8060 size_edges_bits=31 size_total_byte=31636
file_name:uf75-026 model:o-nucx num_nodes=31 num_edges=1 size_nodes_bits=8244 size_nodes_byte=1030 size_edges_bits=17 size_total_byte=1724
file_name:uf75-026 model:o-u num_nodes=1072 num_edges=1 size_nodes_bits=63412 size_nodes_byte=7926 size_edges_bits=30 size_total_byte=31524
file_name:uf75-026 model:o-uc0 num_nodes=1069 num_edges=1 size_nodes_bits=67986 size_nodes_byte=8498 size_edges_bits=16 size_total_byte=32028
file_name:uf75-027 model:o-c10 num_nodes=841 num_edges=1 size_nodes_bits=49458 size_nodes_byte=6182 size_edges_bits=30 size_total_byte=24698
file_name:uf75-027 model:o-nu num_nodes=801 num_edges=1 size_nodes_bits=46924 size_nodes_byte=5865 size_edges_bits=31 size_total_byte=23501
file_name:uf75-027 model:o-nucx num_nodes=33 num_edges=1 size_nodes_bits=6286 size_nodes_byte=785 size_edges_bits=17 size_total_byte=1523
file_name:uf75-027 model:o-u num_nodes=803 num_edges=1 size_nodes_bits=46148 size_nodes_byte=5768 size_edges_bits=30 size_total_byte=23448
file_name:uf75-027 model:o-uc0 num_nodes=799 num_edges=1 size_nodes_bits=49430 size_nodes_byte=6178 size_edges_bits=16 size_total_byte=23768
file_name:uf75-028 model:o-c10 num_nodes=230 num_edges=1 size_nodes_bits=12980 size_nodes_byte=1622 size_edges_bits=30 size_total_byte=6696
file_name:uf75-028 model:o-nu num_nodes=219 num_edges=1 size_nodes_bits=12304 size_nodes_byte=1538 size_edges_bits=31 size_total_byte=6369
file_name:uf75-028 model:o-nucx num_nodes=10 num_edges=1 size_nodes_bits=2463 size_nodes_byte=307 size_edges_bits=49 size_total_byte=544
file_name:uf75-028 model:o-u num_nodes=219 num_edges=1 size_nodes_bits=12076 size_nodes_byte=1509 size_edges_bits=30 size_total_byte=6341
file_name:uf75-028 model:o-uc0 num_nodes=218 num_edges=1 size_nodes_bits=12941 size_nodes_byte=1617 size_edges_bits=16 size_total_byte=6425
file_name:uf75-029 model:o-c10 num_nodes=962 num_edges=1 size_nodes_bits=60622 size_nodes_byte=7577 size_edges_bits=30 size_total_byte=28755
file_name:uf75-029 model:o-nu num_nodes=873 num_edges=1 size_nodes_bits=53454 size_nodes_byte=6681 size_edges_bits=31 size_total_byte=25901
file_name:uf75-029 model:o-nucx num_nodes=24 num_edges=1 size_nodes_bits=6850 size_nodes_byte=856 size_edges_bits=17 size_total_byte=1396
file_name:uf75-029 model:o-u num_nodes=873 num_edges=1 size_nodes_bits=52558 size_nodes_byte=6569 size_edges_bits=30 size_total_byte=25789
file_name:uf75-029 model:o-uc0 num_nodes=872 num_edges=1 size_nodes_bits=56781 size_nodes_byte=7097 size_edges_bits=16 size_total_byte=26293
file_name:uf75-03 model:o-c10 num_nodes=89 num_edges=1 size_nodes_bits=4630 size_nodes_byte=578 size_edges_bits=30 size_total_byte=2550
file_name:uf75-03 model:o-nu num_nodes=88 num_edges=1 size_nodes_bits=4636 size_nodes_byte=579 size_edges_bits=31 size_total_byte=2529
file_name:uf75-03 model:o-nucx num_nodes=1 num_edges=1 size_nodes_bits=479 size_nodes_byte=59 size_edges_bits=79 size_total_byte=101
file_name:uf75-03 model:o-u num_nodes=88 num_edges=1 size_nodes_bits=4548 size_nodes_byte=568 size_edges_bits=30 size_total_byte=2518
file_name:uf75-03 model:o-uc0 num_nodes=87 num_edges=1 size_nodes_bits=4946 size_nodes_byte=618 size_edges_bits=16 size_total_byte=2544
file_name:uf75-030 model:o-c10 num_nodes=174 num_edges=1 size_nodes_bits=9160 size_nodes_byte=1145 size_edges_bits=30 size_total_byte=4986
file_name:uf75-030 model:o-nu num_nodes=171 num_edges=1 size_nodes_bits=9117 size_nodes_byte=1139 size_edges_bits=31 size_total_byte=4915
file_name:uf75-030 model:o-nucx num_nodes=3 num_edges=1 size_nodes_bits=814 size_nodes_byte=101 size_edges_bits=17 size_total_byte=179
file_name:uf75-030 model:o-u num_nodes=172 num_edges=1 size_nodes_bits=8968 size_nodes_byte=1121 size_edges_bits=30 size_total_byte=4918
file_name:uf75-030 model:o-uc0 num_nodes=170 num_edges=1 size_nodes_bits=9726 size_nodes_byte=1215 size_edges_bits=16 size_total_byte=4967
file_name:uf75-031 model:o-c10 num_nodes=642 num_edges=1 size_nodes_bits=38784 size_nodes_byte=4848 size_edges_bits=30 size_total_byte=18985
file_name:uf75-031 model:o-nu num_nodes=609 num_edges=1 size_nodes_bits=36756 size_nodes_byte=4594 size_edges_bits=31 size_total_byte=18006
file_name:uf75-031 model:o-nucx num_nodes=26 num_edges=1 size_nodes_bits=6050 size_nodes_byte=756 size_edges_bits=25 size_total_byte=1341
file_name:uf75-031 model:o-u num_nodes=609 num_edges=1 size_nodes_bits=36122 size_nodes_byte=4515 size_edges_bits=30 size_total_byte=17927
file_name:uf75-031 model:o-uc0 num_nodes=608 num_edges=1 size_nodes_bits=38631 size_nodes_byte=4828 size_edges_bits=16 size_total_byte=18216
file_name:uf75-032 model:o-c10 num_nodes=658 num_edges=1 size_nodes_bits=37760 size_nodes_byte=4720 size_edges_bits=30 size_total_byte=19209
file_name:uf75-032 model:o-nu num_nodes=636 num_edges=1 size_nodes_bits=36716 size_nodes_byte=4589 size_edges_bits=31 size_total_byte=18595
file_name:uf75-032 model:o-nucx num_nodes=26 num_edges=1 size_nodes_bits=5354 size_nodes_byte=669 size_edges_bits=25 size_total_byte=1254
file_name:uf75-032 model:o-u num_nodes=636 num_edges=1 size_nodes_bits=36056 size_nodes_byte=4507 size_edges_bits=30 size_total_byte=18512
file_name:uf75-032 model:o-uc0 num_nodes=634 num_edges=1 size_nodes_bits=38670 size_nodes_byte=4833 size_edges_bits=16 size_total_byte=18793
file_name:uf75-033 model:o-c10 num_nodes=17332 num_edges=1 size_nodes_bits=1293430 size_nodes_byte=161678 size_edges_bits=30 size_total_byte=542996
file_name:uf75-033 model:o-nu num_nodes=16132 num_edges=1 size_nodes_bits=1175191 size_nodes_byte=146898 size_edges_bits=31 size_total_byte=501816
file_name:uf75-033 model:o-nucx num_nodes=2235 num_edges=1 size_nodes_bits=339533 size_nodes_byte=42441 size_edges_bits=17 size_total_byte=91623
file_name:uf75-033 model:o-u num_nodes=16133 num_edges=1 size_nodes_bits=1156886 size_nodes_byte=144610 size_edges_bits=30 size_total_byte=499550
file_name:uf75-033 model:o-uc0 num_nodes=16129 num_edges=1 size_nodes_bits=1187380 size_nodes_byte=148422 size_edges_bits=16 size_total_byte=503272
file_name:uf75-034 model:o-c10 num_nodes=662 num_edges=1 size_nodes_bits=39322 size_nodes_byte=4915 size_edges_bits=30 size_total_byte=19493
file_name:uf75-034 model:o-nu num_nodes=744 num_edges=1 size_nodes_bits=43975 size_nodes_byte=5496 size_edges_bits=31 size_total_byte=21878
file_name:uf75-034 model:o-nucx num_nodes=31 num_edges=1 size_nodes_bits=6390 size_nodes_byte=798 size_edges_bits=25 size_total_byte=1493
file_name:uf75-034 model:o-u num_nodes=745 num_edges=1 size_nodes_bits=43262 size_nodes_byte=5407 size_edges_bits=30 size_total_byte=21811
file_name:uf75-034 model:o-uc0 num_nodes=742 num_edges=1 size_nodes_bits=46265 size_nodes_byte=5783 size_edges_bits=16 size_total_byte=22119
file_name:uf75-035 model:o-c10 num_nodes=1300 num_edges=1 size_nodes_bits=82818 size_nodes_byte=10352 size_edges_bits=30 size_total_byte=38966
file_name:uf75-035 model:o-nu num_nodes=1249 num_edges=1 size_nodes_bits=79256 size_nodes_byte=9907 size_edges_bits=31 size_total_byte=37398
file_name:uf75-035 model:o-nucx num_nodes=77 num_edges=1 size_nodes_bits=16010 size_nodes_byte=2001 size_edges_bits=25 size_total_byte=3708
file_name:uf75-035 model:o-u num_nodes=1250 num_edges=1 size_nodes_bits=77962 size_nodes_byte=9745 size_edges_bits=30 size_total_byte=37259
file_name:uf75-035 model:o-uc0 num_nodes=1247 num_edges=1 size_nodes_bits=82253 size_nodes_byte=10281 size_edges_bits=16 size_total_byte=37727
file_name:uf75-036 model:o-c10 num_nodes=142 num_edges=1 size_nodes_bits=7744 size_nodes_byte=968 size_edges_bits=30 size_total_byte=4105
file_name:uf75-036 model:o-nu num_nodes=131 num_edges=1 size_nodes_bits=7041 size_nodes_byte=880 size_edges_bits=31 size_total_byte=3776
file_name:uf75-036 model:o-nucx num_nodes=1 num_edges=1 size_nodes_bits=608 size_nodes_byte=76 size_edges_bits=33 size_total_byte=112
file_name:uf75-036 model:o-u num_nodes=131 num_edges=1 size_nodes_bits=6910 size_nodes_byte=863 size_edges_bits=30 size_total_byte=3759
file_name:uf75-036 model:o-uc0 num_nodes=130 num_edges=1 size_nodes_bits=7580 size_nodes_byte=947 size_edges_bits=16 size_total_byte=3819
file_name:uf75-037 model:o-c10 num_nodes=189 num_edges=1 size_nodes_bits=10524 size_nodes_byte=1315 size_edges_bits=30 size_total_byte=5487
file_name:uf75-037 model:o-nu num_nodes=178 num_edges=1 size_nodes_bits=9822 size_nodes_byte=1227 size_edges_bits=31 size_total_byte=5157
file_name:uf75-037 model:o-nucx num_nodes=3 num_edges=1 size_nodes_bits=925 size_nodes_byte=115 size_edges_bits=58 size_total_byte=198
file_name:uf75-037 model:o-u num_nodes=178 num_edges=1 size_nodes_bits=9642 size_nodes_byte=1205 size_edges_bits=30 size_total_byte=5135
file_name:uf75-037 model:o-uc0 num_nodes=177 num_edges=1 size_nodes_bits=10496 size_nodes_byte=1312 size_edges_bits=16 size_total_byte=5218
file_name:uf75-038 model:o-c10 num_nodes=184 num_edges=1 size_nodes_bits=10240 size_nodes_byte=1280 size_edges_bits=30 size_total_byte=5341
file_name:uf75-038 model:o-nu num_nodes=173 num_edges=1 size_nodes_bits=9537 size_nodes_byte=1192 size_edges_bits=31 size_total_byte=5012
file_name:uf75-038 model:o-nucx num_nodes=3 num_edges=1 size_nodes_bits=940 size_nodes_byte=117 size_edges_bits=73 size_total_byte=202
file_name:uf75-038 model:o-u num_nodes=173 num_edges=1 size_nodes_bits=9362 size_nodes_byte=1170 size_edges_bits=30 size_total_byte=4990
file_name:uf75-038 model:o-uc0 num_nodes=172 num_edges=1 size_nodes_bits=10201 size_nodes_byte=1275 size_edges_bits=16 size_total_byte=5071
file_name:uf75-039 model:o-c10 num_nodes=198 num_edges=1 size_nodes_bits=11192 size_nodes_byte=1399 size_edges_bits=30 size_total_byte=5768
file_name:uf75-039 model:o-nu num_nodes=181 num_edges=1 size_nodes_bits=9971 size_nodes_byte=1246 size_edges_bits=31 size_total_byte=5242
file_name:uf75-039 model:o-nucx num_nodes=5 num_edges=1 size_nodes_bits=1629 size_nodes_byte=203 size_edges_bits=25 size_total_byte=326
file_name:uf75-039 model:o-u num_nodes=181 num_edges=1 size_nodes_bits=9786 size_nodes_byte=1223 size_edges_bits=30 size_total_byte=5219
file_name:uf75-039 model:o-uc0 num_nodes=180 num_edges=1 size_nodes_bits=10639 size_nodes_byte=1329 size_edges_bits=16 size_total_byte=5301
file_name:uf75-04 model:o-c10 num_nodes=90 num_edges=1 size_nodes_bits=4800 size_nodes_byte=600 size_edges_bits=30 size_total_byte=2593
file_name:uf75-04 model:o-nu num_nodes=86 num_edges=1 size_nodes_bits=4542 size_nodes_byte=567 size_edges_bits=31 size_total_byte=2473
file_name:uf75-04 model:o-nucx num_nodes=1 num_edges=1 size_nodes_bits=520 size_nodes_byte=65 size_edges_bits=101 size_total_byte=109
file_name:uf75-04 model:o-u num_nodes=86 num_edges=1 size_nodes_bits=4456 size_nodes_byte=557 size_edges_bits=30 size_total_byte=2462
file_name:uf75-04 model:o-uc0 num_nodes=85 num_edges=1 size_nodes_bits=4867 size_nodes_byte=608 size_edges_bits=16 size_total_byte=2490
file_name:uf75-040 model:o-c10 num_nodes=322 num_edges=1 size_nodes_bits=18658 size_nodes_byte=2332 size_edges_bits=30 size_total_byte=9430
file_name:uf75-040 model:o-nu num_nodes=315 num_edges=1 size_nodes_bits=18422 size_nodes_byte=2302 size_edges_bits=31 size_total_byte=9246
file_name:uf75-040 model:o-nucx num_nodes=8 num_edges=1 size_nodes_bits=2303 size_nodes_byte=287 size_edges_bits=69 size_total_byte=482
file_name:uf75-040 model:o-u num_nodes=315 num_edges=1 size_nodes_bits=18100 size_nodes_byte=2262 size_edges_bits=30 size_total_byte=9206
file_name:uf75-040 model:o-uc0 num_nodes=314 num_edges=1 size_nodes_bits=19466 size_nodes_byte=2433 size_edges_bits=16 size_total_byte=9353
file_name:uf75-041 model:o-c10 num_nodes=123 num_edges=1 size_nodes_bits=6726 size_nodes_byte=840 size_edges_bits=30 size_total_byte=3560
file_name:uf75-041 model:o-nu num_nodes=119 num_edges=1 size_nodes_bits=6465 size_nodes_byte=808 size_edges_bits=31 size_total_byte=3440
file_name:uf75-041 model:o-nucx num_nodes=1 num_edges=1 size_nodes_bits=613 size_nodes_byte=76 size_edges_bits=33 size_total_byte=112
file_name:uf75-041 model:o-u num_nodes=119 num_edges=1 size_nodes_bits=6346 size_nodes_byte=793 size_edges_bits=30 size_total_byte=3425
file_name:uf75-041 model:o-uc0 num_nodes=118 num_edges=1 size_nodes_bits=6923 size_nodes_byte=865 size_edges_bits=16 size_total_byte=3473
file_name:uf75-042 model:o-c10 num_nodes=2454 num_edges=1 size_nodes_bits=163188 size_nodes_byte=20398 size_edges_bits=30 size_total_byte=74400
file_name:uf75-042 model:o-nu num_nodes=2271 num_edges=1 size_nodes_bits=148436 size_nodes_byte=18554 size_edges_bits=31 size_total_byte=68530
file_name:uf75-042 model:o-nucx num_nodes=165 num_edges=1 size_nodes_bits=31676 size_nodes_byte=3959 size_edges_bits=17 size_total_byte=7601
file_name:uf75-042 model:o-u num_nodes=2272 num_edges=1 size_nodes_bits=146022 size_nodes_byte=18252 size_edges_bits=30 size_total_byte=68250
file_name:uf75-042 model:o-uc0 num_nodes=2269 num_edges=1 size_nodes_bits=153929 size_nodes_byte=19241 size_edges_bits=16 size_total_byte=69171
file_name:uf75-043 model:o-c10 num_nodes=554 num_edges=1 size_nodes_bits=32900 size_nodes_byte=4112 size_edges_bits=30 size_total_byte=16314
file_name:uf75-043 model:o-nu num_nodes=533 num_edges=1 size_nodes_bits=31630 size_nodes_byte=3953 size_edges_bits=31 size_total_byte=15693
file_name:uf75-043 model:o-nucx num_nodes=26 num_edges=1 size_nodes_bits=5722 size_nodes_byte=715 size_edges_bits=25 size_total_byte=1300
file_name:uf75-043 model:o-u num_nodes=534 num_edges=1 size_nodes_bits=31100 size_nodes_byte=3887 size_edges_bits=30 size_total_byte=15649
file_name:uf75-043 model:o-uc0 num_nodes=532 num_edges=1 size_nodes_bits=33099 size_nodes_byte=4137 size_edges_bits=16 size_total_byte=15853
file_name:uf75-044 model:o-c10 num_nodes=98 num_edges=1 size_nodes_bits=5164 size_nodes_byte=645 size_edges_bits=30 size_total_byte=2815
file_name:uf75-044 model:o-nu num_nodes=93 num_edges=1 size_nodes_bits=4880 size_nodes_byte=610 size_edges_bits=31 size_total_byte=2669
file_name:uf75-044 model:o-nucx num_nodes=2 num_edges=1 size_nodes_bits=470 size_nodes_byte=58 size_edges_bits=129 size_total_byte=128
file_name:uf75-044 model:o-u num_nodes=93 num_edges=1 size_nodes_bits=4786 size_nodes_byte=598 size_edges_bits=30 size_total_byte=2658
file_name:uf75-044 model:o-uc0 num_nodes=92 num_edges=1 size_nodes_bits=5219 size_nodes_byte=652 size_edges_bits=16 size_total_byte=2688
file_name:uf75-045 model:o-c10 num_nodes=312 num_edges=1 size_nodes_bits=17664 size_nodes_byte=2208 size_edges_bits=30 size_total_byte=9085
file_name:uf75-045 model:o-nu num_nodes=297 num_edges=1 size_nodes_bits=16854 size_nodes_byte=2106 size_edges_bits=31 size_total_byte=8654
file_name:uf75-045 model:o-nucx num_nodes=6 num_edges=1 size_nodes_bits=2174 size_nodes_byte=271 size_edges_bits=27 size_total_byte=417
file_name:uf75-045 model:o-u num_nodes=297 num_edges=1 size_nodes_bits=16552 size_nodes_byte=2069 size_edges_bits=30 size_total_byte=8616
file_name:uf75-045 model:o-uc0 num_nodes=296 num_edges=1 size_nodes_bits=17928 size_nodes_byte=2241 size_edges_bits=16 size_total_byte=8765
file_name:uf75-046 model:o-c10 num_nodes=75 num_edges=1 size_nodes_bits=3830 size_nodes_byte=478 size_edges_bits=30 size_total_byte=2142
file_name:uf75-046 model:o-nu num_nodes=72 num_edges=1 size_nodes_bits=3685 size_nodes_byte=460 size_edges_bits=31 size_total_byte=2058
file_name:uf75-046 model:o-nucx num_nodes=0 num_edges=1 size_nodes_bits=0 size_nodes_byte=0 size_edges_bits=290 size_total_byte=46
file_name:uf75-046 model:o-u num_nodes=72 num_edges=1 size_nodes_bits=3614 size_nodes_byte=451 size_edges_bits=30 size_total_byte=2049
file_name:uf75-046 model:o-uc0 num_nodes=71 num_edges=1 size_nodes_bits=3970 size_nodes_byte=496 size_edges_bits=16 size_total_byte=2070
file_name:uf75-047 model:o-c10 num_nodes=6154 num_edges=1 size_nodes_bits=411984 size_nodes_byte=51498 size_edges_bits=30 size_total_byte=186899
file_name:uf75-047 model:o-nu num_nodes=5861 num_edges=1 size_nodes_bits=389888 size_nodes_byte=48736 size_edges_bits=31 size_total_byte=177691
file_name:uf75-047 model:o-nucx num_nodes=442 num_edges=1 size_nodes_bits=82647 size_nodes_byte=10330 size_edges_bits=17 size_total_byte=20067
file_name:uf75-047 model:o-u num_nodes=5861 num_edges=1 size_nodes_bits=383586 size_nodes_byte=47948 size_edges_bits=30 size_total_byte=176904
file_name:uf75-047 model:o-uc0 num_nodes=5860 num_edges=1 size_nodes_bits=403048 size_nodes_byte=50381 size_edges_bits=16 size_total_byte=179313
file_name:uf75-048 model:o-c10 num_nodes=1405 num_edges=1 size_nodes_bits=87374 size_nodes_byte=10921 size_edges_bits=30 size_total_byte=41845
file_name:uf75-048 model:o-nu num_nodes=1335 num_edges=1 size_nodes_bits=82400 size_nodes_byte=10300 size_edges_bits=31 size_total_byte=39683
file_name:uf75-048 model:o-nucx num_nodes=73 num_edges=1 size_nodes_bits=15372 size_nodes_byte=1921 size_edges_bits=25 size_total_byte=3540
file_name:uf75-048 model:o-u num_nodes=1336 num_edges=1 size_nodes_bits=81024 size_nodes_byte=10128 size_edges_bits=30 size_total_byte=39533
file_name:uf75-048 model:o-uc0 num_nodes=1333 num_edges=1 size_nodes_bits=86023 size_nodes_byte=10752 size_edges_bits=16 size_total_byte=40090
file_name:uf75-049 model:o-c10 num_nodes=877 num_edges=1 size_nodes_bits=54338 size_nodes_byte=6792 size_edges_bits=30 size_total_byte=26100
file_name:uf75-049 model:o-nu num_nodes=848 num_edges=1 size_nodes_bits=52542 size_nodes_byte=6567 size_edges_bits=31 size_total_byte=25237
file_name:uf75-049 model:o-nucx num_nodes=57 num_edges=1 size_nodes_bits=12081 size_nodes_byte=1510 size_edges_bits=17 size_total_byte=2776
file_name:uf75-049 model:o-u num_nodes=848 num_edges=1 size_nodes_bits=51638 size_nodes_byte=6454 size_edges_bits=30 size_total_byte=25124
file_name:uf75-049 model:o-uc0 num_nodes=847 num_edges=1 size_nodes_bits=54503 size_nodes_byte=6812 size_edges_bits=16 size_total_byte=25458
file_name:uf75-05 model:o-c10 num_nodes=128 num_edges=1 size_nodes_bits=6882 size_nodes_byte=860 size_edges_bits=30 size_total_byte=3690
file_name:uf75-05 model:o-nu num_nodes=122 num_edges=1 size_nodes_bits=6505 size_nodes_byte=813 size_edges_bits=31 size_total_byte=3511
file_name:uf75-05 model:o-nucx num_nodes=4 num_edges=1 size_nodes_bits=828 size_nodes_byte=103 size_edges_bits=104 size_total_byte=214
file_name:uf75-05 model:o-u num_nodes=122 num_edges=1 size_nodes_bits=6380 size_nodes_byte=797 size_edges_bits=30 size_total_byte=3495
file_name:uf75-05 model:o-uc0 num_nodes=121 num_edges=1 size_nodes_bits=6913 size_nodes_byte=864 size_edges_bits=16 size_total_byte=3538
file_name:uf75-050 model:o-c10 num_nodes=1979 num_edges=1 size_nodes_bits=125804 size_nodes_byte=15725 size_edges_bits=30 size_total_byte=59277
file_name:uf75-050 model:o-nu num_nodes=1870 num_edges=1 size_nodes_bits=115789 size_nodes_byte=14473 size_edges_bits=31 size_total_byte=55627
file_name:uf75-050 model:o-nucx num_nodes=162 num_edges=1 size_nodes_bits=27253 size_nodes_byte=3406 size_edges_bits=27 size_total_byte=6984
file_name:uf75-050 model:o-u num_nodes=1871 num_edges=1 size_nodes_bits=113792 size_nodes_byte=14224 size_edges_bits=30 size_total_byte=55399
file_name:uf75-050 model:o-uc0 num_nodes=1867 num_edges=1 size_nodes_bits=120260 size_nodes_byte=15032 size_edges_bits=16 size_total_byte=56118
file_name:uf75-051 model:o-c10 num_nodes=112 num_edges=1 size_nodes_bits=6080 size_nodes_byte=760 size_edges_bits=30 size_total_byte=3237
file_name:uf75-051 model:o-nu num_nodes=107 num_edges=1 size_nodes_bits=5833 size_nodes_byte=729 size_edges_bits=31 size_total_byte=3097
file_name:uf75-051 model:o-nucx num_nodes=1 num_edges=1 size_nodes_bits=679 size_nodes_byte=84 size_edges_bits=35 size_total_byte=121
file_name:uf75-051 model:o-u num_nodes=107 num_edges=1 size_nodes_bits=5726 size_nodes_byte=715 size_edges_bits=30 size_total_byte=3083
file_name:uf75-051 model:o-uc0 num_nodes=106 num_edges=1 size_nodes_bits=6245 size_nodes_byte=780 size_edges_bits=16 size_total_byte=3124
file_name:uf75-052 model:o-c10 num_nodes=361 num_edges=1 size_nodes_bits=20720 size_nodes_byte=2590 size_edges_bits=30 size_total_byte=10545
file_name:uf75-052 model:o-nu num_nodes=353 num_edges=1 size_nodes_bits=20254 size_nodes_byte=2531 size_edges_bits=31 size_total_byte=10311
file_name:uf75-052 model:o-nucx num_nodes=14 num_edges=1 size_nodes_bits=3570 size_nodes_byte=446 size_edges_bits=39 size_total_byte=769
file_name:uf75-052 model:o-u num_nodes=353 num_edges=1 size_nodes_bits=19888 size_nodes_byte=2486 size_edges_bits=30 size_total_byte=10265
file_name:uf75-052 model:o-uc0 num_nodes=352 num_edges=1 size_nodes_bits=21298 size_nodes_byte=2662 size_edges_bits=16 size_total_byte=10418
file_name:uf75-053 model:o-c10 num_nodes=792 num_edges=1 size_nodes_bits=50798 size_nodes_byte=6349 size_edges_bits=30 size_total_byte=23787
file_name:uf75-053 model:o-nu num_nodes=738 num_edges=1 size_nodes_bits=46562 size_nodes_byte=5820 size_edges_bits=31 size_total_byte=22070
file_name:uf75-053 model:o-nucx num_nodes=41 num_edges=1 size_nodes_bits=11355 size_nodes_byte=1419 size_edges_bits=17 size_total_byte=2333
file_name:uf75-053 model:o-u num_nodes=738 num_edges=1 size_nodes_bits=45784 size_nodes_byte=5723 size_edges_bits=30 size_total_byte=21972
file_name:uf75-053 model:o-uc0 num_nodes=737 num_edges=1 size_nodes_bits=48582 size_nodes_byte=6072 size_edges_bits=16 size_total_byte=22298
file_name:uf75-054 model:o-c10 num_nodes=647 num_edges=1 size_nodes_bits=39908 size_nodes_byte=4988 size_edges_bits=30 size_total_byte=19236
file_name:uf75-054 model:o-nu num_nodes=606 num_edges=1 size_nodes_bits=36865 size_nodes_byte=4608 size_edges_bits=31 size_total_byte=17954
file_name:uf75-054 model:o-nucx num_nodes=32 num_edges=1 size_nodes_bits=7173 size_nodes_byte=896 size_edges_bits=39 size_total_byte=1615
file_name:uf75-054 model:o-u num_nodes=606 num_edges=1 size_nodes_bits=36228 size_nodes_byte=4528 size_edges_bits=30 size_total_byte=17874
file_name:uf75-054 model:o-uc0 num_nodes=605 num_edges=1 size_nodes_bits=38604 size_nodes_byte=4825 size_edges_bits=16 size_total_byte=18147
file_name:uf75-055 model:o-c10 num_nodes=84 num_edges=1 size_nodes_bits=4412 size_nodes_byte=551 size_edges_bits=30 size_total_byte=2413
file_name:uf75-055 model:o-nu num_nodes=80 num_edges=1 size_nodes_bits=4164 size_nodes_byte=520 size_edges_bits=31 size_total_byte=2294
file_name:uf75-055 model:o-nucx num_nodes=1 num_edges=1 size_nodes_bits=391 size_nodes_byte=48 size_edges_bits=140 size_total_byte=98
file_name:uf75-055 model:o-u num_nodes=80 num_edges=1 size_nodes_bits=4084 size_nodes_byte=510 size_edges_bits=30 size_total_byte=2284
file_name:uf75-055 model:o-uc0 num_nodes=79 num_edges=1 size_nodes_bits=4463 size_nodes_byte=557 size_edges_bits=16 size_total_byte=2307
file_name:uf75-056 model:o-c10 num_nodes=572 num_edges=1 size_nodes_bits=33992 size_nodes_byte=4249 size_edges_bits=30 size_total_byte=16846
file_name:uf75-056 model:o-nu num_nodes=531 num_edges=1 size_nodes_bits=30996 size_nodes_byte=3874 size_edges_bits=31 size_total_byte=15570
file_name:uf75-056 model:o-nucx num_nodes=28 num_edges=1 size_nodes_bits=5808 size_nodes_byte=726 size_edges_bits=39 size_total_byte=1356
file_name:uf75-056 model:o-u num_nodes=531 num_edges=1 size_nodes_bits=30438 size_nodes_byte=3804 size_edges_bits=30 size_total_byte=15500
file_name:uf75-056 model:o-uc0 num_nodes=530 num_edges=1 size_nodes_bits=32560 size_nodes_byte=4070 size_edges_bits=16 size_total_byte=15742
file_name:uf75-057 model:o-c10 num_nodes=129 num_edges=1 size_nodes_bits=6964 size_nodes_byte=870 size_edges_bits=30 size_total_byte=3722
file_name:uf75-057 model:o-nu num_nodes=122 num_edges=1 size_nodes_bits=6596 size_nodes_byte=824 size_edges_bits=31 size_total_byte=3522
file_name:uf75-057 model:o-nucx num_nodes=1 num_edges=1 size_nodes_bits=641 size_nodes_byte=80 size_edges_bits=49 size_total_byte=118
file_name:uf75-057 model:o-u num_nodes=122 num_edges=1 size_nodes_bits=6474 size_nodes_byte=809 size_edges_bits=30 size_total_byte=3507
file_name:uf75-057 model:o-uc0 num_nodes=121 num_edges=1 size_nodes_bits=7077 size_nodes_byte=884 size_edges_bits=16 size_total_byte=3558
file_name:uf75-058 model:o-c10 num_nodes=975 num_edges=1 size_nodes_bits=59170 size_nodes_byte=7396 size_edges_bits=30 size_total_byte=28860
file_name:uf75-058 model:o-nu num_nodes=941 num_edges=1 size_nodes_bits=57137 size_nodes_byte=7142 size_edges_bits=31 size_total_byte=27858
file_name:uf75-058 model:o-nucx num_nodes=48 num_edges=1 size_nodes_bits=9821 size_nodes_byte=1227 size_edges_bits=17 size_total_byte=2295
file_name:uf75-058 model:o-u num_nodes=942 num_edges=1 size_nodes_bits=56194 size_nodes_byte=7024 size_edges_bits=30 size_total_byte=27762
file_name:uf75-058 model:o-uc0 num_nodes=939 num_edges=1 size_nodes_bits=59660 size_nodes_byte=7457 size_edges_bits=16 size_total_byte=28127
file_name:uf75-059 model:o-c10 num_nodes=1568 num_edges=1 size_nodes_bits=100188 size_nodes_byte=12523 size_edges_bits=30 size_total_byte=47033
file_name:uf75-059 model:o-nu num_nodes=1474 num_edges=1 size_nodes_bits=93018 size_nodes_byte=11627 size_edges_bits=31 size_total_byte=44069
file_name:uf75-059 model:o-nucx num_nodes=85 num_edges=1 size_nodes_bits=18250 size_nodes_byte=2281 size_edges_bits=17 size_total_byte=4163
file_name:uf75-059 model:o-u num_nodes=1474 num_edges=1 size_nodes_bits=91460 size_nodes_byte=11432 size_edges_bits=30 size_total_byte=43874
file_name:uf75-059 model:o-uc0 num_nodes=1473 num_edges=1 size_nodes_bits=96912 size_nodes_byte=12114 size_edges_bits=16 size_total_byte=44532
file_name:uf75-06 model:o-c10 num_nodes=340 num_edges=1 size_nodes_bits=19536 size_nodes_byte=2442 size_edges_bits=30 size_total_byte=9935
file_name:uf75-06 model:o-nu num_nodes=323 num_edges=1 size_nodes_bits=18381 size_nodes_byte=2297 size_edges_bits=31 size_total_byte=9417
file_name:uf75-06 model:o-nucx num_nodes=6 num_edges=1 size_nodes_bits=1930 size_nodes_byte=241 size_edges_bits=25 size_total_byte=386
file_name:uf75-06 model:o-u num_nodes=323 num_edges=1 size_nodes_bits=18054 size_nodes_byte=2256 size_edges_bits=30 size_total_byte=9376
file_name:uf75-06 model:o-uc0 num_nodes=321 num_edges=1 size_nodes_bits=19568 size_nodes_byte=2446 size_edges_bits=16 size_total_byte=9520
file_name:uf75-060 model:o-c10 num_nodes=888 num_edges=1 size_nodes_bits=55654 size_nodes_byte=6956 size_edges_bits=30 size_total_byte=26506
file_name:uf75-060 model:o-nu num_nodes=821 num_edges=1 size_nodes_bits=50612 size_nodes_byte=6326 size_edges_bits=31 size_total_byte=24402
file_name:uf75-060 model:o-nucx num_nodes=38 num_edges=1 size_nodes_bits=9020 size_nodes_byte=1127 size_edges_bits=17 size_total_byte=1975
file_name:uf75-060 model:o-u num_nodes=821 num_edges=1 size_nodes_bits=49754 size_nodes_byte=6219 size_edges_bits=30 size_total_byte=24295
file_name:uf75-060 model:o-uc0 num_nodes=820 num_edges=1 size_nodes_bits=53134 size_nodes_byte=6641 size_edges_bits=16 size_total_byte=24693
file_name:uf75-061 model:o-c10 num_nodes=230 num_edges=1 size_nodes_bits=12480 size_nodes_byte=1560 size_edges_bits=30 size_total_byte=6633
file_name:uf75-061 model:o-nu num_nodes=218 num_edges=1 size_nodes_bits=11800 size_nodes_byte=1475 size_edges_bits=31 size_total_byte=6284
file_name:uf75-061 model:o-nucx num_nodes=5 num_edges=1 size_nodes_bits=1396 size_nodes_byte=174 size_edges_bits=25 size_total_byte=297
file_name:uf75-061 model:o-u num_nodes=218 num_edges=1 size_nodes_bits=11578 size_nodes_byte=1447 size_edges_bits=30 size_total_byte=6257
file_name:uf75-061 model:o-uc0 num_nodes=217 num_edges=1 size_nodes_bits=12589 size_nodes_byte=1573 size_edges_bits=16 size_total_byte=6359
file_name:uf75-062 model:o-c10 num_nodes=135 num_edges=1 size_nodes_bits=7312 size_nodes_byte=914 size_edges_bits=30 size_total_byte=3897
file_name:uf75-062 model:o-nu num_nodes=132 num_edges=1 size_nodes_bits=7206 size_nodes_byte=900 size_edges_bits=31 size_total_byte=3818
file_name:uf75-062 model:o-nucx num_nodes=3 num_edges=1 size_nodes_bits=891 size_nodes_byte=111 size_edges_bits=43 size_total_byte=192
file_name:uf75-062 model:o-u num_nodes=132 num_edges=1 size_nodes_bits=7072 size_nodes_byte=884 size_edges_bits=30 size_total_byte=3801
file_name:uf75-062 model:o-uc0 num_nodes=131 num_edges=1 size_nodes_bits=7657 size_nodes_byte=957 size_edges_bits=16 size_total_byte=3851
file_name:uf75-063 model:o-c10 num_nodes=845 num_edges=1 size_nodes_bits=51348 size_nodes_byte=6418 size_edges_bits=30 size_total_byte=25022
file_name:uf75-063 model:o-nu num_nodes=807 num_edges=1 size_nodes_bits=48228 size_nodes_byte=6028 size_edges_bits=31 size_total_byte=23796
file_name:uf75-063 model:o-nucx num_nodes=34 num_edges=1 size_nodes_bits=7332 size_nodes_byte=916 size_edges_bits=25 size_total_byte=1677
file_name:uf75-063 model:o-u num_nodes=807 num_edges=1 size_nodes_bits=47388 size_nodes_byte=5923 size_edges_bits=30 size_total_byte=23691
file_name:uf75-063 model:o-uc0 num_nodes=806 num_edges=1 size_nodes_bits=50813 size_nodes_byte=6351 size_edges_bits=16 size_total_byte=24095
file_name:uf75-064 model:o-c10 num_nodes=816 num_edges=1 size_nodes_bits=49092 size_nodes_byte=6136 size_edges_bits=30 size_total_byte=24102
file_name:uf75-064 model:o-nu num_nodes=782 num_edges=1 size_nodes_bits=46953 size_nodes_byte=5869 size_edges_bits=31 size_total_byte=23087
file_name:uf75-064 model:o-nucx num_nodes=22 num_edges=1 size_nodes_bits=5528 size_nodes_byte=691 size_edges_bits=17 size_total_byte=1187
file_name:uf75-064 model:o-u num_nodes=782 num_edges=1 size_nodes_bits=46150 size_nodes_byte=5768 size_edges_bits=30 size_total_byte=22986
file_name:uf75-064 model:o-uc0 num_nodes=781 num_edges=1 size_nodes_bits=49622 size_nodes_byte=6202 size_edges_bits=16 size_total_byte=23396
file_name:uf75-065 model:o-c10 num_nodes=1783 num_edges=1 size_nodes_bits=113910 size_nodes_byte=14238 size_edges_bits=30 size_total_byte=53478
file_name:uf75-065 model:o-nu num_nodes=2017 num_edges=1 size_nodes_bits=128671 size_nodes_byte=16083 size_edges_bits=31 size_total_byte=60471
file_name:uf75-065 model:o-nucx num_nodes=95 num_edges=1 size_nodes_bits=21186 size_nodes_byte=2648 size_edges_bits=27 size_total_byte=4751
file_name:uf75-065 model:o-u num_nodes=2017 num_edges=1 size_nodes_bits=126560 size_nodes_byte=15820 size_edges_bits=30 size_total_byte=60207
file_name:uf75-065 model:o-uc0 num_nodes=2016 num_edges=1 size_nodes_bits=134448 size_nodes_byte=16806 size_edges_bits=16 size_total_byte=61170
file_name:uf75-066 model:o-c10 num_nodes=2466 num_edges=1 size_nodes_bits=166054 size_nodes_byte=20756 size_edges_bits=30 size_total_byte=75022
file_name:uf75-066 model:o-nu num_nodes=2384 num_edges=1 size_nodes_bits=160447 size_nodes_byte=20055 size_edges_bits=31 size_total_byte=72517
file_name:uf75-066 model:o-nucx num_nodes=283 num_edges=1 size_nodes_bits=45870 size_nodes_byte=5733 size_edges_bits=25 size_total_byte=11972
file_name:uf75-066 model:o-u num_nodes=2385 num_edges=1 size_nodes_bits=157814 size_nodes_byte=19726 size_edges_bits=30 size_total_byte=72210
file_name:uf75-066 model:o-uc0 num_nodes=2382 num_edges=1 size_nodes_bits=162126 size_nodes_byte=20265 size_edges_bits=16 size_total_byte=72681
file_name:uf75-067 model:o-c10 num_nodes=227 num_edges=1 size_nodes_bits=12556 size_nodes_byte=1569 size_edges_bits=30 size_total_byte=6577
file_name:uf75-067 model:o-nu num_nodes=219 num_edges=1 size_nodes_bits=12150 size_nodes_byte=1518 size_edges_bits=31 size_total_byte=6350
file_name:uf75-067 model:o-nucx num_nodes=7 num_edges=1 size_nodes_bits=1479 size_nodes_byte=184 size_edges_bits=64 size_total_byte=356
file_name:uf75-067 model:o-u num_nodes=219 num_edges=1 size_nodes_bits=11926 size_nodes_byte=1490 size_edges_bits=30 size_total_byte=6322
file_name:uf75-067 model:o-uc0 num_nodes=217 num_edges=1 size_nodes_bits=12857 size_nodes_byte=1607 size_edges_bits=16 size_total_byte=6393
file_name:uf75-068 model:o-c10 num_nodes=3899 num_edges=1 size_nodes_bits=271714 size_nodes_byte=33964 size_edges_bits=30 size_total_byte=119756
file_name:uf75-068 model:o-nu num_nodes=3546 num_edges=1 size_nodes_bits=240297 size_nodes_byte=30037 size_edges_bits=31 size_total_byte=108063
file_name:uf75-068 model:o-nucx num_nodes=280 num_edges=1 size_nodes_bits=59997 size_nodes_byte=7499 size_edges_bits=17 size_total_byte=13671
file_name:uf75-068 model:o-u num_nodes=3546 num_edges=1 size_nodes_bits=236472 size_nodes_byte=29559 size_edges_bits=30 size_total_byte=107584
file_name:uf75-068 model:o-uc0 num_nodes=3545 num_edges=1 size_nodes_bits=248448 size_nodes_byte=31056 size_edges_bits=16 size_total_byte=109058
file_name:uf75-069 model:o-c10 num_nodes=415 num_edges=1 size_nodes_bits=24908 size_nodes_byte=3113 size_edges_bits=30 size_total_byte=12257
file_name:uf75-069 model:o-nu num_nodes=392 num_edges=1 size_nodes_bits=23319 size_nodes_byte=2914 size_edges_bits=31 size_total_byte=11552
file_name:uf75-069 model:o-nucx num_nodes=20 num_edges=1 size_nodes_bits=4365 size_nodes_byte=545 size_edges_bits=17 size_total_byte=997
file_name:uf75-069 model:o-u num_nodes=393 num_edges=1 size_nodes_bits=22934 size_nodes_byte=2866 size_edges_bits=30 size_total_byte=11526
file_name:uf75-069 model:o-uc0 num_nodes=391 num_edges=1 size_nodes_bits=24410 size_nodes_byte=3051 size_edges_bits=16 size_total_byte=11665
file_name:uf75-07 model:o-c10 num_nodes=234 num_edges=1 size_nodes_bits=13204 size_nodes_byte=1650 size_edges_bits=30 size_total_byte=6812
file_name:uf75-07 model:o-nu num_nodes=227 num_edges=1 size_nodes_bits=12859 size_nodes_byte=1607 size_edges_bits=31 size_total_byte=6615
file_name:uf75-07 model:o-nucx num_nodes=7 num_edges=1 size_nodes_bits=1757 size_nodes_byte=219 size_edges_bits=17 size_total_byte=385
file_name:uf75-07 model:o-u num_nodes=228 num_edges=1 size_nodes_bits=12650 size_nodes_byte=1581 size_edges_bits=30 size_total_byte=6611
file_name:uf75-07 model:o-uc0 num_nodes=226 num_edges=1 size_nodes_bits=13596 size_nodes_byte=1699 size_edges_bits=16 size_total_byte=6683
file_name:uf75-070 model:o-c10 num_nodes=574 num_edges=1 size_nodes_bits=35160 size_nodes_byte=4395 size_edges_bits=30 size_total_byte=17036
file_name:uf75-070 model:o-nu num_nodes=516 num_edges=1 size_nodes_bits=30600 size_nodes_byte=3825 size_edges_bits=31 size_total_byte=15190
file_name:uf75-070 model:o-nucx num_nodes=39 num_edges=1 size_nodes_bits=7537 size_nodes_byte=942 size_edges_bits=51 size_total_byte=1816
file_name:uf75-070 model:o-u num_nodes=516 num_edges=1 size_nodes_bits=30046 size_nodes_byte=3755 size_edges_bits=30 size_total_byte=15121
file_name:uf75-070 model:o-uc0 num_nodes=515 num_edges=1 size_nodes_bits=31926 size_nodes_byte=3990 size_edges_bits=16 size_total_byte=15332
file_name:uf75-071 model:o-c10 num_nodes=574 num_edges=1 size_nodes_bits=34360 size_nodes_byte=4295 size_edges_bits=30 size_total_byte=16936
file_name:uf75-071 model:o-nu num_nodes=557 num_edges=1 size_nodes_bits=33203 size_nodes_byte=4150 size_edges_bits=31 size_total_byte=16418
file_name:uf75-071 model:o-nucx num_nodes=23 num_edges=1 size_nodes_bits=5294 size_nodes_byte=661 size_edges_bits=25 size_total_byte=1180
file_name:uf75-071 model:o-u num_nodes=557 num_edges=1 size_nodes_bits=32624 size_nodes_byte=4078 size_edges_bits=30 size_total_byte=16345
file_name:uf75-071 model:o-uc0 num_nodes=556 num_edges=1 size_nodes_bits=34870 size_nodes_byte=4358 size_edges_bits=16 size_total_byte=16602
file_name:uf75-072 model:o-c10 num_nodes=1457 num_edges=1 size_nodes_bits=89042 size_nodes_byte=11130 size_edges_bits=30 size_total_byte=43198
file_name:uf75-072 model:o-nu num_nodes=1499 num_edges=1 size_nodes_bits=91237 size_nodes_byte=11404 size_edges_bits=31 size_total_byte=44396
file_name:uf75-072 model:o-nucx num_nodes=57 num_edges=1 size_nodes_bits=13007 size_nodes_byte=1625 size_edges_bits=17 size_total_byte=2892
file_name:uf75-072 model:o-u num_nodes=1501 num_edges=1 size_nodes_bits=89768 size_nodes_byte=11221 size_edges_bits=30 size_total_byte=44256
file_name:uf75-072 model:o-uc0 num_nodes=1496 num_edges=1 size_nodes_bits=95991 size_nodes_byte=11998 size_edges_bits=16 size_total_byte=44922
file_name:uf75-073 model:o-c10 num_nodes=9496 num_edges=1 size_nodes_bits=687590 size_nodes_byte=85948 size_edges_bits=30 size_total_byte=294874
file_name:uf75-073 model:o-nu num_nodes=9396 num_edges=1 size_nodes_bits=667040 size_nodes_byte=83380 size_edges_bits=31 size_total_byte=290105
file_name:uf75-073 model:o-nucx num_nodes=1092 num_edges=1 size_nodes_bits=179083 size_nodes_byte=22385 size_edges_bits=17 size_total_byte=46421
file_name:uf75-073 model:o-u num_nodes=9397 num_edges=1 size_nodes_bits=656590 size_nodes_byte=82073 size_edges_bits=30 size_total_byte=288821
file_name:uf75-073 model:o-uc0 num_nodes=9394 num_edges=1 size_nodes_bits=678308 size_nodes_byte=84788 size_edges_bits=16 size_total_byte=291468
file_name:uf75-074 model:o-c10 num_nodes=2303 num_edges=1 size_nodes_bits=146778 size_nodes_byte=18347 size_edges_bits=30 size_total_byte=69027
file_name:uf75-074 model:o-nu num_nodes=2186 num_edges=1 size_nodes_bits=138627 size_nodes_byte=17328 size_edges_bits=31 size_total_byte=65434
file_name:uf75-074 model:o-nucx num_nodes=125 num_edges=1 size_nodes_bits=21926 size_nodes_byte=2740 size_edges_bits=17 size_total_byte=5502
file_name:uf75-074 model:o-u num_nodes=2186 num_edges=1 size_nodes_bits=136318 size_nodes_byte=17039 size_edges_bits=30 size_total_byte=65145
file_name:uf75-074 model:o-uc0 num_nodes=2184 num_edges=1 size_nodes_bits=144601 size_nodes_byte=18075 size_edges_bits=16 size_total_byte=66135
file_name:uf75-075 model:o-c10 num_nodes=1099 num_edges=1 size_nodes_bits=69958 size_nodes_byte=8744 size_edges_bits=30 size_total_byte=32936
file_name:uf75-075 model:o-nu num_nodes=1023 num_edges=1 size_nodes_bits=63894 size_nodes_byte=7986 size_edges_bits=31 size_total_byte=30506
file_name:uf75-075 model:o-nucx num_nodes=64 num_edges=1 size_nodes_bits=13609 size_nodes_byte=1701 size_edges_bits=25 size_total_byte=3122
file_name:uf75-075 model:o-u num_nodes=1024 num_edges=1 size_nodes_bits=62836 size_nodes_byte=7854 size_edges_bits=30 size_total_byte=30396
file_name:uf75-075 model:o-uc0 num_nodes=1022 num_edges=1 size_nodes_bits=66593 size_nodes_byte=8324 size_edges_bits=16 size_total_byte=30820
file_name:uf75-076 model:o-c10 num_nodes=307 num_edges=1 size_nodes_bits=18104 size_nodes_byte=2263 size_edges_bits=30 size_total_byte=9030
file_name:uf75-076 model:o-nu num_nodes=275 num_edges=1 size_nodes_bits=15605 size_nodes_byte=1950 size_edges_bits=31 size_total_byte=8014
file_name:uf75-076 model:o-nucx num_nodes=7 num_edges=1 size_nodes_bits=2135 size_nodes_byte=266 size_edges_bits=45 size_total_byte=436
file_name:uf75-076 model:o-u num_nodes=275 num_edges=1 size_nodes_bits=15324 size_nodes_byte=1915 size_edges_bits=30 size_total_byte=7979
file_name:uf75-076 model:o-uc0 num_nodes=274 num_edges=1 size_nodes_bits=16671 size_nodes_byte=2083 size_edges_bits=16 size_total_byte=8123
file_name:uf75-077 model:o-c10 num_nodes=7471 num_edges=1 size_nodes_bits=517718 size_nodes_byte=64714 size_edges_bits=30 size_total_byte=229090
file_name:uf75-077 model:o-nu num_nodes=7125 num_edges=1 size_nodes_bits=486682 size_nodes_byte=60835 size_edges_bits=31 size_total_byte=217599
file_name:uf75-077 model:o-nucx num_nodes=523 num_edges=1 size_nodes_bits=103584 size_nodes_byte=12948 size_edges_bits=17 size_total_byte=24466
file_name:uf75-077 model:o-u num_nodes=7126 num_edges=1 size_nodes_bits=479072 size_nodes_byte=59884 size_edges_bits=30 size_total_byte=216669
file_name:uf75-077 model:o-uc0 num_nodes=7123 num_edges=1 size_nodes_bits=503048 size_nodes_byte=62881 size_edges_bits=16 size_total_byte=219599
file_name:uf75-078 model:o-c10 num_nodes=331 num_edges=1 size_nodes_bits=18936 size_nodes_byte=2367 size_edges_bits=30 size_total_byte=9662
file_name:uf75-078 model:o-nu num_nodes=327 num_edges=1 size_nodes_bits=18579 size_nodes_byte=2322 size_edges_bits=31 size_total_byte=9530
file_name:uf75-078 model:o-nucx num_nodes=16 num_edges=1 size_nodes_bits=3691 size_nodes_byte=461 size_edges_bits=17 size_total_byte=825
file_name:uf75-078 model:o-u num_nodes=328 num_edges=1 size_nodes_bits=18280 size_nodes_byte=2285 size_edges_bits=30 size_total_byte=9514
file_name:uf75-078 model:o-uc0 num_nodes=324 num_edges=1 size_nodes_bits=19472 size_nodes_byte=2434 size_edges_bits=16 size_total_byte=9574
file_name:uf75-079 model:o-c10 num_nodes=495 num_edges=1 size_nodes_bits=28768 size_nodes_byte=3596 size_edges_bits=30 size_total_byte=14499
file_name:uf75-079 model:o-nu num_nodes=473 num_edges=1 size_nodes_bits=27528 size_nodes_byte=3441 size_edges_bits=31 size_total_byte=13860
file_name:uf75-079 model:o-nucx num_nodes=21 num_edges=1 size_nodes_bits=4472 size_nodes_byte=559 size_edges_bits=37 size_total_byte=1035
file_name:uf75-079 model:o-u num_nodes=474 num_edges=1 size_nodes_bits=27062 size_nodes_byte=3382 size_edges_bits=30 size_total_byte=13824
file_name:uf75-079 model:o-uc0 num_nodes=471 num_edges=1 size_nodes_bits=28963 size_nodes_byte=3620 size_edges_bits=16 size_total_byte=13994
file_name:uf75-08 model:o-c10 num_nodes=308 num_edges=1 size_nodes_bits=17422 size_nodes_byte=2177 size_edges_bits=30 size_total_byte=8967
file_name:uf75-08 model:o-nu num_nodes=290 num_edges=1 size_nodes_bits=16157 size_nodes_byte=2019 size_edges_bits=31 size_total_byte=8413
file_name:uf75-08 model:o-nucx num_nodes=7 num_edges=1 size_nodes_bits=2060 size_nodes_byte=257 size_edges_bits=27 size_total_byte=424
file_name:uf75-08 model:o-u num_nodes=291 num_edges=1 size_nodes_bits=15888 size_nodes_byte=1986 size_edges_bits=30 size_total_byte=8401
file_name:uf75-08 model:o-uc0 num_nodes=288 num_edges=1 size_nodes_bits=17204 size_nodes_byte=2150 size_edges_bits=16 size_total_byte=8498
file_name:uf75-080 model:o-c10 num_nodes=1430 num_edges=1 size_nodes_bits=90166 size_nodes_byte=11270 size_edges_bits=30 size_total_byte=42744
file_name:uf75-080 model:o-nu num_nodes=1347 num_edges=1 size_nodes_bits=83931 size_nodes_byte=10491 size_edges_bits=31 size_total_byte=40139
file_name:uf75-080 model:o-nucx num_nodes=87 num_edges=1 size_nodes_bits=14622 size_nodes_byte=1827 size_edges_bits=17 size_total_byte=3753
file_name:uf75-080 model:o-u num_nodes=1347 num_edges=1 size_nodes_bits=82498 size_nodes_byte=10312 size_edges_bits=30 size_total_byte=39960
file_name:uf75-080 model:o-uc0 num_nodes=1346 num_edges=1 size_nodes_bits=87404 size_nodes_byte=10925 size_edges_bits=16 size_total_byte=40549
file_name:uf75-081 model:o-c10 num_nodes=191 num_edges=1 size_nodes_bits=10874 size_nodes_byte=1359 size_edges_bits=30 size_total_byte=5575
file_name:uf75-081 model:o-nu num_nodes=179 num_edges=1 size_nodes_bits=10053 size_nodes_byte=1256 size_edges_bits=31 size_total_byte=5208
file_name:uf75-081 model:o-nucx num_nodes=5 num_edges=1 size_nodes_bits=1595 size_nodes_byte=199 size_edges_bits=39 size_total_byte=324
file_name:uf75-081 model:o-u num_nodes=179 num_edges=1 size_nodes_bits=9870 size_nodes_byte=1233 size_edges_bits=30 size_total_byte=5185
file_name:uf75-081 model:o-uc0 num_nodes=178 num_edges=1 size_nodes_bits=10676 size_nodes_byte=1334 size_edges_bits=16 size_total_byte=5262
file_name:uf75-082 model:o-c10 num_nodes=965 num_edges=1 size_nodes_bits=58806 size_nodes_byte=7350 size_edges_bits=30 size_total_byte=28594
file_name:uf75-082 model:o-nu num_nodes=927 num_edges=1 size_nodes_bits=56528 size_nodes_byte=7066 size_edges_bits=31 size_total_byte=27473
file_name:uf75-082 model:o-nucx num_nodes=29 num_edges=1 size_nodes_bits=8015 size_nodes_byte=1001 size_edges_bits=25 size_total_byte=1653
file_name:uf75-082 model:o-u num_nodes=928 num_edges=1 size_nodes_bits=55620 size_nodes_byte=6952 size_edges_bits=30 size_total_byte=27382
file_name:uf75-082 model:o-uc0 num_nodes=925 num_edges=1 size_nodes_bits=59573 size_nodes_byte=7446 size_edges_bits=16 size_total_byte=27808
file_name:uf75-083 model:o-c10 num_nodes=396 num_edges=1 size_nodes_bits=22616 size_nodes_byte=2827 size_edges_bits=30 size_total_byte=11552
file_name:uf75-083 model:o-nu num_nodes=375 num_edges=1 size_nodes_bits=21340 size_nodes_byte=2667 size_edges_bits=31 size_total_byte=10931
file_name:uf75-083 model:o-nucx num_nodes=14 num_edges=1 size_nodes_bits=3094 size_nodes_byte=386 size_edges_bits=27 size_total_byte=708
file_name:uf75-083 model:o-u num_nodes=375 num_edges=1 size_nodes_bits=20952 size_nodes_byte=2619 size_edges_bits=30 size_total_byte=10882
file_name:uf75-083 model:o-uc0 num_nodes=374 num_edges=1 size_nodes_bits=22544 size_nodes_byte=2818 size_edges_bits=16 size_total_byte=11058
file_name:uf75-084 model:o-c10 num_nodes=324 num_edges=1 size_nodes_bits=19198 size_nodes_byte=2399 size_edges_bits=30 size_total_byte=9541
file_name:uf75-084 model:o-nu num_nodes=304 num_edges=1 size_nodes_bits=17764 size_nodes_byte=2220 size_edges_bits=31 size_total_byte=8922
file_name:uf75-084 model:o-nucx num_nodes=7 num_edges=1 size_nodes_bits=2484 size_nodes_byte=310 size_edges_bits=17 size_total_byte=476
file_name:uf75-084 model:o-u num_nodes=304 num_edges=1 size_nodes_bits=17454 size_nodes_byte=2181 size_edges_bits=30 size_total_byte=8883
file_name:uf75-084 model:o-uc0 num_nodes=303 num_edges=1 size_nodes_bits=18863 size_nodes_byte=2357 size_edges_bits=16 size_total_byte=9035
file_name:uf75-085 model:o-c10 num_nodes=2027 num_edges=1 size_nodes_bits=131498 size_nodes_byte=16437 size_edges_bits=30 size_total_byte=61045
file_name:uf75-085 model:o-nu num_nodes=1910 num_edges=1 size_nodes_bits=122730 size_nodes_byte=15341 size_edges_bits=31 size_total_byte=57375
file_name:uf75-085 model:o-nucx num_nodes=119 num_edges=1 size_nodes_bits=23479 size_nodes_byte=2934 size_edges_bits=17 size_total_byte=5565
file_name:uf75-085 model:o-u num_nodes=1910 num_edges=1 size_nodes_bits=120702 size_nodes_byte=15087 size_edges_bits=30 size_total_byte=57121
file_name:uf75-085 model:o-uc0 num_nodes=1909 num_edges=1 size_nodes_bits=127661 size_nodes_byte=15957 size_edges_bits=16 size_total_byte=57967
file_name:uf75-086 model:o-c10 num_nodes=173 num_edges=1 size_nodes_bits=10016 size_nodes_byte=1252 size_edges_bits=30 size_total_byte=5071
file_name:uf75-086 model:o-nu num_nodes=166 num_edges=1 size_nodes_bits=9595 size_nodes_byte=1199 size_edges_bits=31 size_total_byte=4865
file_name:uf75-086 model:o-nucx num_nodes=8 num_edges=1 size_nodes_bits=1851 size_nodes_byte=231 size_edges_bits=17 size_total_byte=419
file_name:uf75-086 model:o-u num_nodes=166 num_edges=1 size_nodes_bits=9422 size_nodes_byte=1177 size_edges_bits=30 size_total_byte=4843
file_name:uf75-086 model:o-uc0 num_nodes=165 num_edges=1 size_nodes_bits=10050 size_nodes_byte=1256 size_edges_bits=16 size_total_byte=4898
file_name:uf75-087 model:o-c10 num_nodes=25831 num_edges=1 size_nodes_bits=1990226 size_nodes_byte=248778 size_edges_bits=30 size_total_byte=817074
file_name:uf75-087 model:o-nu num_nodes=25706 num_edges=1 size_nodes_bits=1964486 size_nodes_byte=245560 size_edges_bits=31 size_total_byte=811106
file_name:uf75-087 model:o-nucx num_nodes=4336 num_edges=1 size_nodes_bits=688823 size_nodes_byte=86102 size_edges_bits=17 size_total_byte=181507
file_name:uf75-087 model:o-u num_nodes=25708 num_edges=1 size_nodes_bits=1934528 size_nodes_byte=241816 size_edges_bits=30 size_total_byte=807405
file_name:uf75-087 model:o-uc0 num_nodes=25704 num_edges=1 size_nodes_bits=1952770 size_nodes_byte=244096 size_edges_bits=16 size_total_byte=809596
file_name:uf75-088 model:o-c10 num_nodes=1678 num_edges=1 size_nodes_bits=104562 size_nodes_byte=13070 size_edges_bits=30 size_total_byte=50000
file_name:uf75-088 model:o-nu num_nodes=1612 num_edges=1 size_nodes_bits=99923 size_nodes_byte=12490 size_edges_bits=31 size_total_byte=47968
file_name:uf75-088 model:o-nucx num_nodes=57 num_edges=1 size_nodes_bits=13684 size_nodes_byte=1710 size_edges_bits=17 size_total_byte=2976
file_name:uf75-088 model:o-u num_nodes=1613 num_edges=1 size_nodes_bits=98286 size_nodes_byte=12285 size_edges_bits=30 size_total_byte=47785
file_name:uf75-088 model:o-uc0 num_nodes=1610 num_edges=1 size_nodes_bits=105153 size_nodes_byte=13144 size_edges_bits=16 size_total_byte=48576
file_name:uf75-089 model:o-c10 num_nodes=1536 num_edges=1 size_nodes_bits=100138 size_nodes_byte=12517 size_edges_bits=30 size_total_byte=46323
file_name:uf75-089 model:o-nu num_nodes=1849 num_edges=1 size_nodes_bits=118528 size_nodes_byte=14816 size_edges_bits=31 size_total_byte=55507
file_name:uf75-089 model:o-nucx num_nodes=169 num_edges=1 size_nodes_bits=28681 size_nodes_byte=3585 size_edges_bits=25 size_total_byte=7316
file_name:uf75-089 model:o-u num_nodes=1851 num_edges=1 size_nodes_bits=116618 size_nodes_byte=14577 size_edges_bits=30 size_total_byte=55313
file_name:uf75-089 model:o-uc0 num_nodes=1847 num_edges=1 size_nodes_bits=122002 size_nodes_byte=15250 size_edges_bits=16 size_total_byte=55896
file_name:uf75-09 model:o-c10 num_nodes=4150 num_edges=1 size_nodes_bits=271396 size_nodes_byte=33924 size_edges_bits=30 size_total_byte=125238
file_name:uf75-09 model:o-nu num_nodes=4103 num_edges=1 size_nodes_bits=265416 size_nodes_byte=33177 size_edges_bits=31 size_total_byte=123456
file_name:uf75-09 model:o-nucx num_nodes=262 num_edges=1 size_nodes_bits=45848 size_nodes_byte=5731 size_edges_bits=17 size_total_byte=11507
file_name:uf75-09 model:o-u num_nodes=4106 num_edges=1 size_nodes_bits=261150 size_nodes_byte=32643 size_edges_bits=30 size_total_byte=122989
file_name:uf75-09 model:o-uc0 num_nodes=4098 num_edges=1 size_nodes_bits=275746 size_nodes_byte=34468 size_edges_bits=16 size_total_byte=124636
file_name:uf75-090 model:o-c10 num_nodes=105 num_edges=1 size_nodes_bits=5534 size_nodes_byte=691 size_edges_bits=30 size_total_byte=3015
file_name:uf75-090 model:o-nu num_nodes=101 num_edges=1 size_nodes_bits=5342 size_nodes_byte=667 size_edges_bits=31 size_total_byte=2903
file_name:uf75-090 model:o-nucx num_nodes=2 num_edges=1 size_nodes_bits=489 size_nodes_byte=61 size_edges_bits=96 size_total_byte=127
file_name:uf75-090 model:o-u num_nodes=101 num_edges=1 size_nodes_bits=5240 size_nodes_byte=655 size_edges_bits=30 size_total_byte=2890
file_name:uf75-090 model:o-uc0 num_nodes=100 num_edges=1 size_nodes_bits=5705 size_nodes_byte=713 size_edges_bits=16 size_total_byte=2925
file_name:uf75-091 model:o-c10 num_nodes=74 num_edges=1 size_nodes_bits=3812 size_nodes_byte=476 size_edges_bits=30 size_total_byte=2118
file_name:uf75-091 model:o-nu num_nodes=72 num_edges=1 size_nodes_bits=3673 size_nodes_byte=459 size_edges_bits=31 size_total_byte=2057
file_name:uf75-091 model:o-nucx num_nodes=0 num_edges=1 size_nodes_bits=0 size_nodes_byte=0 size_edges_bits=291 size_total_byte=46
file_name:uf75-091 model:o-u num_nodes=72 num_edges=1 size_nodes_bits=3602 size_nodes_byte=450 size_edges_bits=30 size_total_byte=2048
file_name:uf75-091 model:o-uc0 num_nodes=71 num_edges=1 size_nodes_bits=3963 size_nodes_byte=495 size_edges_bits=16 size_total_byte=2069
file_name:uf75-092 model:o-c10 num_nodes=1577 num_edges=1 size_nodes_bits=98212 size_nodes_byte=12276 size_edges_bits=30 size_total_byte=46984
file_name:uf75-092 model:o-nu num_nodes=1494 num_edges=1 size_nodes_bits=92203 size_nodes_byte=11525 size_edges_bits=31 size_total_byte=44407
file_name:uf75-092 model:o-nucx num_nodes=78 num_edges=1 size_nodes_bits=14385 size_nodes_byte=1798 size_edges_bits=17 size_total_byte=3526
file_name:uf75-092 model:o-u num_nodes=1494 num_edges=1 size_nodes_bits=90634 size_nodes_byte=11329 size_edges_bits=30 size_total_byte=44211
file_name:uf75-092 model:o-uc0 num_nodes=1491 num_edges=1 size_nodes_bits=96517 size_nodes_byte=12064 size_edges_bits=16 size_total_byte=44878
file_name:uf75-093 model:o-c10 num_nodes=7908 num_edges=1 size_nodes_bits=567250 size_nodes_byte=70906 size_edges_bits=30 size_total_byte=244896
file_name:uf75-093 model:o-nu num_nodes=7392 num_edges=1 size_nodes_bits=523398 size_nodes_byte=65424 size_edges_bits=31 size_total_byte=228062
file_name:uf75-093 model:o-nucx num_nodes=882 num_edges=1 size_nodes_bits=150013 size_nodes_byte=18751 size_edges_bits=17 size_total_byte=38167
file_name:uf75-093 model:o-u num_nodes=7394 num_edges=1 size_nodes_bits=515178 size_nodes_byte=64397 size_edges_bits=30 size_total_byte=227079
file_name:uf75-093 model:o-uc0 num_nodes=7390 num_edges=1 size_nodes_bits=530780 size_nodes_byte=66347 size_edges_bits=16 size_total_byte=228939
file_name:uf75-094 model:o-c10 num_nodes=2524 num_edges=1 size_nodes_bits=166970 size_nodes_byte=20871 size_edges_bits=30 size_total_byte=76413
file_name:uf75-094 model:o-nu num_nodes=2364 num_edges=1 size_nodes_bits=154200 size_nodes_byte=19275 size_edges_bits=31 size_total_byte=71296
file_name:uf75-094 model:o-nucx num_nodes=153 num_edges=1 size_nodes_bits=31668 size_nodes_byte=3958 size_edges_bits=17 size_total_byte=7336
file_name:uf75-094 model:o-u num_nodes=2364 num_edges=1 size_nodes_bits=151684 size_nodes_byte=18960 size_edges_bits=30 size_total_byte=70982
file_name:uf75-094 model:o-uc0 num_nodes=2363 num_edges=1 size_nodes_bits=160372 size_nodes_byte=20046 size_edges_bits=16 size_total_byte=72044
file_name:uf75-095 model:o-c10 num_nodes=276 num_edges=1 size_nodes_bits=16380 size_nodes_byte=2047 size_edges_bits=30 size_total_byte=8133
file_name:uf75-095 model:o-nu num_nodes=264 num_edges=1 size_nodes_bits=15658 size_nodes_byte=1957 size_edges_bits=31 size_total_byte=7779
file_name:uf75-095 model:o-nucx num_nodes=19 num_edges=1 size_nodes_bits=4524 size_nodes_byte=565 size_edges_bits=52 size_total_byte=1000
file_name:uf75-095 model:o-u num_nodes=264 num_edges=1 size_nodes_bits=15376 size_nodes_byte=1922 size_edges_bits=30 size_total_byte=7743
file_name:uf75-095 model:o-uc0 num_nodes=263 num_edges=1 size_nodes_bits=16201 size_nodes_byte=2025 size_edges_bits=16 size_total_byte=7823
file_name:uf75-096 model:o-c10 num_nodes=509 num_edges=1 size_nodes_bits=29472 size_nodes_byte=3684 size_edges_bits=30 size_total_byte=14895
file_name:uf75-096 model:o-nu num_nodes=497 num_edges=1 size_nodes_bits=29003 size_nodes_byte=3625 size_edges_bits=31 size_total_byte=14573
file_name:uf75-096 model:o-nucx num_nodes=31 num_edges=1 size_nodes_bits=5638 size_nodes_byte=704 size_edges_bits=35 size_total_byte=1401
file_name:uf75-096 model:o-u num_nodes=497 num_edges=1 size_nodes_bits=28476 size_nodes_byte=3559 size_edges_bits=30 size_total_byte=14507
file_name:uf75-096 model:o-uc0 num_nodes=496 num_edges=1 size_nodes_bits=30207 size_nodes_byte=3775 size_edges_bits=16 size_total_byte=14699
file_name:uf75-097 model:o-c10 num_nodes=205 num_edges=1 size_nodes_bits=11608 size_nodes_byte=1451 size_edges_bits=30 size_total_byte=5974
file_name:uf75-097 model:o-nu num_nodes=195 num_edges=1 size_nodes_bits=10990 size_nodes_byte=1373 size_edges_bits=31 size_total_byte=5677
file_name:uf75-097 model:o-nucx num_nodes=6 num_edges=1 size_nodes_bits=1261 size_nodes_byte=157 size_edges_bits=49 size_total_byte=305
file_name:uf75-097 model:o-u num_nodes=195 num_edges=1 size_nodes_bits=10790 size_nodes_byte=1348 size_edges_bits=30 size_total_byte=5652
file_name:uf75-097 model:o-uc0 num_nodes=194 num_edges=1 size_nodes_bits=11641 size_nodes_byte=1455 size_edges_bits=16 size_total_byte=5735
file_name:uf75-098 model:o-c10 num_nodes=1837 num_edges=1 size_nodes_bits=116904 size_nodes_byte=14613 size_edges_bits=30 size_total_byte=55040
file_name:uf75-098 model:o-nu num_nodes=1684 num_edges=1 size_nodes_bits=105158 size_nodes_byte=13144 size_edges_bits=31 size_total_byte=50206
file_name:uf75-098 model:o-nucx num_nodes=114 num_edges=1 size_nodes_bits=21315 size_nodes_byte=2664 size_edges_bits=27 size_total_byte=5185
file_name:uf75-098 model:o-u num_nodes=1684 num_edges=1 size_nodes_bits=103362 size_nodes_byte=12920 size_edges_bits=30 size_total_byte=49982
file_name:uf75-098 model:o-uc0 num_nodes=1682 num_edges=1 size_nodes_bits=109873 size_nodes_byte=13734 size_edges_bits=16 size_total_byte=50750
file_name:uf75-099 model:o-c10 num_nodes=661 num_edges=1 size_nodes_bits=39030 size_nodes_byte=4878 size_edges_bits=30 size_total_byte=19434
file_name:uf75-099 model:o-nu num_nodes=625 num_edges=1 size_nodes_bits=36767 size_nodes_byte=4595 size_edges_bits=31 size_total_byte=18359
file_name:uf75-099 model:o-nucx num_nodes=35 num_edges=1 size_nodes_bits=6744 size_nodes_byte=843 size_edges_bits=17 size_total_byte=1625
file_name:uf75-099 model:o-u num_nodes=625 num_edges=1 size_nodes_bits=36108 size_nodes_byte=4513 size_edges_bits=30 size_total_byte=18277
file_name:uf75-099 model:o-uc0 num_nodes=624 num_edges=1 size_nodes_bits=38489 size_nodes_byte=4811 size_edges_bits=16 size_total_byte=18551
