file_name:uf125-01 model:o-u num_nodes=1513 num_edges=1 size_nodes_bits=98886 size_nodes_byte=12360 size_edges_bits=30 size_total_byte=45660
file_name:uf125-010 model:o-u num_nodes=1487 num_edges=1 size_nodes_bits=99572 size_nodes_byte=12446 size_edges_bits=30 size_total_byte=45174
file_name:uf125-0100 model:o-u num_nodes=19516 num_edges=1 size_nodes_bits=1423358 size_nodes_byte=177919 size_edges_bits=30 size_total_byte=607285
file_name:uf125-011 model:o-u num_nodes=23590 num_edges=1 size_nodes_bits=1740388 size_nodes_byte=217548 size_edges_bits=30 size_total_byte=736542
file_name:uf125-012 model:o-u num_nodes=11230 num_edges=1 size_nodes_bits=810558 size_nodes_byte=101319 size_edges_bits=30 size_total_byte=348393
file_name:uf125-013 model:o-u num_nodes=437 num_edges=1 size_nodes_bits=26498 size_nodes_byte=3312 size_edges_bits=30 size_total_byte=12940
file_name:uf125-014 model:o-u num_nodes=401 num_edges=1 size_nodes_bits=25448 size_nodes_byte=3181 size_edges_bits=30 size_total_byte=12016
file_name:uf125-015 model:o-u num_nodes=5717 num_edges=1 size_nodes_bits=412696 size_nodes_byte=51587 size_edges_bits=30 size_total_byte=177374
file_name:uf125-016 model:o-u num_nodes=677 num_edges=1 size_nodes_bits=42920 size_nodes_byte=5365 size_edges_bits=30 size_total_byte=20272
file_name:uf125-017 model:o-u num_nodes=1834 num_edges=1 size_nodes_bits=121286 size_nodes_byte=15160 size_edges_bits=30 size_total_byte=55522
file_name:uf125-018 model:o-u num_nodes=723 num_edges=1 size_nodes_bits=45092 size_nodes_byte=5636 size_edges_bits=30 size_total_byte=21556
file_name:uf125-019 model:o-u num_nodes=35537 num_edges=1 size_nodes_bits=2763556 size_nodes_byte=345444 size_edges_bits=30 size_total_byte=1127272
file_name:uf125-02 model:o-u num_nodes=143 num_edges=1 size_nodes_bits=8230 size_nodes_byte=1028 size_edges_bits=30 size_total_byte=4188
file_name:uf125-020 model:o-u num_nodes=1566 num_edges=1 size_nodes_bits=103842 size_nodes_byte=12980 size_edges_bits=30 size_total_byte=47446
file_name:uf125-021 model:o-u num_nodes=791 num_edges=1 size_nodes_bits=48562 size_nodes_byte=6070 size_edges_bits=30 size_total_byte=23486
file_name:uf125-022 model:o-u num_nodes=9541 num_edges=1 size_nodes_bits=703270 size_nodes_byte=87908 size_edges_bits=30 size_total_byte=297824
file_name:uf125-023 model:o-u num_nodes=996 num_edges=1 size_nodes_bits=65188 size_nodes_byte=8148 size_edges_bits=30 size_total_byte=30074
file_name:uf125-024 model:o-u num_nodes=457 num_edges=1 size_nodes_bits=28632 size_nodes_byte=3579 size_edges_bits=30 size_total_byte=13646
file_name:uf125-025 model:o-u num_nodes=1891 num_edges=1 size_nodes_bits=126084 size_nodes_byte=15760 size_edges_bits=30 size_total_byte=57376
file_name:uf125-026 model:o-u num_nodes=151 num_edges=1 size_nodes_bits=8738 size_nodes_byte=1092 size_edges_bits=30 size_total_byte=4428
file_name:uf125-027 model:o-u num_nodes=1956 num_edges=1 size_nodes_bits=133966 size_nodes_byte=16745 size_edges_bits=30 size_total_byte=59791
file_name:uf125-028 model:o-u num_nodes=298 num_edges=1 size_nodes_bits=17988 size_nodes_byte=2248 size_edges_bits=30 size_total_byte=8818
file_name:uf125-029 model:o-u num_nodes=2160 num_edges=1 size_nodes_bits=147634 size_nodes_byte=18454 size_edges_bits=30 size_total_byte=65988
file_name:uf125-03 model:o-u num_nodes=81952 num_edges=1 size_nodes_bits=6529092 size_nodes_byte=816136 size_edges_bits=30 size_total_byte=2619094
file_name:uf125-030 model:o-u num_nodes=899 num_edges=1 size_nodes_bits=58504 size_nodes_byte=7313 size_edges_bits=30 size_total_byte=27104
file_name:uf125-031 model:o-u num_nodes=397 num_edges=1 size_nodes_bits=24962 size_nodes_byte=3120 size_edges_bits=30 size_total_byte=11868
file_name:uf125-032 model:o-u num_nodes=568 num_edges=1 size_nodes_bits=36156 size_nodes_byte=4519 size_edges_bits=30 size_total_byte=17029
file_name:uf125-033 model:o-u num_nodes=4456 num_edges=1 size_nodes_bits=312318 size_nodes_byte=39039 size_edges_bits=30 size_total_byte=137085
file_name:uf125-034 model:o-u num_nodes=37261 num_edges=1 size_nodes_bits=2887776 size_nodes_byte=360972 size_edges_bits=30 size_total_byte=1180727
file_name:uf125-035 model:o-u num_nodes=1500 num_edges=1 size_nodes_bits=96340 size_nodes_byte=12042 size_edges_bits=30 size_total_byte=45056
file_name:uf125-036 model:o-u num_nodes=343 num_edges=1 size_nodes_bits=21142 size_nodes_byte=2642 size_edges_bits=30 size_total_byte=10202
file_name:uf125-037 model:o-u num_nodes=11704 num_edges=1 size_nodes_bits=836812 size_nodes_byte=104601 size_edges_bits=30 size_total_byte=362103
file_name:uf125-038 model:o-u num_nodes=3922 num_edges=1 size_nodes_bits=267568 size_nodes_byte=33446 size_edges_bits=30 size_total_byte=119743
file_name:uf125-039 model:o-u num_nodes=1849 num_edges=1 size_nodes_bits=120972 size_nodes_byte=15121 size_edges_bits=30 size_total_byte=55813
file_name:uf125-04 model:o-u num_nodes=17231 num_edges=1 size_nodes_bits=1263240 size_nodes_byte=157905 size_edges_bits=30 size_total_byte=537000
file_name:uf125-040 model:o-u num_nodes=367198 num_edges=1 size_nodes_bits=30922536 size_nodes_byte=3865317 size_edges_bits=30 size_total_byte=11943686
file_name:uf125-041 model:o-u num_nodes=9784 num_edges=1 size_nodes_bits=698254 size_nodes_byte=87281 size_edges_bits=30 size_total_byte=302543
file_name:uf125-042 model:o-u num_nodes=69415 num_edges=1 size_nodes_bits=5429838 size_nodes_byte=678729 size_edges_bits=30 size_total_byte=2205873
file_name:uf125-043 model:o-u num_nodes=167 num_edges=1 size_nodes_bits=9772 size_nodes_byte=1221 size_edges_bits=30 size_total_byte=4909
file_name:uf125-044 model:o-u num_nodes=3051 num_edges=1 size_nodes_bits=204078 size_nodes_byte=25509 size_edges_bits=30 size_total_byte=92645
file_name:uf125-045 model:o-u num_nodes=1624 num_edges=1 size_nodes_bits=110140 size_nodes_byte=13767 size_edges_bits=30 size_total_byte=49509
file_name:uf125-046 model:o-u num_nodes=421 num_edges=1 size_nodes_bits=25142 size_nodes_byte=3142 size_edges_bits=30 size_total_byte=12418
file_name:uf125-047 model:o-u num_nodes=3946 num_edges=1 size_nodes_bits=274702 size_nodes_byte=34337 size_edges_bits=30 size_total_byte=121163
file_name:uf125-048 model:o-u num_nodes=119 num_edges=1 size_nodes_bits=6662 size_nodes_byte=832 size_edges_bits=30 size_total_byte=3464
file_name:uf125-049 model:o-u num_nodes=891 num_edges=1 size_nodes_bits=57258 size_nodes_byte=7157 size_edges_bits=30 size_total_byte=26773
file_name:uf125-05 model:o-u num_nodes=9957 num_edges=1 size_nodes_bits=722634 size_nodes_byte=90329 size_edges_bits=30 size_total_byte=309397
file_name:uf125-050 model:o-u num_nodes=2677 num_edges=1 size_nodes_bits=181046 size_nodes_byte=22630 size_edges_bits=30 size_total_byte=81538
file_name:uf125-051 model:o-u num_nodes=203 num_edges=1 size_nodes_bits=12090 size_nodes_byte=1511 size_edges_bits=30 size_total_byte=5991
file_name:uf125-052 model:o-u num_nodes=1190 num_edges=1 size_nodes_bits=77764 size_nodes_byte=9720 size_edges_bits=30 size_total_byte=35914
file_name:uf125-053 model:o-u num_nodes=826 num_edges=1 size_nodes_bits=52034 size_nodes_byte=6504 size_edges_bits=30 size_total_byte=24690
file_name:uf125-054 model:o-u num_nodes=4802 num_edges=1 size_nodes_bits=326086 size_nodes_byte=40760 size_edges_bits=30 size_total_byte=146418
file_name:uf125-055 model:o-u num_nodes=15974 num_edges=1 size_nodes_bits=1202600 size_nodes_byte=150325 size_edges_bits=30 size_total_byte=501766
file_name:uf125-056 model:o-u num_nodes=13194 num_edges=1 size_nodes_bits=945008 size_nodes_byte=118126 size_edges_bits=30 size_total_byte=408407
file_name:uf125-057 model:o-u num_nodes=5640 num_edges=1 size_nodes_bits=389058 size_nodes_byte=48632 size_edges_bits=30 size_total_byte=172726
file_name:uf125-058 model:o-u num_nodes=17668 num_edges=1 size_nodes_bits=1309500 size_nodes_byte=163687 size_edges_bits=30 size_total_byte=552397
file_name:uf125-059 model:o-u num_nodes=4352 num_edges=1 size_nodes_bits=309752 size_nodes_byte=38719 size_edges_bits=30 size_total_byte=134476
file_name:uf125-06 model:o-u num_nodes=2598 num_edges=1 size_nodes_bits=173272 size_nodes_byte=21659 size_edges_bits=30 size_total_byte=78828
file_name:uf125-060 model:o-u num_nodes=15185 num_edges=1 size_nodes_bits=1122260 size_nodes_byte=140282 size_edges_bits=30 size_total_byte=474366
file_name:uf125-061 model:o-u num_nodes=19821 num_edges=1 size_nodes_bits=1505630 size_nodes_byte=188203 size_edges_bits=30 size_total_byte=624279
file_name:uf125-062 model:o-u num_nodes=17755 num_edges=1 size_nodes_bits=1339350 size_nodes_byte=167418 size_edges_bits=30 size_total_byte=558042
file_name:uf125-063 model:o-u num_nodes=2465 num_edges=1 size_nodes_bits=165118 size_nodes_byte=20639 size_edges_bits=30 size_total_byte=74883
file_name:uf125-064 model:o-u num_nodes=667 num_edges=1 size_nodes_bits=42258 size_nodes_byte=5282 size_edges_bits=30 size_total_byte=19970
file_name:uf125-065 model:o-u num_nodes=5651 num_edges=1 size_nodes_bits=409230 size_nodes_byte=51153 size_edges_bits=30 size_total_byte=175489
file_name:uf125-066 model:o-u num_nodes=2212 num_edges=1 size_nodes_bits=145418 size_nodes_byte=18177 size_edges_bits=30 size_total_byte=66855
file_name:uf125-067 model:o-u num_nodes=3408 num_edges=1 size_nodes_bits=233252 size_nodes_byte=29156 size_edges_bits=30 size_total_byte=104146
file_name:uf125-068 model:o-u num_nodes=191912 num_edges=1 size_nodes_bits=15629904 size_nodes_byte=1953738 size_edges_bits=30 size_total_byte=6175815
file_name:uf125-069 model:o-u num_nodes=2542 num_edges=1 size_nodes_bits=171942 size_nodes_byte=21492 size_edges_bits=30 size_total_byte=77430
file_name:uf125-07 model:o-u num_nodes=922691 num_edges=1 size_nodes_bits=81872278 size_nodes_byte=10234034 size_edges_bits=30 size_total_byte=30533250
file_name:uf125-070 model:o-u num_nodes=72084 num_edges=1 size_nodes_bits=5678894 size_nodes_byte=709861 size_edges_bits=30 size_total_byte=2295723
file_name:uf125-071 model:o-u num_nodes=1391 num_edges=1 size_nodes_bits=90506 size_nodes_byte=11313 size_edges_bits=30 size_total_byte=41929
file_name:uf125-072 model:o-u num_nodes=735 num_edges=1 size_nodes_bits=45632 size_nodes_byte=5704 size_edges_bits=30 size_total_byte=21887
file_name:uf125-073 model:o-u num_nodes=763 num_edges=1 size_nodes_bits=46990 size_nodes_byte=5873 size_edges_bits=30 size_total_byte=22673
file_name:uf125-074 model:o-u num_nodes=1223 num_edges=1 size_nodes_bits=80060 size_nodes_byte=10007 size_edges_bits=30 size_total_byte=36927
file_name:uf125-075 model:o-u num_nodes=133277 num_edges=1 size_nodes_bits=10810108 size_nodes_byte=1351263 size_edges_bits=30 size_total_byte=4283371
file_name:uf125-076 model:o-u num_nodes=7666 num_edges=1 size_nodes_bits=530164 size_nodes_byte=66270 size_edges_bits=30 size_total_byte=234936
file_name:uf125-077 model:o-u num_nodes=603 num_edges=1 size_nodes_bits=38564 size_nodes_byte=4820 size_edges_bits=30 size_total_byte=18100
file_name:uf125-078 model:o-u num_nodes=1002 num_edges=1 size_nodes_bits=64436 size_nodes_byte=8054 size_edges_bits=30 size_total_byte=30112
file_name:uf125-079 model:o-u num_nodes=5016 num_edges=1 size_nodes_bits=355814 size_nodes_byte=44476 size_edges_bits=30 size_total_byte=154842
file_name:uf125-08 model:o-u num_nodes=14192 num_edges=1 size_nodes_bits=1030052 size_nodes_byte=128756 size_edges_bits=30 size_total_byte=440994
file_name:uf125-080 model:o-u num_nodes=34418 num_edges=1 size_nodes_bits=2623998 size_nodes_byte=327999 size_edges_bits=30 size_total_byte=1085209
file_name:uf125-081 model:o-u num_nodes=439 num_edges=1 size_nodes_bits=27330 size_nodes_byte=3416 size_edges_bits=30 size_total_byte=13088
file_name:uf125-082 model:o-u num_nodes=5165 num_edges=1 size_nodes_bits=371550 size_nodes_byte=46443 size_edges_bits=30 size_total_byte=160087
file_name:uf125-083 model:o-u num_nodes=215 num_edges=1 size_nodes_bits=12254 size_nodes_byte=1531 size_edges_bits=30 size_total_byte=6275
file_name:uf125-084 model:o-u num_nodes=53620 num_edges=1 size_nodes_bits=4157728 size_nodes_byte=519716 size_edges_bits=30 size_total_byte=1699369
file_name:uf125-085 model:o-u num_nodes=1427 num_edges=1 size_nodes_bits=92750 size_nodes_byte=11593 size_edges_bits=30 size_total_byte=43001
file_name:uf125-086 model:o-u num_nodes=1334 num_edges=1 size_nodes_bits=89238 size_nodes_byte=11154 size_edges_bits=30 size_total_byte=40516
file_name:uf125-087 model:o-u num_nodes=140634 num_edges=1 size_nodes_bits=11316750 size_nodes_byte=1414593 size_edges_bits=30 size_total_byte=4508555
file_name:uf125-088 model:o-u num_nodes=1367 num_edges=1 size_nodes_bits=90366 size_nodes_byte=11295 size_edges_bits=30 size_total_byte=41383
file_name:uf125-089 model:o-u num_nodes=16109 num_edges=1 size_nodes_bits=1220266 size_nodes_byte=152533 size_edges_bits=30 size_total_byte=506945
file_name:uf125-09 model:o-u num_nodes=11312 num_edges=1 size_nodes_bits=810020 size_nodes_byte=101252 size_edges_bits=30 size_total_byte=350130
file_name:uf125-090 model:o-u num_nodes=16049 num_edges=1 size_nodes_bits=1182438 size_nodes_byte=147804 size_edges_bits=30 size_total_byte=500896
file_name:uf125-091 model:o-u num_nodes=1143 num_edges=1 size_nodes_bits=77706 size_nodes_byte=9713 size_edges_bits=30 size_total_byte=34873
file_name:uf125-092 model:o-u num_nodes=22312 num_edges=1 size_nodes_bits=1670038 size_nodes_byte=208754 size_edges_bits=30 size_total_byte=699632
file_name:uf125-093 model:o-u num_nodes=162 num_edges=1 size_nodes_bits=9528 size_nodes_byte=1191 size_edges_bits=30 size_total_byte=4768
file_name:uf125-094 model:o-u num_nodes=99351 num_edges=1 size_nodes_bits=8011848 size_nodes_byte=1001481 size_edges_bits=30 size_total_byte=3187216
file_name:uf125-095 model:o-u num_nodes=318 num_edges=1 size_nodes_bits=19652 size_nodes_byte=2456 size_edges_bits=30 size_total_byte=9466
file_name:uf125-096 model:o-u num_nodes=1883 num_edges=1 size_nodes_bits=128974 size_nodes_byte=16121 size_edges_bits=30 size_total_byte=57561
file_name:uf125-097 model:o-u num_nodes=45752 num_edges=1 size_nodes_bits=3563322 size_nodes_byte=445415 size_edges_bits=30 size_total_byte=1451973
file_name:uf125-098 model:o-u num_nodes=750 num_edges=1 size_nodes_bits=47454 size_nodes_byte=5931 size_edges_bits=30 size_total_byte=22445
file_name:uf125-099 model:o-u num_nodes=3288 num_edges=1 size_nodes_bits=229428 size_nodes_byte=28678 size_edges_bits=30 size_total_byte=101028
