file_name:uf125-01 model:o-c10 num_nodes=1600 num_edges=1 size_nodes_bits=107618 size_nodes_byte=13452 size_edges_bits=30 size_total_byte=48666
file_name:uf125-010 model:o-c10 num_nodes=1560 num_edges=1 size_nodes_bits=106778 size_nodes_byte=13347 size_edges_bits=30 size_total_byte=47681
file_name:uf125-0100 model:o-c10 num_nodes=20691 num_edges=1 size_nodes_bits=1555160 size_nodes_byte=194395 size_edges_bits=30 size_total_byte=649610
file_name:uf125-011 model:o-c10 num_nodes=24536 num_edges=1 size_nodes_bits=1846162 size_nodes_byte=230770 size_edges_bits=30 size_total_byte=770576
file_name:uf125-012 model:o-c10 num_nodes=11677 num_edges=1 size_nodes_bits=859876 size_nodes_byte=107484 size_edges_bits=30 size_total_byte=364392
file_name:uf125-013 model:o-c10 num_nodes=451 num_edges=1 size_nodes_bits=27722 size_nodes_byte=3465 size_edges_bits=30 size_total_byte=13401
file_name:uf125-014 model:o-c10 num_nodes=428 num_edges=1 size_nodes_bits=28032 size_nodes_byte=3504 size_edges_bits=30 size_total_byte=12933
file_name:uf125-015 model:o-c10 num_nodes=5979 num_edges=1 size_nodes_bits=440796 size_nodes_byte=55099 size_edges_bits=30 size_total_byte=186651
file_name:uf125-016 model:o-c10 num_nodes=716 num_edges=1 size_nodes_bits=46594 size_nodes_byte=5824 size_edges_bits=30 size_total_byte=21590
file_name:uf125-017 model:o-c10 num_nodes=1950 num_edges=1 size_nodes_bits=133298 size_nodes_byte=16662 size_edges_bits=30 size_total_byte=59576
file_name:uf125-018 model:o-c10 num_nodes=784 num_edges=1 size_nodes_bits=50782 size_nodes_byte=6347 size_edges_bits=30 size_total_byte=23609
file_name:uf125-019 model:o-c10 num_nodes=37559 num_edges=1 size_nodes_bits=3006412 size_nodes_byte=375801 size_edges_bits=30 size_total_byte=1202113
file_name:uf125-02 model:o-c10 num_nodes=148 num_edges=1 size_nodes_bits=8680 size_nodes_byte=1085 size_edges_bits=30 size_total_byte=4354
file_name:uf125-020 model:o-c10 num_nodes=1656 num_edges=1 size_nodes_bits=112918 size_nodes_byte=14114 size_edges_bits=30 size_total_byte=50560
file_name:uf125-021 model:o-c10 num_nodes=816 num_edges=1 size_nodes_bits=50654 size_nodes_byte=6331 size_edges_bits=30 size_total_byte=24297
file_name:uf125-022 model:o-c10 num_nodes=10229 num_edges=1 size_nodes_bits=777816 size_nodes_byte=97227 size_edges_bits=30 size_total_byte=322278
file_name:uf125-023 model:o-c10 num_nodes=1068 num_edges=1 size_nodes_bits=72246 size_nodes_byte=9030 size_edges_bits=30 size_total_byte=32540
file_name:uf125-024 model:o-c10 num_nodes=477 num_edges=1 size_nodes_bits=30524 size_nodes_byte=3815 size_edges_bits=30 size_total_byte=14323
file_name:uf125-025 model:o-c10 num_nodes=1972 num_edges=1 size_nodes_bits=134098 size_nodes_byte=16762 size_edges_bits=30 size_total_byte=60160
file_name:uf125-026 model:o-c10 num_nodes=163 num_edges=1 size_nodes_bits=9802 size_nodes_byte=1225 size_edges_bits=30 size_total_byte=4825
file_name:uf125-027 model:o-c10 num_nodes=2088 num_edges=1 size_nodes_bits=147542 size_nodes_byte=18442 size_edges_bits=30 size_total_byte=64392
file_name:uf125-028 model:o-c10 num_nodes=311 num_edges=1 size_nodes_bits=19192 size_nodes_byte=2399 size_edges_bits=30 size_total_byte=9254
file_name:uf125-029 model:o-c10 num_nodes=2237 num_edges=1 size_nodes_bits=155326 size_nodes_byte=19415 size_edges_bits=30 size_total_byte=68643
file_name:uf125-03 model:o-c10 num_nodes=85627 num_edges=1 size_nodes_bits=7143604 size_nodes_byte=892950 size_edges_bits=30 size_total_byte=2776758
file_name:uf125-030 model:o-c10 num_nodes=925 num_edges=1 size_nodes_bits=60910 size_nodes_byte=7613 size_edges_bits=30 size_total_byte=27977
file_name:uf125-031 model:o-c10 num_nodes=424 num_edges=1 size_nodes_bits=27472 size_nodes_byte=3434 size_edges_bits=30 size_total_byte=12775
file_name:uf125-032 model:o-c10 num_nodes=591 num_edges=1 size_nodes_bits=38376 size_nodes_byte=4797 size_edges_bits=30 size_total_byte=17812
file_name:uf125-033 model:o-c10 num_nodes=4557 num_edges=1 size_nodes_bits=328268 size_nodes_byte=41033 size_edges_bits=30 size_total_byte=141301
file_name:uf125-034 model:o-c10 num_nodes=37524 num_edges=1 size_nodes_bits=2955884 size_nodes_byte=369485 size_edges_bits=30 size_total_byte=1195027
file_name:uf125-035 model:o-c10 num_nodes=1599 num_edges=1 size_nodes_bits=105620 size_nodes_byte=13202 size_edges_bits=30 size_total_byte=48394
file_name:uf125-036 model:o-c10 num_nodes=353 num_edges=1 size_nodes_bits=22052 size_nodes_byte=2756 size_edges_bits=30 size_total_byte=10536
file_name:uf125-037 model:o-c10 num_nodes=11430 num_edges=1 size_nodes_bits=840644 size_nodes_byte=105080 size_edges_bits=30 size_total_byte=356554
file_name:uf125-038 model:o-c10 num_nodes=4015 num_edges=1 size_nodes_bits=281916 size_nodes_byte=35239 size_edges_bits=30 size_total_byte=123583
file_name:uf125-039 model:o-c10 num_nodes=1954 num_edges=1 size_nodes_bits=131108 size_nodes_byte=16388 size_edges_bits=30 size_total_byte=59390
file_name:uf125-04 model:o-c10 num_nodes=15376 num_edges=1 size_nodes_bits=1159512 size_nodes_byte=144939 size_edges_bits=30 size_total_byte=483224
file_name:uf125-040 model:o-c10 num_nodes=387559 num_edges=1 size_nodes_bits=33553204 size_nodes_byte=4194150 size_edges_bits=30 size_total_byte=12720462
file_name:uf125-041 model:o-c10 num_nodes=10156 num_edges=1 size_nodes_bits=738068 size_nodes_byte=92258 size_edges_bits=30 size_total_byte=315704
file_name:uf125-042 model:o-c10 num_nodes=74120 num_edges=1 size_nodes_bits=6026760 size_nodes_byte=753345 size_edges_bits=30 size_total_byte=2383998
file_name:uf125-043 model:o-c10 num_nodes=179 num_edges=1 size_nodes_bits=10890 size_nodes_byte=1361 size_edges_bits=30 size_total_byte=5313
file_name:uf125-044 model:o-c10 num_nodes=3162 num_edges=1 size_nodes_bits=215118 size_nodes_byte=26889 size_edges_bits=30 size_total_byte=96467
file_name:uf125-045 model:o-c10 num_nodes=1750 num_edges=1 size_nodes_bits=122906 size_nodes_byte=15363 size_edges_bits=30 size_total_byte=53877
file_name:uf125-046 model:o-c10 num_nodes=436 num_edges=1 size_nodes_bits=26306 size_nodes_byte=3288 size_edges_bits=30 size_total_byte=12894
file_name:uf125-047 model:o-c10 num_nodes=4090 num_edges=1 size_nodes_bits=289182 size_nodes_byte=36147 size_edges_bits=30 size_total_byte=126141
file_name:uf125-048 model:o-c10 num_nodes=124 num_edges=1 size_nodes_bits=7062 size_nodes_byte=882 size_edges_bits=30 size_total_byte=3624
file_name:uf125-049 model:o-c10 num_nodes=926 num_edges=1 size_nodes_bits=60402 size_nodes_byte=7550 size_edges_bits=30 size_total_byte=27936
file_name:uf125-05 model:o-c10 num_nodes=10573 num_edges=1 size_nodes_bits=792426 size_nodes_byte=99053 size_edges_bits=30 size_total_byte=331673
file_name:uf125-050 model:o-c10 num_nodes=2809 num_edges=1 size_nodes_bits=194362 size_nodes_byte=24295 size_edges_bits=30 size_total_byte=86107
file_name:uf125-051 model:o-c10 num_nodes=215 num_edges=1 size_nodes_bits=13160 size_nodes_byte=1645 size_edges_bits=30 size_total_byte=6388
file_name:uf125-052 model:o-c10 num_nodes=1225 num_edges=1 size_nodes_bits=80998 size_nodes_byte=10124 size_edges_bits=30 size_total_byte=37088
file_name:uf125-053 model:o-c10 num_nodes=864 num_edges=1 size_nodes_bits=55662 size_nodes_byte=6957 size_edges_bits=30 size_total_byte=25979
file_name:uf125-054 model:o-c10 num_nodes=5012 num_edges=1 size_nodes_bits=347618 size_nodes_byte=43452 size_edges_bits=30 size_total_byte=153730
file_name:uf125-055 model:o-c10 num_nodes=16712 num_edges=1 size_nodes_bits=1292358 size_nodes_byte=161544 size_edges_bits=30 size_total_byte=529222
file_name:uf125-056 model:o-c10 num_nodes=13869 num_edges=1 size_nodes_bits=1019052 size_nodes_byte=127381 size_edges_bits=30 size_total_byte=432513
file_name:uf125-057 model:o-c10 num_nodes=5987 num_edges=1 size_nodes_bits=424580 size_nodes_byte=53072 size_edges_bits=30 size_total_byte=184800
file_name:uf125-058 model:o-c10 num_nodes=14461 num_edges=1 size_nodes_bits=1093168 size_nodes_byte=136646 size_edges_bits=30 size_total_byte=454801
file_name:uf125-059 model:o-c10 num_nodes=4606 num_edges=1 size_nodes_bits=340806 size_nodes_byte=42600 size_edges_bits=30 size_total_byte=143946
file_name:uf125-06 model:o-c10 num_nodes=2688 num_edges=1 size_nodes_bits=182152 size_nodes_byte=22769 size_edges_bits=30 size_total_byte=81918
file_name:uf125-060 model:o-c10 num_nodes=16171 num_edges=1 size_nodes_bits=1230140 size_nodes_byte=153767 size_edges_bits=30 size_total_byte=509543
file_name:uf125-061 model:o-c10 num_nodes=20704 num_edges=1 size_nodes_bits=1607294 size_nodes_byte=200911 size_edges_bits=30 size_total_byte=656413
file_name:uf125-062 model:o-c10 num_nodes=18640 num_edges=1 size_nodes_bits=1441454 size_nodes_byte=180181 size_edges_bits=30 size_total_byte=590275
file_name:uf125-063 model:o-c10 num_nodes=2618 num_edges=1 size_nodes_bits=180298 size_nodes_byte=22537 size_edges_bits=30 size_total_byte=80147
file_name:uf125-064 model:o-c10 num_nodes=707 num_edges=1 size_nodes_bits=46072 size_nodes_byte=5759 size_edges_bits=30 size_total_byte=21326
file_name:uf125-065 model:o-c10 num_nodes=5772 num_edges=1 size_nodes_bits=421976 size_nodes_byte=52747 size_edges_bits=30 size_total_byte=179744
file_name:uf125-066 model:o-c10 num_nodes=2351 num_edges=1 size_nodes_bits=159342 size_nodes_byte=19917 size_edges_bits=30 size_total_byte=71653
file_name:uf125-067 model:o-c10 num_nodes=3462 num_edges=1 size_nodes_bits=241934 size_nodes_byte=30241 size_edges_bits=30 size_total_byte=106419
file_name:uf125-068 model:o-c10 num_nodes=201890 num_edges=1 size_nodes_bits=16874540 size_nodes_byte=2109317 size_edges_bits=30 size_total_byte=6550911
file_name:uf125-069 model:o-c10 num_nodes=2673 num_edges=1 size_nodes_bits=184852 size_nodes_byte=23106 size_edges_bits=30 size_total_byte=81926
file_name:uf125-07 model:o-c10 num_nodes=902915 num_edges=1 size_nodes_bits=83279062 size_nodes_byte=10409882 size_edges_bits=30 size_total_byte=30274026
file_name:uf125-070 model:o-c10 num_nodes=75517 num_edges=1 size_nodes_bits=6160550 size_nodes_byte=770068 size_edges_bits=30 size_total_byte=2431456
file_name:uf125-071 model:o-c10 num_nodes=1466 num_edges=1 size_nodes_bits=97670 size_nodes_byte=12208 size_edges_bits=30 size_total_byte=44474
file_name:uf125-072 model:o-c10 num_nodes=764 num_edges=1 size_nodes_bits=48076 size_nodes_byte=6009 size_edges_bits=30 size_total_byte=22831
file_name:uf125-073 model:o-c10 num_nodes=799 num_edges=1 size_nodes_bits=50236 size_nodes_byte=6279 size_edges_bits=30 size_total_byte=23871
file_name:uf125-074 model:o-c10 num_nodes=1306 num_edges=1 size_nodes_bits=88550 size_nodes_byte=11068 size_edges_bits=30 size_total_byte=39814
file_name:uf125-075 model:o-c10 num_nodes=143732 num_edges=1 size_nodes_bits=12126186 size_nodes_byte=1515773 size_edges_bits=30 size_total_byte=4677891
file_name:uf125-076 model:o-c10 num_nodes=7954 num_edges=1 size_nodes_bits=558700 size_nodes_byte=69837 size_edges_bits=30 size_total_byte=244839
file_name:uf125-077 model:o-c10 num_nodes=639 num_edges=1 size_nodes_bits=42096 size_nodes_byte=5262 size_edges_bits=30 size_total_byte=19333
file_name:uf125-078 model:o-c10 num_nodes=1065 num_edges=1 size_nodes_bits=70560 size_nodes_byte=8820 size_edges_bits=30 size_total_byte=32263
file_name:uf125-079 model:o-c10 num_nodes=5232 num_edges=1 size_nodes_bits=378862 size_nodes_byte=47357 size_edges_bits=30 size_total_byte=162475
file_name:uf125-08 model:o-c10 num_nodes=15001 num_edges=1 size_nodes_bits=1118300 size_nodes_byte=139787 size_edges_bits=30 size_total_byte=469823
file_name:uf125-080 model:o-c10 num_nodes=36065 num_edges=1 size_nodes_bits=2817776 size_nodes_byte=352222 size_edges_bits=30 size_total_byte=1145665
file_name:uf125-081 model:o-c10 num_nodes=464 num_edges=1 size_nodes_bits=29594 size_nodes_byte=3699 size_edges_bits=30 size_total_byte=13921
file_name:uf125-082 model:o-c10 num_nodes=5555 num_edges=1 size_nodes_bits=413872 size_nodes_byte=51734 size_edges_bits=30 size_total_byte=173957
file_name:uf125-083 model:o-c10 num_nodes=225 num_edges=1 size_nodes_bits=13100 size_nodes_byte=1637 size_edges_bits=30 size_total_byte=6601
file_name:uf125-084 model:o-c10 num_nodes=56761 num_edges=1 size_nodes_bits=4527088 size_nodes_byte=565886 size_edges_bits=30 size_total_byte=1814641
file_name:uf125-085 model:o-c10 num_nodes=1486 num_edges=1 size_nodes_bits=98468 size_nodes_byte=12308 size_edges_bits=30 size_total_byte=45014
file_name:uf125-086 model:o-c10 num_nodes=1414 num_edges=1 size_nodes_bits=97404 size_nodes_byte=12175 size_edges_bits=30 size_total_byte=43297
file_name:uf125-087 model:o-c10 num_nodes=149205 num_edges=1 size_nodes_bits=12409162 size_nodes_byte=1551145 size_edges_bits=30 size_total_byte=4833669
file_name:uf125-088 model:o-c10 num_nodes=1433 num_edges=1 size_nodes_bits=96986 size_nodes_byte=12123 size_edges_bits=30 size_total_byte=43663
file_name:uf125-089 model:o-c10 num_nodes=16931 num_edges=1 size_nodes_bits=1312886 size_nodes_byte=164110 size_edges_bits=30 size_total_byte=536606
file_name:uf125-09 model:o-c10 num_nodes=12194 num_edges=1 size_nodes_bits=910368 size_nodes_byte=113796 size_edges_bits=30 size_total_byte=382077
file_name:uf125-090 model:o-c10 num_nodes=16790 num_edges=1 size_nodes_bits=1263510 size_nodes_byte=157938 size_edges_bits=30 size_total_byte=527332
file_name:uf125-091 model:o-c10 num_nodes=1234 num_edges=1 size_nodes_bits=86700 size_nodes_byte=10837 size_edges_bits=30 size_total_byte=37999
file_name:uf125-092 model:o-c10 num_nodes=23383 num_edges=1 size_nodes_bits=1794088 size_nodes_byte=224261 size_edges_bits=30 size_total_byte=738700
file_name:uf125-093 model:o-c10 num_nodes=172 num_edges=1 size_nodes_bits=10352 size_nodes_byte=1294 size_edges_bits=30 size_total_byte=5091
file_name:uf125-094 model:o-c10 num_nodes=106988 num_edges=1 size_nodes_bits=8939718 size_nodes_byte=1117464 size_edges_bits=30 size_total_byte=3471214
file_name:uf125-095 model:o-c10 num_nodes=337 num_edges=1 size_nodes_bits=21548 size_nodes_byte=2693 size_edges_bits=30 size_total_byte=10121
file_name:uf125-096 model:o-c10 num_nodes=2046 num_edges=1 size_nodes_bits=145420 size_nodes_byte=18177 size_edges_bits=30 size_total_byte=63203
file_name:uf125-097 model:o-c10 num_nodes=48475 num_edges=1 size_nodes_bits=3889408 size_nodes_byte=486176 size_edges_bits=30 size_total_byte=1552639
file_name:uf125-098 model:o-c10 num_nodes=772 num_edges=1 size_nodes_bits=49412 size_nodes_byte=6176 size_edges_bits=30 size_total_byte=23174
file_name:uf125-099 model:o-c10 num_nodes=3578 num_edges=1 size_nodes_bits=259394 size_nodes_byte=32424 size_edges_bits=30 size_total_byte=111154
