file_name:uf125-01 model:o-c10 num_nodes=879 num_edges=1 size_nodes_bits=59394 size_nodes_byte=7424 size_edges_bits=30 size_total_byte=26776
file_name:uf125-010 model:o-c10 num_nodes=850 num_edges=1 size_nodes_bits=58242 size_nodes_byte=7280 size_edges_bits=30 size_total_byte=25994
file_name:uf125-0100 model:o-c10 num_nodes=10739 num_edges=1 size_nodes_bits=827238 size_nodes_byte=103404 size_edges_bits=30 size_total_byte=339676
file_name:uf125-011 model:o-c10 num_nodes=15296 num_edges=1 size_nodes_bits=1157608 size_nodes_byte=144701 size_edges_bits=30 size_total_byte=481226
file_name:uf125-012 model:o-c10 num_nodes=6309 num_edges=1 size_nodes_bits=466400 size_nodes_byte=58300 size_edges_bits=30 size_total_byte=197111
file_name:uf125-013 model:o-c10 num_nodes=236 num_edges=1 size_nodes_bits=14166 size_nodes_byte=1770 size_edges_bits=30 size_total_byte=6976
file_name:uf125-014 model:o-c10 num_nodes=231 num_edges=1 size_nodes_bits=15056 size_nodes_byte=1882 size_edges_bits=30 size_total_byte=6977
file_name:uf125-015 model:o-c10 num_nodes=3488 num_edges=1 size_nodes_bits=259706 size_nodes_byte=32463 size_edges_bits=30 size_total_byte=109213
file_name:uf125-016 model:o-c10 num_nodes=380 num_edges=1 size_nodes_bits=24820 size_nodes_byte=3102 size_edges_bits=30 size_total_byte=11476
file_name:uf125-017 model:o-c10 num_nodes=1129 num_edges=1 size_nodes_bits=76964 size_nodes_byte=9620 size_edges_bits=30 size_total_byte=34472
file_name:uf125-018 model:o-c10 num_nodes=392 num_edges=1 size_nodes_bits=25134 size_nodes_byte=3141 size_edges_bits=30 size_total_byte=11779
file_name:uf125-019 model:o-c10 num_nodes=20217 num_edges=1 size_nodes_bits=1670920 size_nodes_byte=208865 size_edges_bits=30 size_total_byte=653652
file_name:uf125-02 model:o-c10 num_nodes=79 num_edges=1 size_nodes_bits=4444 size_nodes_byte=555 size_edges_bits=30 size_total_byte=2307
file_name:uf125-020 model:o-c10 num_nodes=868 num_edges=1 size_nodes_bits=59182 size_nodes_byte=7397 size_edges_bits=30 size_total_byte=26507
file_name:uf125-021 model:o-c10 num_nodes=402 num_edges=1 size_nodes_bits=24498 size_nodes_byte=3062 size_edges_bits=30 size_total_byte=11920
file_name:uf125-022 model:o-c10 num_nodes=5662 num_edges=1 size_nodes_bits=443070 size_nodes_byte=55383 size_edges_bits=30 size_total_byte=179961
file_name:uf125-023 model:o-c10 num_nodes=608 num_edges=1 size_nodes_bits=41550 size_nodes_byte=5193 size_edges_bits=30 size_total_byte=18583
file_name:uf125-024 model:o-c10 num_nodes=187 num_edges=1 size_nodes_bits=12104 size_nodes_byte=1513 size_edges_bits=30 size_total_byte=5640
file_name:uf125-025 model:o-c10 num_nodes=1044 num_edges=1 size_nodes_bits=70664 size_nodes_byte=8833 size_edges_bits=30 size_total_byte=31814
file_name:uf125-026 model:o-c10 num_nodes=90 num_edges=1 size_nodes_bits=5456 size_nodes_byte=682 size_edges_bits=30 size_total_byte=2675
file_name:uf125-027 model:o-c10 num_nodes=1300 num_edges=1 size_nodes_bits=93082 size_nodes_byte=11635 size_edges_bits=30 size_total_byte=40249
file_name:uf125-028 model:o-c10 num_nodes=158 num_edges=1 size_nodes_bits=9448 size_nodes_byte=1181 size_edges_bits=30 size_total_byte=4670
file_name:uf125-029 model:o-c10 num_nodes=1085 num_edges=1 size_nodes_bits=75666 size_nodes_byte=9458 size_edges_bits=30 size_total_byte=33342
file_name:uf125-03 model:o-c10 num_nodes=51774 num_edges=1 size_nodes_bits=4460508 size_nodes_byte=557563 size_edges_bits=30 size_total_byte=1696605
file_name:uf125-030 model:o-c10 num_nodes=579 num_edges=1 size_nodes_bits=38010 size_nodes_byte=4751 size_edges_bits=30 size_total_byte=17503
file_name:uf125-031 model:o-c10 num_nodes=212 num_edges=1 size_nodes_bits=13762 size_nodes_byte=1720 size_edges_bits=30 size_total_byte=6398
file_name:uf125-032 model:o-c10 num_nodes=338 num_edges=1 size_nodes_bits=21876 size_nodes_byte=2734 size_edges_bits=30 size_total_byte=10184
file_name:uf125-033 model:o-c10 num_nodes=2218 num_edges=1 size_nodes_bits=161550 size_nodes_byte=20193 size_edges_bits=30 size_total_byte=69003
file_name:uf125-034 model:o-c10 num_nodes=20681 num_edges=1 size_nodes_bits=1646954 size_nodes_byte=205869 size_edges_bits=30 size_total_byte=660865
file_name:uf125-035 model:o-c10 num_nodes=824 num_edges=1 size_nodes_bits=53948 size_nodes_byte=6743 size_edges_bits=30 size_total_byte=24885
file_name:uf125-036 model:o-c10 num_nodes=181 num_edges=1 size_nodes_bits=11088 size_nodes_byte=1386 size_edges_bits=30 size_total_byte=5381
file_name:uf125-037 model:o-c10 num_nodes=6097 num_edges=1 size_nodes_bits=456460 size_nodes_byte=57057 size_edges_bits=30 size_total_byte=191205
file_name:uf125-038 model:o-c10 num_nodes=1982 num_edges=1 size_nodes_bits=139766 size_nodes_byte=17470 size_edges_bits=30 size_total_byte=61088
file_name:uf125-039 model:o-c10 num_nodes=973 num_edges=1 size_nodes_bits=64898 size_nodes_byte=8112 size_edges_bits=30 size_total_byte=29532
file_name:uf125-04 model:o-c10 num_nodes=11576 num_edges=1 size_nodes_bits=879436 size_nodes_byte=109929 size_edges_bits=30 size_total_byte=364615
file_name:uf125-040 model:o-c10 num_nodes=245111 num_edges=1 size_nodes_bits=21705608 size_nodes_byte=2713201 size_edges_bits=30 size_total_byte=8105656
file_name:uf125-041 model:o-c10 num_nodes=5715 num_edges=1 size_nodes_bits=419286 size_nodes_byte=52410 size_edges_bits=30 size_total_byte=178154
file_name:uf125-042 model:o-c10 num_nodes=41375 num_edges=1 size_nodes_bits=3473962 size_nodes_byte=434245 size_edges_bits=30 size_total_byte=1344509
file_name:uf125-043 model:o-c10 num_nodes=108 num_edges=1 size_nodes_bits=6538 size_nodes_byte=817 size_edges_bits=30 size_total_byte=3207
file_name:uf125-044 model:o-c10 num_nodes=1542 num_edges=1 size_nodes_bits=104948 size_nodes_byte=13118 size_edges_bits=30 size_total_byte=47056
file_name:uf125-045 model:o-c10 num_nodes=808 num_edges=1 size_nodes_bits=57860 size_nodes_byte=7232 size_edges_bits=30 size_total_byte=25022
file_name:uf125-046 model:o-c10 num_nodes=202 num_edges=1 size_nodes_bits=12064 size_nodes_byte=1508 size_edges_bits=30 size_total_byte=5965
file_name:uf125-047 model:o-c10 num_nodes=2354 num_edges=1 size_nodes_bits=167940 size_nodes_byte=20992 size_edges_bits=30 size_total_byte=72794
file_name:uf125-048 model:o-c10 num_nodes=61 num_edges=1 size_nodes_bits=3410 size_nodes_byte=426 size_edges_bits=30 size_total_byte=1782
file_name:uf125-049 model:o-c10 num_nodes=482 num_edges=1 size_nodes_bits=31378 size_nodes_byte=3922 size_edges_bits=30 size_total_byte=14540
file_name:uf125-05 model:o-c10 num_nodes=5643 num_edges=1 size_nodes_bits=427864 size_nodes_byte=53483 size_edges_bits=30 size_total_byte=177642
file_name:uf125-050 model:o-c10 num_nodes=1414 num_edges=1 size_nodes_bits=99516 size_nodes_byte=12439 size_edges_bits=30 size_total_byte=43561
file_name:uf125-051 model:o-c10 num_nodes=108 num_edges=1 size_nodes_bits=6588 size_nodes_byte=823 size_edges_bits=30 size_total_byte=3213
file_name:uf125-052 model:o-c10 num_nodes=733 num_edges=1 size_nodes_bits=48160 size_nodes_byte=6020 size_edges_bits=30 size_total_byte=22159
file_name:uf125-053 model:o-c10 num_nodes=463 num_edges=1 size_nodes_bits=29772 size_nodes_byte=3721 size_edges_bits=30 size_total_byte=13921
file_name:uf125-054 model:o-c10 num_nodes=2390 num_edges=1 size_nodes_bits=165734 size_nodes_byte=20716 size_edges_bits=30 size_total_byte=73310
file_name:uf125-055 model:o-c10 num_nodes=8457 num_edges=1 size_nodes_bits=668800 size_nodes_byte=83600 size_edges_bits=30 size_total_byte=269667
file_name:uf125-056 model:o-c10 num_nodes=8177 num_edges=1 size_nodes_bits=604378 size_nodes_byte=75547 size_edges_bits=30 size_total_byte=255455
file_name:uf125-057 model:o-c10 num_nodes=2951 num_edges=1 size_nodes_bits=210530 size_nodes_byte=26316 size_edges_bits=30 size_total_byte=91252
file_name:uf125-058 model:o-c10 num_nodes=9283 num_edges=1 size_nodes_bits=712754 size_nodes_byte=89094 size_edges_bits=30 size_total_byte=293334
file_name:uf125-059 model:o-c10 num_nodes=2653 num_edges=1 size_nodes_bits=198958 size_nodes_byte=24869 size_edges_bits=30 size_total_byte=83249
file_name:uf125-06 model:o-c10 num_nodes=1333 num_edges=1 size_nodes_bits=91260 size_nodes_byte=11407 size_edges_bits=30 size_total_byte=40747
file_name:uf125-060 model:o-c10 num_nodes=8271 num_edges=1 size_nodes_bits=637886 size_nodes_byte=79735 size_edges_bits=30 size_total_byte=261711
file_name:uf125-061 model:o-c10 num_nodes=11133 num_edges=1 size_nodes_bits=875380 size_nodes_byte=109422 size_edges_bits=30 size_total_byte=354362
file_name:uf125-062 model:o-c10 num_nodes=10100 num_edges=1 size_nodes_bits=797312 size_nodes_byte=99664 size_edges_bits=30 size_total_byte=321877
file_name:uf125-063 model:o-c10 num_nodes=1303 num_edges=1 size_nodes_bits=90894 size_nodes_byte=11361 size_edges_bits=30 size_total_byte=40041
file_name:uf125-064 model:o-c10 num_nodes=398 num_edges=1 size_nodes_bits=25956 size_nodes_byte=3244 size_edges_bits=30 size_total_byte=12014
file_name:uf125-065 model:o-c10 num_nodes=3060 num_edges=1 size_nodes_bits=225110 size_nodes_byte=28138 size_edges_bits=30 size_total_byte=95472
file_name:uf125-066 model:o-c10 num_nodes=1282 num_edges=1 size_nodes_bits=86946 size_nodes_byte=10868 size_edges_bits=30 size_total_byte=39086
file_name:uf125-067 model:o-c10 num_nodes=1768 num_edges=1 size_nodes_bits=123776 size_nodes_byte=15472 size_edges_bits=30 size_total_byte=54381
file_name:uf125-068 model:o-c10 num_nodes=116755 num_edges=1 size_nodes_bits=10023016 size_nodes_byte=1252877 size_edges_bits=30 size_total_byte=3821500
file_name:uf125-069 model:o-c10 num_nodes=1454 num_edges=1 size_nodes_bits=100476 size_nodes_byte=12559 size_edges_bits=30 size_total_byte=44561
file_name:uf125-07 model:o-c10 num_nodes=513633 num_edges=1 size_nodes_bits=49791438 size_nodes_byte=6223929 size_edges_bits=30 size_total_byte=17523869
file_name:uf125-070 model:o-c10 num_nodes=50532 num_edges=1 size_nodes_bits=4196536 size_nodes_byte=524567 size_edges_bits=30 size_total_byte=1636284
file_name:uf125-071 model:o-c10 num_nodes=825 num_edges=1 size_nodes_bits=55186 size_nodes_byte=6898 size_edges_bits=30 size_total_byte=25062
file_name:uf125-072 model:o-c10 num_nodes=429 num_edges=1 size_nodes_bits=26880 size_nodes_byte=3360 size_edges_bits=30 size_total_byte=12811
file_name:uf125-073 model:o-c10 num_nodes=466 num_edges=1 size_nodes_bits=29020 size_nodes_byte=3627 size_edges_bits=30 size_total_byte=13893
file_name:uf125-074 model:o-c10 num_nodes=696 num_edges=1 size_nodes_bits=47888 size_nodes_byte=5986 size_edges_bits=30 size_total_byte=21311
file_name:uf125-075 model:o-c10 num_nodes=77363 num_edges=1 size_nodes_bits=6727622 size_nodes_byte=840952 size_edges_bits=30 size_total_byte=2542952
file_name:uf125-076 model:o-c10 num_nodes=4017 num_edges=1 size_nodes_bits=279420 size_nodes_byte=34927 size_edges_bits=30 size_total_byte=123315
file_name:uf125-077 model:o-c10 num_nodes=295 num_edges=1 size_nodes_bits=19498 size_nodes_byte=2437 size_edges_bits=30 size_total_byte=8941
file_name:uf125-078 model:o-c10 num_nodes=607 num_edges=1 size_nodes_bits=40318 size_nodes_byte=5039 size_edges_bits=30 size_total_byte=18407
file_name:uf125-079 model:o-c10 num_nodes=2347 num_edges=1 size_nodes_bits=172136 size_nodes_byte=21517 size_edges_bits=30 size_total_byte=73164
file_name:uf125-08 model:o-c10 num_nodes=7906 num_edges=1 size_nodes_bits=596234 size_nodes_byte=74529 size_edges_bits=30 size_total_byte=248475
file_name:uf125-080 model:o-c10 num_nodes=23137 num_edges=1 size_nodes_bits=1831692 size_nodes_byte=228961 size_edges_bits=30 size_total_byte=737989
file_name:uf125-081 model:o-c10 num_nodes=284 num_edges=1 size_nodes_bits=18072 size_nodes_byte=2259 size_edges_bits=30 size_total_byte=8520
file_name:uf125-082 model:o-c10 num_nodes=2520 num_edges=1 size_nodes_bits=191600 size_nodes_byte=23950 size_edges_bits=30 size_total_byte=79403
file_name:uf125-083 model:o-c10 num_nodes=116 num_edges=1 size_nodes_bits=6524 size_nodes_byte=815 size_edges_bits=30 size_total_byte=3381
file_name:uf125-084 model:o-c10 num_nodes=35559 num_edges=1 size_nodes_bits=2884364 size_nodes_byte=360545 size_edges_bits=30 size_total_byte=1142857
file_name:uf125-085 model:o-c10 num_nodes=822 num_edges=1 size_nodes_bits=53818 size_nodes_byte=6727 size_edges_bits=30 size_total_byte=24825
file_name:uf125-086 model:o-c10 num_nodes=778 num_edges=1 size_nodes_bits=53846 size_nodes_byte=6730 size_edges_bits=30 size_total_byte=23860
file_name:uf125-087 model:o-c10 num_nodes=66234 num_edges=1 size_nodes_bits=5707690 size_nodes_byte=713461 size_edges_bits=30 size_total_byte=2170623
file_name:uf125-088 model:o-c10 num_nodes=734 num_edges=1 size_nodes_bits=49482 size_nodes_byte=6185 size_edges_bits=30 size_total_byte=22347
file_name:uf125-089 model:o-c10 num_nodes=9974 num_edges=1 size_nodes_bits=795506 size_nodes_byte=99438 size_edges_bits=30 size_total_byte=318880
file_name:uf125-09 model:o-c10 num_nodes=7473 num_edges=1 size_nodes_bits=564446 size_nodes_byte=70555 size_edges_bits=30 size_total_byte=234975
file_name:uf125-090 model:o-c10 num_nodes=9478 num_edges=1 size_nodes_bits=717496 size_nodes_byte=89687 size_edges_bits=30 size_total_byte=298216
file_name:uf125-091 model:o-c10 num_nodes=777 num_edges=1 size_nodes_bits=55046 size_nodes_byte=6880 size_edges_bits=30 size_total_byte=23988
file_name:uf125-092 model:o-c10 num_nodes=13578 num_edges=1 size_nodes_bits=1054196 size_nodes_byte=131774 size_edges_bits=30 size_total_byte=430504
file_name:uf125-093 model:o-c10 num_nodes=84 num_edges=1 size_nodes_bits=5000 size_nodes_byte=625 size_edges_bits=30 size_total_byte=2486
file_name:uf125-094 model:o-c10 num_nodes=74195 num_edges=1 size_nodes_bits=6305768 size_nodes_byte=788221 size_edges_bits=30 size_total_byte=2420524
file_name:uf125-095 model:o-c10 num_nodes=184 num_edges=1 size_nodes_bits=11640 size_nodes_byte=1455 size_edges_bits=30 size_total_byte=5516
file_name:uf125-096 model:o-c10 num_nodes=1214 num_edges=1 size_nodes_bits=87192 size_nodes_byte=10899 size_edges_bits=30 size_total_byte=37620
file_name:uf125-097 model:o-c10 num_nodes=23734 num_edges=1 size_nodes_bits=1978692 size_nodes_byte=247336 size_edges_bits=30 size_total_byte=769498
file_name:uf125-098 model:o-c10 num_nodes=408 num_edges=1 size_nodes_bits=25522 size_nodes_byte=3190 size_edges_bits=30 size_total_byte=12180
file_name:uf125-099 model:o-c10 num_nodes=2300 num_edges=1 size_nodes_bits=168604 size_nodes_byte=21075 size_edges_bits=30 size_total_byte=71689
