file_name:uf125-01 model:l-nux fail=true
file_name:uf125-01 model:o-c10 num_nodes=879 num_edges=1 size_nodes_bits=59394 size_nodes_byte=7424 size_edges_bits=30 size_total_byte=26776
file_name:uf125-01 model:o-nu num_nodes=1513 num_edges=1 size_nodes_bits=100457 size_nodes_byte=12557 size_edges_bits=31 size_total_byte=45857
file_name:uf125-01 model:o-nucx num_nodes=59 num_edges=1 size_nodes_bits=15711 size_nodes_byte=1963 size_edges_bits=17 size_total_byte=3274
file_name:uf125-01 model:o-u num_nodes=1513 num_edges=1 size_nodes_bits=98886 size_nodes_byte=12360 size_edges_bits=30 size_total_byte=45660
file_name:uf125-01 model:o-uc0 num_nodes=59 num_edges=1 size_nodes_bits=14066 size_nodes_byte=1758 size_edges_bits=16 size_total_byte=3068
file_name:uf125-01 model:u-nu num_nodes=1448 num_edges=1 size_nodes_bits=213146 size_nodes_byte=26643 size_edges_bits=141 size_total_byte=58526
file_name:uf125-01 model:u-nuc fail=true
file_name:uf125-01 model:u-nux fail=true
file_name:uf125-010 model:l-nux fail=true
file_name:uf125-010 model:o-c10 num_nodes=850 num_edges=1 size_nodes_bits=58242 size_nodes_byte=7280 size_edges_bits=30 size_total_byte=25994
file_name:uf125-010 model:o-nu num_nodes=1486 num_edges=1 size_nodes_bits=101110 size_nodes_byte=12638 size_edges_bits=31 size_total_byte=45344
file_name:uf125-010 model:o-nucx num_nodes=83 num_edges=1 size_nodes_bits=21281 size_nodes_byte=2660 size_edges_bits=17 size_total_byte=4498
file_name:uf125-010 model:o-u num_nodes=1487 num_edges=1 size_nodes_bits=99572 size_nodes_byte=12446 size_edges_bits=30 size_total_byte=45174
file_name:uf125-010 model:o-uc0 num_nodes=83 num_edges=1 size_nodes_bits=19107 size_nodes_byte=2388 size_edges_bits=16 size_total_byte=4226
file_name:uf125-010 model:u-nu num_nodes=1440 num_edges=1 size_nodes_bits=218864 size_nodes_byte=27358 size_edges_bits=141 size_total_byte=59065
file_name:uf125-010 model:u-nuc fail=true
file_name:uf125-010 model:u-nux fail=true
file_name:uf125-0100 model:l-nux fail=true
file_name:uf125-0100 model:o-c10 num_nodes=10739 num_edges=1 size_nodes_bits=827238 size_nodes_byte=103404 size_edges_bits=30 size_total_byte=339676
file_name:uf125-0100 model:o-nu num_nodes=19515 num_edges=1 size_nodes_bits=1443800 size_nodes_byte=180475 size_edges_bits=31 size_total_byte=609818
file_name:uf125-0100 model:o-nucx num_nodes=967 num_edges=1 size_nodes_bits=269517 size_nodes_byte=33689 size_edges_bits=25 size_total_byte=54976
file_name:uf125-0100 model:o-u num_nodes=19516 num_edges=1 size_nodes_bits=1423358 size_nodes_byte=177919 size_edges_bits=30 size_total_byte=607285
file_name:uf125-0100 model:o-uc0 num_nodes=967 num_edges=1 size_nodes_bits=242485 size_nodes_byte=30310 size_edges_bits=23 size_total_byte=51597
file_name:uf125-0100 model:u-nu num_nodes=16961 num_edges=1 size_nodes_bits=2295377 size_nodes_byte=286922 size_edges_bits=141 size_total_byte=660091
file_name:uf125-0100 model:u-nuc fail=true
file_name:uf125-0100 model:u-nux fail=true
file_name:uf125-011 model:l-nux fail=true
file_name:uf125-011 model:o-c10 num_nodes=15296 num_edges=1 size_nodes_bits=1157608 size_nodes_byte=144701 size_edges_bits=30 size_total_byte=481226
file_name:uf125-011 model:o-nu num_nodes=23589 num_edges=1 size_nodes_bits=1765035 size_nodes_byte=220629 size_edges_bits=31 size_total_byte=739601
file_name:uf125-011 model:o-nucx num_nodes=1097 num_edges=1 size_nodes_bits=274746 size_nodes_byte=34343 size_edges_bits=25 size_total_byte=58490
file_name:uf125-011 model:o-u num_nodes=23590 num_edges=1 size_nodes_bits=1740388 size_nodes_byte=217548 size_edges_bits=30 size_total_byte=736542
file_name:uf125-011 model:o-uc0 num_nodes=1097 num_edges=1 size_nodes_bits=248045 size_nodes_byte=31005 size_edges_bits=23 size_total_byte=55152
file_name:uf125-011 model:u-nu num_nodes=22156 num_edges=1 size_nodes_bits=3185980 size_nodes_byte=398247 size_edges_bits=141 size_total_byte=885707
file_name:uf125-011 model:u-nuc fail=true
file_name:uf125-011 model:u-nux fail=true
file_name:uf125-012 model:l-nux fail=true
file_name:uf125-012 model:o-c10 num_nodes=6309 num_edges=1 size_nodes_bits=466400 size_nodes_byte=58300 size_edges_bits=30 size_total_byte=197111
file_name:uf125-012 model:o-nu num_nodes=11230 num_edges=1 size_nodes_bits=822227 size_nodes_byte=102778 size_edges_bits=31 size_total_byte=349852
file_name:uf125-012 model:o-nucx num_nodes=440 num_edges=1 size_nodes_bits=142438 size_nodes_byte=17804 size_edges_bits=17 size_total_byte=27496
file_name:uf125-012 model:o-u num_nodes=11230 num_edges=1 size_nodes_bits=810558 size_nodes_byte=101319 size_edges_bits=30 size_total_byte=348393
file_name:uf125-012 model:o-uc0 num_nodes=440 num_edges=1 size_nodes_bits=126989 size_nodes_byte=15873 size_edges_bits=16 size_total_byte=25565
file_name:uf125-012 model:u-nu num_nodes=9949 num_edges=1 size_nodes_bits=1483018 size_nodes_byte=185377 size_edges_bits=141 size_total_byte=404282
file_name:uf125-012 model:u-nuc fail=true
file_name:uf125-012 model:u-nux fail=true
file_name:uf125-013 model:l-nux fail=true
file_name:uf125-013 model:o-c10 num_nodes=236 num_edges=1 size_nodes_bits=14166 size_nodes_byte=1770 size_edges_bits=30 size_total_byte=6976
file_name:uf125-013 model:o-nu num_nodes=436 num_edges=1 size_nodes_bits=26913 size_nodes_byte=3364 size_edges_bits=31 size_total_byte=12970
file_name:uf125-013 model:o-nucx num_nodes=6 num_edges=1 size_nodes_bits=2539 size_nodes_byte=317 size_edges_bits=17 size_total_byte=461
file_name:uf125-013 model:o-u num_nodes=437 num_edges=1 size_nodes_bits=26498 size_nodes_byte=3312 size_edges_bits=30 size_total_byte=12940
file_name:uf125-013 model:o-uc0 num_nodes=6 num_edges=1 size_nodes_bits=2239 size_nodes_byte=279 size_edges_bits=16 size_total_byte=423
file_name:uf125-013 model:u-nu num_nodes=431 num_edges=1 size_nodes_bits=61538 size_nodes_byte=7692 size_edges_bits=141 size_total_byte=17201
file_name:uf125-013 model:u-nuc fail=true
file_name:uf125-013 model:u-nux fail=true
file_name:uf125-014 model:l-nux fail=true
file_name:uf125-014 model:o-c10 num_nodes=231 num_edges=1 size_nodes_bits=15056 size_nodes_byte=1882 size_edges_bits=30 size_total_byte=6977
file_name:uf125-014 model:o-nu num_nodes=401 num_edges=1 size_nodes_bits=25857 size_nodes_byte=3232 size_edges_bits=31 size_total_byte=12068
file_name:uf125-014 model:o-nucx num_nodes=9 num_edges=1 size_nodes_bits=4269 size_nodes_byte=533 size_edges_bits=78 size_total_byte=751
file_name:uf125-014 model:o-u num_nodes=401 num_edges=1 size_nodes_bits=25448 size_nodes_byte=3181 size_edges_bits=30 size_total_byte=12016
file_name:uf125-014 model:o-uc0 num_nodes=9 num_edges=1 size_nodes_bits=3755 size_nodes_byte=469 size_edges_bits=70 size_total_byte=686
file_name:uf125-014 model:u-nu num_nodes=393 num_edges=1 size_nodes_bits=64653 size_nodes_byte=8081 size_edges_bits=141 size_total_byte=16755
file_name:uf125-014 model:u-nuc fail=true
file_name:uf125-014 model:u-nux fail=true
file_name:uf125-015 model:l-nux fail=true
file_name:uf125-015 model:o-c10 num_nodes=3488 num_edges=1 size_nodes_bits=259706 size_nodes_byte=32463 size_edges_bits=30 size_total_byte=109213
file_name:uf125-015 model:o-nu num_nodes=5716 num_edges=1 size_nodes_bits=418748 size_nodes_byte=52343 size_edges_bits=31 size_total_byte=178109
file_name:uf125-015 model:o-nucx num_nodes=373 num_edges=1 size_nodes_bits=76700 size_nodes_byte=9587 size_edges_bits=17 size_total_byte=17805
file_name:uf125-015 model:o-u num_nodes=5717 num_edges=1 size_nodes_bits=412696 size_nodes_byte=51587 size_edges_bits=30 size_total_byte=177374
file_name:uf125-015 model:o-uc0 num_nodes=373 num_edges=1 size_nodes_bits=69677 size_nodes_byte=8709 size_edges_bits=16 size_total_byte=16927
file_name:uf125-015 model:u-nu num_nodes=5474 num_edges=1 size_nodes_bits=877665 size_nodes_byte=109708 size_edges_bits=141 size_total_byte=230163
file_name:uf125-015 model:u-nuc fail=true
file_name:uf125-015 model:u-nux fail=true
file_name:uf125-016 model:l-nux fail=true
file_name:uf125-016 model:o-c10 num_nodes=380 num_edges=1 size_nodes_bits=24820 size_nodes_byte=3102 size_edges_bits=30 size_total_byte=11476
file_name:uf125-016 model:o-nu num_nodes=677 num_edges=1 size_nodes_bits=43620 size_nodes_byte=5452 size_edges_bits=31 size_total_byte=20360
file_name:uf125-016 model:o-nucx num_nodes=24 num_edges=1 size_nodes_bits=6645 size_nodes_byte=830 size_edges_bits=25 size_total_byte=1371
file_name:uf125-016 model:o-u num_nodes=677 num_edges=1 size_nodes_bits=42920 size_nodes_byte=5365 size_edges_bits=30 size_total_byte=20272
file_name:uf125-016 model:o-uc0 num_nodes=24 num_edges=1 size_nodes_bits=5962 size_nodes_byte=745 size_edges_bits=23 size_total_byte=1286
file_name:uf125-016 model:u-nu num_nodes=675 num_edges=1 size_nodes_bits=97588 size_nodes_byte=12198 size_edges_bits=141 size_total_byte=27076
file_name:uf125-016 model:u-nuc fail=true
file_name:uf125-016 model:u-nux fail=true
file_name:uf125-017 model:l-nux fail=true
file_name:uf125-017 model:o-c10 num_nodes=1129 num_edges=1 size_nodes_bits=76964 size_nodes_byte=9620 size_edges_bits=30 size_total_byte=34472
file_name:uf125-017 model:o-nu num_nodes=1834 num_edges=1 size_nodes_bits=123170 size_nodes_byte=15396 size_edges_bits=31 size_total_byte=55758
file_name:uf125-017 model:o-nucx num_nodes=51 num_edges=1 size_nodes_bits=17589 size_nodes_byte=2198 size_edges_bits=17 size_total_byte=3332
file_name:uf125-017 model:o-u num_nodes=1834 num_edges=1 size_nodes_bits=121286 size_nodes_byte=15160 size_edges_bits=30 size_total_byte=55522
file_name:uf125-017 model:o-uc0 num_nodes=51 num_edges=1 size_nodes_bits=15623 size_nodes_byte=1952 size_edges_bits=16 size_total_byte=3086
file_name:uf125-017 model:u-nu num_nodes=1806 num_edges=1 size_nodes_bits=260088 size_nodes_byte=32511 size_edges_bits=141 size_total_byte=72270
file_name:uf125-017 model:u-nuc fail=true
file_name:uf125-017 model:u-nux fail=true
file_name:uf125-018 model:l-nux fail=true
file_name:uf125-018 model:o-c10 num_nodes=392 num_edges=1 size_nodes_bits=25134 size_nodes_byte=3141 size_edges_bits=30 size_total_byte=11779
file_name:uf125-018 model:o-nu num_nodes=723 num_edges=1 size_nodes_bits=45823 size_nodes_byte=5727 size_edges_bits=31 size_total_byte=21647
file_name:uf125-018 model:o-nucx num_nodes=9 num_edges=1 size_nodes_bits=4091 size_nodes_byte=511 size_edges_bits=83 size_total_byte=729
file_name:uf125-018 model:o-u num_nodes=723 num_edges=1 size_nodes_bits=45092 size_nodes_byte=5636 size_edges_bits=30 size_total_byte=21556
file_name:uf125-018 model:o-uc0 num_nodes=9 num_edges=1 size_nodes_bits=3632 size_nodes_byte=454 size_edges_bits=74 size_total_byte=671
file_name:uf125-018 model:u-nu num_nodes=721 num_edges=1 size_nodes_bits=94227 size_nodes_byte=11778 size_edges_bits=141 size_total_byte=27668
file_name:uf125-018 model:u-nuc fail=true
file_name:uf125-018 model:u-nux fail=true
file_name:uf125-019 model:l-nux fail=true
file_name:uf125-019 model:o-c10 num_nodes=20217 num_edges=1 size_nodes_bits=1670920 size_nodes_byte=208865 size_edges_bits=30 size_total_byte=653652
file_name:uf125-019 model:o-nu num_nodes=35536 num_edges=1 size_nodes_bits=2801457 size_nodes_byte=350182 size_edges_bits=31 size_total_byte=1131988
file_name:uf125-019 model:o-nucx num_nodes=2407 num_edges=1 size_nodes_bits=599679 size_nodes_byte=74959 size_edges_bits=25 size_total_byte=127927
file_name:uf125-019 model:o-u num_nodes=35537 num_edges=1 size_nodes_bits=2763556 size_nodes_byte=345444 size_edges_bits=30 size_total_byte=1127272
file_name:uf125-019 model:o-uc0 num_nodes=2407 num_edges=1 size_nodes_bits=541937 size_nodes_byte=67742 size_edges_bits=23 size_total_byte=120709
file_name:uf125-019 model:u-nu num_nodes=34437 num_edges=1 size_nodes_bits=5501411 size_nodes_byte=687676 size_edges_bits=141 size_total_byte=1445318
file_name:uf125-019 model:u-nuc fail=true
file_name:uf125-019 model:u-nux fail=true
file_name:uf125-02 model:l-nux fail=true
file_name:uf125-02 model:o-c10 num_nodes=79 num_edges=1 size_nodes_bits=4444 size_nodes_byte=555 size_edges_bits=30 size_total_byte=2307
file_name:uf125-02 model:o-nu num_nodes=143 num_edges=1 size_nodes_bits=8373 size_nodes_byte=1046 size_edges_bits=31 size_total_byte=4206
file_name:uf125-02 model:o-nucx num_nodes=1 num_edges=1 size_nodes_bits=851 size_nodes_byte=106 size_edges_bits=96 size_total_byte=150
file_name:uf125-02 model:o-u num_nodes=143 num_edges=1 size_nodes_bits=8230 size_nodes_byte=1028 size_edges_bits=30 size_total_byte=4188
file_name:uf125-02 model:o-uc0 num_nodes=1 num_edges=1 size_nodes_bits=748 size_nodes_byte=93 size_edges_bits=86 size_total_byte=136
file_name:uf125-02 model:u-nu num_nodes=142 num_edges=1 size_nodes_bits=20972 size_nodes_byte=2621 size_edges_bits=141 size_total_byte=5773
file_name:uf125-02 model:u-nuc fail=true
file_name:uf125-02 model:u-nux fail=true
file_name:uf125-020 model:l-nux fail=true
file_name:uf125-020 model:o-c10 num_nodes=868 num_edges=1 size_nodes_bits=59182 size_nodes_byte=7397 size_edges_bits=30 size_total_byte=26507
file_name:uf125-020 model:o-nu num_nodes=1565 num_edges=1 size_nodes_bits=105414 size_nodes_byte=13176 size_edges_bits=31 size_total_byte=47620
file_name:uf125-020 model:o-nucx num_nodes=38 num_edges=1 size_nodes_bits=14819 size_nodes_byte=1852 size_edges_bits=33 size_total_byte=2702
file_name:uf125-020 model:o-u num_nodes=1566 num_edges=1 size_nodes_bits=103842 size_nodes_byte=12980 size_edges_bits=30 size_total_byte=47446
file_name:uf125-020 model:o-uc0 num_nodes=38 num_edges=1 size_nodes_bits=13179 size_nodes_byte=1647 size_edges_bits=30 size_total_byte=2497
file_name:uf125-020 model:u-nu num_nodes=1554 num_edges=1 size_nodes_bits=237137 size_nodes_byte=29642 size_edges_bits=141 size_total_byte=63857
file_name:uf125-020 model:u-nuc fail=true
file_name:uf125-020 model:u-nux fail=true
file_name:uf125-021 model:l-nux fail=true
file_name:uf125-021 model:o-c10 num_nodes=402 num_edges=1 size_nodes_bits=24498 size_nodes_byte=3062 size_edges_bits=30 size_total_byte=11920
file_name:uf125-021 model:o-nu num_nodes=791 num_edges=1 size_nodes_bits=49372 size_nodes_byte=6171 size_edges_bits=31 size_total_byte=23587
file_name:uf125-021 model:o-nucx num_nodes=20 num_edges=1 size_nodes_bits=5075 size_nodes_byte=634 size_edges_bits=92 size_total_byte=1095
file_name:uf125-021 model:o-u num_nodes=791 num_edges=1 size_nodes_bits=48562 size_nodes_byte=6070 size_edges_bits=30 size_total_byte=23486
file_name:uf125-021 model:o-uc0 num_nodes=20 num_edges=1 size_nodes_bits=4541 size_nodes_byte=567 size_edges_bits=82 size_total_byte=1027
file_name:uf125-021 model:u-nu num_nodes=777 num_edges=1 size_nodes_bits=93312 size_nodes_byte=11664 size_edges_bits=141 size_total_byte=28785
file_name:uf125-021 model:u-nuc fail=true
file_name:uf125-021 model:u-nux fail=true
file_name:uf125-022 model:l-nux fail=true
file_name:uf125-022 model:o-c10 num_nodes=5662 num_edges=1 size_nodes_bits=443070 size_nodes_byte=55383 size_edges_bits=30 size_total_byte=179961
file_name:uf125-022 model:o-nu num_nodes=9540 num_edges=1 size_nodes_bits=713732 size_nodes_byte=89216 size_edges_bits=31 size_total_byte=299110
file_name:uf125-022 model:o-nucx num_nodes=965 num_edges=1 size_nodes_bits=178392 size_nodes_byte=22299 size_edges_bits=17 size_total_byte=43541
file_name:uf125-022 model:o-u num_nodes=9541 num_edges=1 size_nodes_bits=703270 size_nodes_byte=87908 size_edges_bits=30 size_total_byte=297824
file_name:uf125-022 model:o-uc0 num_nodes=965 num_edges=1 size_nodes_bits=162740 size_nodes_byte=20342 size_edges_bits=16 size_total_byte=41584
file_name:uf125-022 model:u-nu num_nodes=9050 num_edges=1 size_nodes_bits=1305787 size_nodes_byte=163223 size_edges_bits=141 size_total_byte=362351
file_name:uf125-022 model:u-nuc fail=true
file_name:uf125-022 model:u-nux fail=true
file_name:uf125-023 model:l-nux fail=true
file_name:uf125-023 model:o-c10 num_nodes=608 num_edges=1 size_nodes_bits=41550 size_nodes_byte=5193 size_edges_bits=30 size_total_byte=18583
file_name:uf125-023 model:o-nu num_nodes=996 num_edges=1 size_nodes_bits=66212 size_nodes_byte=8276 size_edges_bits=31 size_total_byte=30202
file_name:uf125-023 model:o-nucx num_nodes=29 num_edges=1 size_nodes_bits=9010 size_nodes_byte=1126 size_edges_bits=25 size_total_byte=1777
file_name:uf125-023 model:o-u num_nodes=996 num_edges=1 size_nodes_bits=65188 size_nodes_byte=8148 size_edges_bits=30 size_total_byte=30074
file_name:uf125-023 model:o-uc0 num_nodes=29 num_edges=1 size_nodes_bits=8060 size_nodes_byte=1007 size_edges_bits=23 size_total_byte=1658
file_name:uf125-023 model:u-nu num_nodes=991 num_edges=1 size_nodes_bits=155261 size_nodes_byte=19407 size_edges_bits=141 size_total_byte=41237
file_name:uf125-023 model:u-nuc fail=true
file_name:uf125-023 model:u-nux fail=true
file_name:uf125-024 model:l-nux fail=true
file_name:uf125-024 model:o-c10 num_nodes=187 num_edges=1 size_nodes_bits=12104 size_nodes_byte=1513 size_edges_bits=30 size_total_byte=5640
file_name:uf125-024 model:o-nu num_nodes=457 num_edges=1 size_nodes_bits=29111 size_nodes_byte=3638 size_edges_bits=31 size_total_byte=13706
file_name:uf125-024 model:o-nucx num_nodes=23 num_edges=1 size_nodes_bits=5209 size_nodes_byte=651 size_edges_bits=85 size_total_byte=1177
file_name:uf125-024 model:o-u num_nodes=457 num_edges=1 size_nodes_bits=28632 size_nodes_byte=3579 size_edges_bits=30 size_total_byte=13646
file_name:uf125-024 model:o-uc0 num_nodes=23 num_edges=1 size_nodes_bits=4644 size_nodes_byte=580 size_edges_bits=75 size_total_byte=1105
file_name:uf125-024 model:u-nu num_nodes=453 num_edges=1 size_nodes_bits=65849 size_nodes_byte=8231 size_edges_bits=141 size_total_byte=18224
file_name:uf125-024 model:u-nuc fail=true
file_name:uf125-024 model:u-nux fail=true
file_name:uf125-025 model:l-nux fail=true
file_name:uf125-025 model:o-c10 num_nodes=1044 num_edges=1 size_nodes_bits=70664 size_nodes_byte=8833 size_edges_bits=30 size_total_byte=31814
file_name:uf125-025 model:o-nu num_nodes=1890 num_edges=1 size_nodes_bits=127987 size_nodes_byte=15998 size_edges_bits=31 size_total_byte=57592
file_name:uf125-025 model:o-nucx num_nodes=44 num_edges=1 size_nodes_bits=18129 size_nodes_byte=2266 size_edges_bits=33 size_total_byte=3248
file_name:uf125-025 model:o-u num_nodes=1891 num_edges=1 size_nodes_bits=126084 size_nodes_byte=15760 size_edges_bits=30 size_total_byte=57376
file_name:uf125-025 model:o-uc0 num_nodes=44 num_edges=1 size_nodes_bits=16077 size_nodes_byte=2009 size_edges_bits=30 size_total_byte=2991
file_name:uf125-025 model:u-nu num_nodes=1855 num_edges=1 size_nodes_bits=290830 size_nodes_byte=36353 size_edges_bits=141 size_total_byte=77191
file_name:uf125-025 model:u-nuc fail=true
file_name:uf125-025 model:u-nux fail=true
file_name:uf125-026 model:l-nux fail=true
file_name:uf125-026 model:o-c10 num_nodes=90 num_edges=1 size_nodes_bits=5456 size_nodes_byte=682 size_edges_bits=30 size_total_byte=2675
file_name:uf125-026 model:o-nu num_nodes=151 num_edges=1 size_nodes_bits=8890 size_nodes_byte=1111 size_edges_bits=31 size_total_byte=4447
file_name:uf125-026 model:o-nucx num_nodes=2 num_edges=1 size_nodes_bits=1239 size_nodes_byte=154 size_edges_bits=151 size_total_byte=227
file_name:uf125-026 model:o-u num_nodes=151 num_edges=1 size_nodes_bits=8738 size_nodes_byte=1092 size_edges_bits=30 size_total_byte=4428
file_name:uf125-026 model:o-uc0 num_nodes=2 num_edges=1 size_nodes_bits=1092 size_nodes_byte=136 size_edges_bits=134 size_total_byte=207
file_name:uf125-026 model:u-nu num_nodes=147 num_edges=1 size_nodes_bits=20934 size_nodes_byte=2616 size_edges_bits=141 size_total_byte=5878
file_name:uf125-026 model:u-nuc fail=true
file_name:uf125-026 model:u-nux fail=true
file_name:uf125-027 model:l-nux fail=true
file_name:uf125-027 model:o-c10 num_nodes=1300 num_edges=1 size_nodes_bits=93082 size_nodes_byte=11635 size_edges_bits=30 size_total_byte=40249
file_name:uf125-027 model:o-nu num_nodes=1956 num_edges=1 size_nodes_bits=136013 size_nodes_byte=17001 size_edges_bits=31 size_total_byte=60047
file_name:uf125-027 model:o-nucx num_nodes=92 num_edges=1 size_nodes_bits=27162 size_nodes_byte=3395 size_edges_bits=25 size_total_byte=5432
file_name:uf125-027 model:o-u num_nodes=1956 num_edges=1 size_nodes_bits=133966 size_nodes_byte=16745 size_edges_bits=30 size_total_byte=59791
file_name:uf125-027 model:o-uc0 num_nodes=92 num_edges=1 size_nodes_bits=24251 size_nodes_byte=3031 size_edges_bits=23 size_total_byte=5068
file_name:uf125-027 model:u-nu num_nodes=1888 num_edges=1 size_nodes_bits=307837 size_nodes_byte=38479 size_edges_bits=141 size_total_byte=80043
file_name:uf125-027 model:u-nuc fail=true
file_name:uf125-027 model:u-nux fail=true
file_name:uf125-028 model:l-nux fail=true
file_name:uf125-028 model:o-c10 num_nodes=158 num_edges=1 size_nodes_bits=9448 size_nodes_byte=1181 size_edges_bits=30 size_total_byte=4670
file_name:uf125-028 model:o-nu num_nodes=298 num_edges=1 size_nodes_bits=18290 size_nodes_byte=2286 size_edges_bits=31 size_total_byte=8856
file_name:uf125-028 model:o-nucx num_nodes=5 num_edges=1 size_nodes_bits=1993 size_nodes_byte=249 size_edges_bits=122 size_total_byte=384
file_name:uf125-028 model:o-u num_nodes=298 num_edges=1 size_nodes_bits=17988 size_nodes_byte=2248 size_edges_bits=30 size_total_byte=8818
file_name:uf125-028 model:o-uc0 num_nodes=5 num_edges=1 size_nodes_bits=1758 size_nodes_byte=219 size_edges_bits=108 size_total_byte=353
file_name:uf125-028 model:u-nu num_nodes=296 num_edges=1 size_nodes_bits=41544 size_nodes_byte=5193 size_edges_bits=141 size_total_byte=11732
file_name:uf125-028 model:u-nuc fail=true
file_name:uf125-028 model:u-nux fail=true
file_name:uf125-029 model:l-nux fail=true
file_name:uf125-029 model:o-c10 num_nodes=1085 num_edges=1 size_nodes_bits=75666 size_nodes_byte=9458 size_edges_bits=30 size_total_byte=33342
file_name:uf125-029 model:o-nu num_nodes=2160 num_edges=1 size_nodes_bits=149905 size_nodes_byte=18738 size_edges_bits=31 size_total_byte=66272
file_name:uf125-029 model:o-nucx num_nodes=112 num_edges=1 size_nodes_bits=26664 size_nodes_byte=3333 size_edges_bits=17 size_total_byte=5809
file_name:uf125-029 model:o-u num_nodes=2160 num_edges=1 size_nodes_bits=147634 size_nodes_byte=18454 size_edges_bits=30 size_total_byte=65988
file_name:uf125-029 model:o-uc0 num_nodes=112 num_edges=1 size_nodes_bits=23882 size_nodes_byte=2985 size_edges_bits=16 size_total_byte=5461
file_name:uf125-029 model:u-nu num_nodes=2117 num_edges=1 size_nodes_bits=332846 size_nodes_byte=41605 size_edges_bits=141 size_total_byte=88207
file_name:uf125-029 model:u-nuc fail=true
file_name:uf125-029 model:u-nux fail=true
file_name:uf125-03 model:l-nux fail=true
file_name:uf125-03 model:o-c10 num_nodes=51774 num_edges=1 size_nodes_bits=4460508 size_nodes_byte=557563 size_edges_bits=30 size_total_byte=1696605
file_name:uf125-03 model:o-nu num_nodes=81950 num_edges=1 size_nodes_bits=6618148 size_nodes_byte=827268 size_edges_bits=31 size_total_byte=2630182
file_name:uf125-03 model:o-nucx num_nodes=7231 num_edges=1 size_nodes_bits=1567216 size_nodes_byte=195902 size_edges_bits=17 size_total_byte=354996
file_name:uf125-03 model:o-u num_nodes=81952 num_edges=1 size_nodes_bits=6529092 size_nodes_byte=816136 size_edges_bits=30 size_total_byte=2619094
file_name:uf125-03 model:o-uc0 num_nodes=7231 num_edges=1 size_nodes_bits=1437199 size_nodes_byte=179649 size_edges_bits=16 size_total_byte=338743
file_name:uf125-03 model:u-nu num_nodes=75350 num_edges=1 size_nodes_bits=10934490 size_nodes_byte=1366811 size_edges_bits=141 size_total_byte=3024538
file_name:uf125-03 model:u-nuc fail=true
file_name:uf125-03 model:u-nux fail=true
file_name:uf125-030 model:l-nux fail=true
file_name:uf125-030 model:o-c10 num_nodes=579 num_edges=1 size_nodes_bits=38010 size_nodes_byte=4751 size_edges_bits=30 size_total_byte=17503
file_name:uf125-030 model:o-nu num_nodes=899 num_edges=1 size_nodes_bits=59445 size_nodes_byte=7430 size_edges_bits=31 size_total_byte=27222
file_name:uf125-030 model:o-nucx num_nodes=43 num_edges=1 size_nodes_bits=12993 size_nodes_byte=1624 size_edges_bits=33 size_total_byte=2584
file_name:uf125-030 model:o-u num_nodes=899 num_edges=1 size_nodes_bits=58504 size_nodes_byte=7313 size_edges_bits=30 size_total_byte=27104
file_name:uf125-030 model:o-uc0 num_nodes=43 num_edges=1 size_nodes_bits=11543 size_nodes_byte=1442 size_edges_bits=30 size_total_byte=2402
file_name:uf125-030 model:u-nu num_nodes=894 num_edges=1 size_nodes_bits=132892 size_nodes_byte=16611 size_edges_bits=141 size_total_byte=36307
file_name:uf125-030 model:u-nuc fail=true
file_name:uf125-030 model:u-nux fail=true
file_name:uf125-031 model:l-nux fail=true
file_name:uf125-031 model:o-c10 num_nodes=212 num_edges=1 size_nodes_bits=13762 size_nodes_byte=1720 size_edges_bits=30 size_total_byte=6398
file_name:uf125-031 model:o-nu num_nodes=397 num_edges=1 size_nodes_bits=25369 size_nodes_byte=3171 size_edges_bits=31 size_total_byte=11919
file_name:uf125-031 model:o-nucx num_nodes=11 num_edges=1 size_nodes_bits=3820 size_nodes_byte=477 size_edges_bits=35 size_total_byte=733
file_name:uf125-031 model:o-u num_nodes=397 num_edges=1 size_nodes_bits=24962 size_nodes_byte=3120 size_edges_bits=30 size_total_byte=11868
file_name:uf125-031 model:o-uc0 num_nodes=11 num_edges=1 size_nodes_bits=3390 size_nodes_byte=423 size_edges_bits=32 size_total_byte=679
file_name:uf125-031 model:u-nu num_nodes=392 num_edges=1 size_nodes_bits=61056 size_nodes_byte=7632 size_edges_bits=141 size_total_byte=16283
file_name:uf125-031 model:u-nuc fail=true
file_name:uf125-031 model:u-nux fail=true
file_name:uf125-032 model:l-nux fail=true
file_name:uf125-032 model:o-c10 num_nodes=338 num_edges=1 size_nodes_bits=21876 size_nodes_byte=2734 size_edges_bits=30 size_total_byte=10184
file_name:uf125-032 model:o-nu num_nodes=568 num_edges=1 size_nodes_bits=36743 size_nodes_byte=4592 size_edges_bits=31 size_total_byte=17102
file_name:uf125-032 model:o-nucx num_nodes=20 num_edges=1 size_nodes_bits=6504 size_nodes_byte=813 size_edges_bits=37 size_total_byte=1267
file_name:uf125-032 model:o-u num_nodes=568 num_edges=1 size_nodes_bits=36156 size_nodes_byte=4519 size_edges_bits=30 size_total_byte=17029
file_name:uf125-032 model:o-uc0 num_nodes=20 num_edges=1 size_nodes_bits=5785 size_nodes_byte=723 size_edges_bits=34 size_total_byte=1177
file_name:uf125-032 model:u-nu num_nodes=559 num_edges=1 size_nodes_bits=85694 size_nodes_byte=10711 size_edges_bits=141 size_total_byte=23037
file_name:uf125-032 model:u-nuc fail=true
file_name:uf125-032 model:u-nux fail=true
file_name:uf125-033 model:l-nux fail=true
file_name:uf125-033 model:o-c10 num_nodes=2218 num_edges=1 size_nodes_bits=161550 size_nodes_byte=20193 size_edges_bits=30 size_total_byte=69003
file_name:uf125-033 model:o-nu num_nodes=4455 num_edges=1 size_nodes_bits=316946 size_nodes_byte=39618 size_edges_bits=31 size_total_byte=137642
file_name:uf125-033 model:o-nucx num_nodes=232 num_edges=1 size_nodes_bits=58850 size_nodes_byte=7356 size_edges_bits=33 size_total_byte=12474
file_name:uf125-033 model:o-u num_nodes=4456 num_edges=1 size_nodes_bits=312318 size_nodes_byte=39039 size_edges_bits=30 size_total_byte=137085
file_name:uf125-033 model:o-uc0 num_nodes=232 num_edges=1 size_nodes_bits=52768 size_nodes_byte=6596 size_edges_bits=30 size_total_byte=11713
file_name:uf125-033 model:u-nu num_nodes=4307 num_edges=1 size_nodes_bits=665368 size_nodes_byte=83171 size_edges_bits=141 size_total_byte=177952
file_name:uf125-033 model:u-nuc fail=true
file_name:uf125-033 model:u-nux fail=true
file_name:uf125-034 model:l-nux fail=true
file_name:uf125-034 model:o-c10 num_nodes=20681 num_edges=1 size_nodes_bits=1646954 size_nodes_byte=205869 size_edges_bits=30 size_total_byte=660865
file_name:uf125-034 model:o-nu num_nodes=37261 num_edges=1 size_nodes_bits=2927806 size_nodes_byte=365975 size_edges_bits=31 size_total_byte=1185731
file_name:uf125-034 model:o-nucx num_nodes=2770 num_edges=1 size_nodes_bits=565780 size_nodes_byte=70722 size_edges_bits=17 size_total_byte=131674
file_name:uf125-034 model:o-u num_nodes=37261 num_edges=1 size_nodes_bits=2887776 size_nodes_byte=360972 size_edges_bits=30 size_total_byte=1180727
file_name:uf125-034 model:o-uc0 num_nodes=2770 num_edges=1 size_nodes_bits=515755 size_nodes_byte=64469 size_edges_bits=16 size_total_byte=125421
file_name:uf125-034 model:u-nu num_nodes=34450 num_edges=1 size_nodes_bits=5380305 size_nodes_byte=672538 size_edges_bits=141 size_total_byte=1430465
file_name:uf125-034 model:u-nuc fail=true
file_name:uf125-034 model:u-nux fail=true
file_name:uf125-035 model:l-nux fail=true
file_name:uf125-035 model:o-c10 num_nodes=824 num_edges=1 size_nodes_bits=53948 size_nodes_byte=6743 size_edges_bits=30 size_total_byte=24885
file_name:uf125-035 model:o-nu num_nodes=1500 num_edges=1 size_nodes_bits=97881 size_nodes_byte=12235 size_edges_bits=31 size_total_byte=45249
file_name:uf125-035 model:o-nucx num_nodes=42 num_edges=1 size_nodes_bits=12881 size_nodes_byte=1610 size_edges_bits=41 size_total_byte=2549
file_name:uf125-035 model:o-u num_nodes=1500 num_edges=1 size_nodes_bits=96340 size_nodes_byte=12042 size_edges_bits=30 size_total_byte=45056
file_name:uf125-035 model:o-uc0 num_nodes=42 num_edges=1 size_nodes_bits=11522 size_nodes_byte=1440 size_edges_bits=37 size_total_byte=2378
file_name:uf125-035 model:u-nu num_nodes=1427 num_edges=1 size_nodes_bits=183052 size_nodes_byte=22881 size_edges_bits=141 size_total_byte=54303
file_name:uf125-035 model:u-nuc fail=true
file_name:uf125-035 model:u-nux fail=true
file_name:uf125-036 model:l-nux fail=true
file_name:uf125-036 model:o-c10 num_nodes=181 num_edges=1 size_nodes_bits=11088 size_nodes_byte=1386 size_edges_bits=30 size_total_byte=5381
file_name:uf125-036 model:o-nu num_nodes=343 num_edges=1 size_nodes_bits=21492 size_nodes_byte=2686 size_edges_bits=31 size_total_byte=10246
file_name:uf125-036 model:o-nucx num_nodes=8 num_edges=1 size_nodes_bits=3907 size_nodes_byte=488 size_edges_bits=39 size_total_byte=679
file_name:uf125-036 model:o-u num_nodes=343 num_edges=1 size_nodes_bits=21142 size_nodes_byte=2642 size_edges_bits=30 size_total_byte=10202
file_name:uf125-036 model:o-uc0 num_nodes=8 num_edges=1 size_nodes_bits=3426 size_nodes_byte=428 size_edges_bits=35 size_total_byte=618
file_name:uf125-036 model:u-nu num_nodes=343 num_edges=1 size_nodes_bits=52466 size_nodes_byte=6558 size_edges_bits=141 size_total_byte=14131
file_name:uf125-036 model:u-nuc fail=true
file_name:uf125-036 model:u-nux fail=true
file_name:uf125-037 model:l-nux fail=true
file_name:uf125-037 model:o-c10 num_nodes=6097 num_edges=1 size_nodes_bits=456460 size_nodes_byte=57057 size_edges_bits=30 size_total_byte=191205
file_name:uf125-037 model:o-nu num_nodes=11702 num_edges=1 size_nodes_bits=849091 size_nodes_byte=106136 size_edges_bits=31 size_total_byte=363594
file_name:uf125-037 model:o-nucx num_nodes=696 num_edges=1 size_nodes_bits=143831 size_nodes_byte=17978 size_edges_bits=17 size_total_byte=33303
file_name:uf125-037 model:o-u num_nodes=11704 num_edges=1 size_nodes_bits=836812 size_nodes_byte=104601 size_edges_bits=30 size_total_byte=362103
file_name:uf125-037 model:o-uc0 num_nodes=696 num_edges=1 size_nodes_bits=130715 size_nodes_byte=16339 size_edges_bits=16 size_total_byte=31663
file_name:uf125-037 model:u-nu num_nodes=10920 num_edges=1 size_nodes_bits=1465193 size_nodes_byte=183149 size_edges_bits=141 size_total_byte=423416
file_name:uf125-037 model:u-nuc fail=true
file_name:uf125-037 model:u-nux fail=true
file_name:uf125-038 model:l-nux fail=true
file_name:uf125-038 model:o-c10 num_nodes=1982 num_edges=1 size_nodes_bits=139766 size_nodes_byte=17470 size_edges_bits=30 size_total_byte=61088
file_name:uf125-038 model:o-nu num_nodes=3922 num_edges=1 size_nodes_bits=271622 size_nodes_byte=33952 size_edges_bits=31 size_total_byte=120250
file_name:uf125-038 model:o-nucx num_nodes=133 num_edges=1 size_nodes_bits=39188 size_nodes_byte=4898 size_edges_bits=17 size_total_byte=7836
file_name:uf125-038 model:o-u num_nodes=3922 num_edges=1 size_nodes_bits=267568 size_nodes_byte=33446 size_edges_bits=30 size_total_byte=119743
file_name:uf125-038 model:o-uc0 num_nodes=133 num_edges=1 size_nodes_bits=35099 size_nodes_byte=4387 size_edges_bits=16 size_total_byte=7325
file_name:uf125-038 model:u-nu num_nodes=3844 num_edges=1 size_nodes_bits=542182 size_nodes_byte=67772 size_edges_bits=141 size_total_byte=152368
file_name:uf125-038 model:u-nuc fail=true
file_name:uf125-038 model:u-nux fail=true
file_name:uf125-039 model:l-nux fail=true
file_name:uf125-039 model:o-c10 num_nodes=973 num_edges=1 size_nodes_bits=64898 size_nodes_byte=8112 size_edges_bits=30 size_total_byte=29532
file_name:uf125-039 model:o-nu num_nodes=1849 num_edges=1 size_nodes_bits=122864 size_nodes_byte=15358 size_edges_bits=31 size_total_byte=56049
file_name:uf125-039 model:o-nucx num_nodes=44 num_edges=1 size_nodes_bits=15136 size_nodes_byte=1892 size_edges_bits=17 size_total_byte=2872
file_name:uf125-039 model:o-u num_nodes=1849 num_edges=1 size_nodes_bits=120972 size_nodes_byte=15121 size_edges_bits=30 size_total_byte=55813
file_name:uf125-039 model:o-uc0 num_nodes=44 num_edges=1 size_nodes_bits=13469 size_nodes_byte=1683 size_edges_bits=16 size_total_byte=2663
file_name:uf125-039 model:u-nu num_nodes=1679 num_edges=1 size_nodes_bits=231798 size_nodes_byte=28974 size_edges_bits=141 size_total_byte=65940
file_name:uf125-039 model:u-nuc fail=true
file_name:uf125-039 model:u-nux fail=true
file_name:uf125-04 model:l-nux fail=true
file_name:uf125-04 model:o-c10 num_nodes=11576 num_edges=1 size_nodes_bits=879436 size_nodes_byte=109929 size_edges_bits=30 size_total_byte=364615
file_name:uf125-04 model:o-nu num_nodes=17231 num_edges=1 size_nodes_bits=1281413 size_nodes_byte=160176 size_edges_bits=31 size_total_byte=539272
file_name:uf125-04 model:o-nucx num_nodes=943 num_edges=1 size_nodes_bits=208032 size_nodes_byte=26004 size_edges_bits=17 size_total_byte=46762
file_name:uf125-04 model:o-u num_nodes=17231 num_edges=1 size_nodes_bits=1263240 size_nodes_byte=157905 size_edges_bits=30 size_total_byte=537000
file_name:uf125-04 model:o-uc0 num_nodes=943 num_edges=1 size_nodes_bits=189396 size_nodes_byte=23674 size_edges_bits=16 size_total_byte=44432
file_name:uf125-04 model:u-nu num_nodes=16571 num_edges=1 size_nodes_bits=2355597 size_nodes_byte=294449 size_edges_bits=141 size_total_byte=659039
file_name:uf125-04 model:u-nuc fail=true
file_name:uf125-04 model:u-nux fail=true
file_name:uf125-040 model:l-nux fail=true
file_name:uf125-040 model:o-c10 num_nodes=245111 num_edges=1 size_nodes_bits=21705608 size_nodes_byte=2713201 size_edges_bits=30 size_total_byte=8105656
file_name:uf125-040 model:o-nu num_nodes=367197 num_edges=1 size_nodes_bits=31322877 size_nodes_byte=3915359 size_edges_bits=31 size_total_byte=11993707
file_name:uf125-040 model:o-nucx num_nodes=33192 num_edges=1 size_nodes_bits=7043839 size_nodes_byte=880479 size_edges_bits=17 size_total_byte=1610716
file_name:uf125-040 model:o-u num_nodes=367198 num_edges=1 size_nodes_bits=30922536 size_nodes_byte=3865317 size_edges_bits=30 size_total_byte=11943686
file_name:uf125-040 model:o-uc0 num_nodes=33192 num_edges=1 size_nodes_bits=6469585 size_nodes_byte=808698 size_edges_bits=16 size_total_byte=1538934
file_name:uf125-040 model:u-nu num_nodes=346462 num_edges=1 size_nodes_bits=51296618 size_nodes_byte=6412077 size_edges_bits=141 size_total_byte=14034268
file_name:uf125-040 model:u-nuc fail=true
file_name:uf125-040 model:u-nux fail=true
file_name:uf125-041 model:l-nux fail=true
file_name:uf125-041 model:o-c10 num_nodes=5715 num_edges=1 size_nodes_bits=419286 size_nodes_byte=52410 size_edges_bits=30 size_total_byte=178154
file_name:uf125-041 model:o-nu num_nodes=9784 num_edges=1 size_nodes_bits=708588 size_nodes_byte=88573 size_edges_bits=31 size_total_byte=303835
file_name:uf125-041 model:o-nucx num_nodes=551 num_edges=1 size_nodes_bits=135483 size_nodes_byte=16935 size_edges_bits=17 size_total_byte=29069
file_name:uf125-041 model:o-u num_nodes=9784 num_edges=1 size_nodes_bits=698254 size_nodes_byte=87281 size_edges_bits=30 size_total_byte=302543
file_name:uf125-041 model:o-uc0 num_nodes=551 num_edges=1 size_nodes_bits=121675 size_nodes_byte=15209 size_edges_bits=16 size_total_byte=27343
file_name:uf125-041 model:u-nu num_nodes=9463 num_edges=1 size_nodes_bits=1320971 size_nodes_byte=165121 size_edges_bits=141 size_total_byte=373335
file_name:uf125-041 model:u-nuc fail=true
file_name:uf125-041 model:u-nux fail=true
file_name:uf125-042 model:l-nux fail=true
file_name:uf125-042 model:o-c10 num_nodes=41375 num_edges=1 size_nodes_bits=3473962 size_nodes_byte=434245 size_edges_bits=30 size_total_byte=1344509
file_name:uf125-042 model:o-nu num_nodes=69415 num_edges=1 size_nodes_bits=5503566 size_nodes_byte=687945 size_edges_bits=31 size_total_byte=2215089
file_name:uf125-042 model:o-nucx num_nodes=4314 num_edges=1 size_nodes_bits=1041261 size_nodes_byte=130157 size_edges_bits=17 size_total_byte=225077
file_name:uf125-042 model:o-u num_nodes=69415 num_edges=1 size_nodes_bits=5429838 size_nodes_byte=678729 size_edges_bits=30 size_total_byte=2205873
file_name:uf125-042 model:o-uc0 num_nodes=4314 num_edges=1 size_nodes_bits=945846 size_nodes_byte=118230 size_edges_bits=16 size_total_byte=213150
file_name:uf125-042 model:u-nu num_nodes=65166 num_edges=1 size_nodes_bits=9655944 size_nodes_byte=1206993 size_edges_bits=141 size_total_byte=2640672
file_name:uf125-042 model:u-nuc fail=true
file_name:uf125-042 model:u-nux fail=true
file_name:uf125-043 model:l-nux fail=true
file_name:uf125-043 model:o-c10 num_nodes=108 num_edges=1 size_nodes_bits=6538 size_nodes_byte=817 size_edges_bits=30 size_total_byte=3207
file_name:uf125-043 model:o-nu num_nodes=167 num_edges=1 size_nodes_bits=9939 size_nodes_byte=1242 size_edges_bits=31 size_total_byte=4930
file_name:uf125-043 model:o-nucx num_nodes=1 num_edges=1 size_nodes_bits=1022 size_nodes_byte=127 size_edges_bits=27 size_total_byte=163
file_name:uf125-043 model:o-u num_nodes=167 num_edges=1 size_nodes_bits=9772 size_nodes_byte=1221 size_edges_bits=30 size_total_byte=4909
file_name:uf125-043 model:o-uc0 num_nodes=1 num_edges=1 size_nodes_bits=898 size_nodes_byte=112 size_edges_bits=25 size_total_byte=147
file_name:uf125-043 model:u-nu num_nodes=166 num_edges=1 size_nodes_bits=25712 size_nodes_byte=3214 size_edges_bits=141 size_total_byte=6893
file_name:uf125-043 model:u-nuc fail=true
file_name:uf125-043 model:u-nux fail=true
file_name:uf125-044 model:l-nux fail=true
file_name:uf125-044 model:o-c10 num_nodes=1542 num_edges=1 size_nodes_bits=104948 size_nodes_byte=13118 size_edges_bits=30 size_total_byte=47056
file_name:uf125-044 model:o-nu num_nodes=3051 num_edges=1 size_nodes_bits=207231 size_nodes_byte=25903 size_edges_bits=31 size_total_byte=93039
file_name:uf125-044 model:o-nucx num_nodes=103 num_edges=1 size_nodes_bits=31087 size_nodes_byte=3885 size_edges_bits=63 size_total_byte=6169
file_name:uf125-044 model:o-u num_nodes=3051 num_edges=1 size_nodes_bits=204078 size_nodes_byte=25509 size_edges_bits=30 size_total_byte=92645
file_name:uf125-044 model:o-uc0 num_nodes=103 num_edges=1 size_nodes_bits=27728 size_nodes_byte=3466 size_edges_bits=57 size_total_byte=5749
file_name:uf125-044 model:u-nu num_nodes=2923 num_edges=1 size_nodes_bits=393493 size_nodes_byte=49186 size_edges_bits=141 size_total_byte=113520
file_name:uf125-044 model:u-nuc fail=true
file_name:uf125-044 model:u-nux fail=true
file_name:uf125-045 model:l-nux fail=true
file_name:uf125-045 model:o-c10 num_nodes=808 num_edges=1 size_nodes_bits=57860 size_nodes_byte=7232 size_edges_bits=30 size_total_byte=25022
file_name:uf125-045 model:o-nu num_nodes=1624 num_edges=1 size_nodes_bits=111839 size_nodes_byte=13979 size_edges_bits=31 size_total_byte=49721
file_name:uf125-045 model:o-nucx num_nodes=76 num_edges=1 size_nodes_bits=21161 size_nodes_byte=2645 size_edges_bits=17 size_total_byte=4329
file_name:uf125-045 model:o-u num_nodes=1624 num_edges=1 size_nodes_bits=110140 size_nodes_byte=13767 size_edges_bits=30 size_total_byte=49509
file_name:uf125-045 model:o-uc0 num_nodes=76 num_edges=1 size_nodes_bits=18966 size_nodes_byte=2370 size_edges_bits=16 size_total_byte=4054
file_name:uf125-045 model:u-nu num_nodes=1483 num_edges=1 size_nodes_bits=236079 size_nodes_byte=29509 size_edges_bits=141 size_total_byte=62163
file_name:uf125-045 model:u-nuc fail=true
file_name:uf125-045 model:u-nux fail=true
file_name:uf125-046 model:l-nux fail=true
file_name:uf125-046 model:o-c10 num_nodes=202 num_edges=1 size_nodes_bits=12064 size_nodes_byte=1508 size_edges_bits=30 size_total_byte=5965
file_name:uf125-046 model:o-nu num_nodes=421 num_edges=1 size_nodes_bits=25568 size_nodes_byte=3196 size_edges_bits=31 size_total_byte=12471
file_name:uf125-046 model:o-nucx num_nodes=6 num_edges=1 size_nodes_bits=2078 size_nodes_byte=259 size_edges_bits=41 size_total_byte=406
file_name:uf125-046 model:o-u num_nodes=421 num_edges=1 size_nodes_bits=25142 size_nodes_byte=3142 size_edges_bits=30 size_total_byte=12418
file_name:uf125-046 model:o-uc0 num_nodes=6 num_edges=1 size_nodes_bits=1862 size_nodes_byte=232 size_edges_bits=37 size_total_byte=379
file_name:uf125-046 model:u-nu num_nodes=407 num_edges=1 size_nodes_bits=52094 size_nodes_byte=6511 size_edges_bits=141 size_total_byte=15493
file_name:uf125-046 model:u-nuc fail=true
file_name:uf125-046 model:u-nux fail=true
file_name:uf125-047 model:l-nux fail=true
file_name:uf125-047 model:o-c10 num_nodes=2354 num_edges=1 size_nodes_bits=167940 size_nodes_byte=20992 size_edges_bits=30 size_total_byte=72794
file_name:uf125-047 model:o-nu num_nodes=3946 num_edges=1 size_nodes_bits=278897 size_nodes_byte=34862 size_edges_bits=31 size_total_byte=121688
file_name:uf125-047 model:o-nucx num_nodes=250 num_edges=1 size_nodes_bits=58593 size_nodes_byte=7324 size_edges_bits=17 size_total_byte=12836
file_name:uf125-047 model:o-u num_nodes=3946 num_edges=1 size_nodes_bits=274702 size_nodes_byte=34337 size_edges_bits=30 size_total_byte=121163
file_name:uf125-047 model:o-uc0 num_nodes=250 num_edges=1 size_nodes_bits=52536 size_nodes_byte=6567 size_edges_bits=16 size_total_byte=12079
file_name:uf125-047 model:u-nu num_nodes=3849 num_edges=1 size_nodes_bits=554492 size_nodes_byte=69311 size_edges_bits=141 size_total_byte=154017
file_name:uf125-047 model:u-nuc fail=true
file_name:uf125-047 model:u-nux fail=true
file_name:uf125-048 model:l-nux fail=true
file_name:uf125-048 model:o-c10 num_nodes=61 num_edges=1 size_nodes_bits=3410 size_nodes_byte=426 size_edges_bits=30 size_total_byte=1782
file_name:uf125-048 model:o-nu num_nodes=119 num_edges=1 size_nodes_bits=6780 size_nodes_byte=847 size_edges_bits=31 size_total_byte=3479
file_name:uf125-048 model:o-nucx num_nodes=0 num_edges=1 size_nodes_bits=0 size_nodes_byte=0 size_edges_bits=488 size_total_byte=71
file_name:uf125-048 model:o-u num_nodes=119 num_edges=1 size_nodes_bits=6662 size_nodes_byte=832 size_edges_bits=30 size_total_byte=3464
file_name:uf125-048 model:o-uc0 num_nodes=0 num_edges=1 size_nodes_bits=0 size_nodes_byte=0 size_edges_bits=430 size_total_byte=63
file_name:uf125-048 model:u-nu num_nodes=119 num_edges=1 size_nodes_bits=16272 size_nodes_byte=2034 size_edges_bits=141 size_total_byte=4679
file_name:uf125-048 model:u-nuc fail=true
file_name:uf125-048 model:u-nux fail=true
file_name:uf125-049 model:l-nux fail=true
file_name:uf125-049 model:o-c10 num_nodes=482 num_edges=1 size_nodes_bits=31378 size_nodes_byte=3922 size_edges_bits=30 size_total_byte=14540
file_name:uf125-049 model:o-nu num_nodes=891 num_edges=1 size_nodes_bits=58191 size_nodes_byte=7273 size_edges_bits=31 size_total_byte=26889
file_name:uf125-049 model:o-nucx num_nodes=43 num_edges=1 size_nodes_bits=10728 size_nodes_byte=1341 size_edges_bits=33 size_total_byte=2301
file_name:uf125-049 model:o-u num_nodes=891 num_edges=1 size_nodes_bits=57258 size_nodes_byte=7157 size_edges_bits=30 size_total_byte=26773
file_name:uf125-049 model:o-uc0 num_nodes=43 num_edges=1 size_nodes_bits=9632 size_nodes_byte=1204 size_edges_bits=30 size_total_byte=2163
file_name:uf125-049 model:u-nu num_nodes=878 num_edges=1 size_nodes_bits=120706 size_nodes_byte=15088 size_edges_bits=141 size_total_byte=34431
file_name:uf125-049 model:u-nuc fail=true
file_name:uf125-049 model:u-nux fail=true
file_name:uf125-05 model:l-nux fail=true
file_name:uf125-05 model:o-c10 num_nodes=5643 num_edges=1 size_nodes_bits=427864 size_nodes_byte=53483 size_edges_bits=30 size_total_byte=177642
file_name:uf125-05 model:o-nu num_nodes=9957 num_edges=1 size_nodes_bits=732976 size_nodes_byte=91622 size_edges_bits=31 size_total_byte=310689
file_name:uf125-05 model:o-nucx num_nodes=387 num_edges=1 size_nodes_bits=110933 size_nodes_byte=13866 size_edges_bits=17 size_total_byte=22392
file_name:uf125-05 model:o-u num_nodes=9957 num_edges=1 size_nodes_bits=722634 size_nodes_byte=90329 size_edges_bits=30 size_total_byte=309397
file_name:uf125-05 model:o-uc0 num_nodes=387 num_edges=1 size_nodes_bits=100019 size_nodes_byte=12502 size_edges_bits=16 size_total_byte=21028
file_name:uf125-05 model:u-nu num_nodes=9690 num_edges=1 size_nodes_bits=1525785 size_nodes_byte=190723 size_edges_bits=141 size_total_byte=403930
file_name:uf125-05 model:u-nuc fail=true
file_name:uf125-05 model:u-nux fail=true
file_name:uf125-050 model:l-nux fail=true
file_name:uf125-050 model:o-c10 num_nodes=1414 num_edges=1 size_nodes_bits=99516 size_nodes_byte=12439 size_edges_bits=30 size_total_byte=43561
file_name:uf125-050 model:o-nu num_nodes=2677 num_edges=1 size_nodes_bits=183936 size_nodes_byte=22992 size_edges_bits=31 size_total_byte=81899
file_name:uf125-050 model:o-nucx num_nodes=214 num_edges=1 size_nodes_bits=37888 size_nodes_byte=4736 size_edges_bits=35 size_total_byte=9458
file_name:uf125-050 model:o-u num_nodes=2677 num_edges=1 size_nodes_bits=181046 size_nodes_byte=22630 size_edges_bits=30 size_total_byte=81538
file_name:uf125-050 model:o-uc0 num_nodes=214 num_edges=1 size_nodes_bits=34574 size_nodes_byte=4321 size_edges_bits=32 size_total_byte=9043
file_name:uf125-050 model:u-nu num_nodes=2599 num_edges=1 size_nodes_bits=334720 size_nodes_byte=41840 size_edges_bits=141 size_total_byte=99045
file_name:uf125-050 model:u-nuc fail=true
file_name:uf125-050 model:u-nux fail=true
file_name:uf125-051 model:l-nux fail=true
file_name:uf125-051 model:o-c10 num_nodes=108 num_edges=1 size_nodes_bits=6588 size_nodes_byte=823 size_edges_bits=30 size_total_byte=3213
file_name:uf125-051 model:o-nu num_nodes=203 num_edges=1 size_nodes_bits=12298 size_nodes_byte=1537 size_edges_bits=31 size_total_byte=6017
file_name:uf125-051 model:o-nucx num_nodes=6 num_edges=1 size_nodes_bits=2105 size_nodes_byte=263 size_edges_bits=124 size_total_byte=420
file_name:uf125-051 model:o-u num_nodes=203 num_edges=1 size_nodes_bits=12090 size_nodes_byte=1511 size_edges_bits=30 size_total_byte=5991
file_name:uf125-051 model:o-uc0 num_nodes=6 num_edges=1 size_nodes_bits=1873 size_nodes_byte=234 size_edges_bits=110 size_total_byte=389
file_name:uf125-051 model:u-nu num_nodes=198 num_edges=1 size_nodes_bits=27885 size_nodes_byte=3485 size_edges_bits=141 size_total_byte=7869
file_name:uf125-051 model:u-nuc fail=true
file_name:uf125-051 model:u-nux fail=true
file_name:uf125-052 model:l-nux fail=true
file_name:uf125-052 model:o-c10 num_nodes=733 num_edges=1 size_nodes_bits=48160 size_nodes_byte=6020 size_edges_bits=30 size_total_byte=22159
file_name:uf125-052 model:o-nu num_nodes=1190 num_edges=1 size_nodes_bits=78992 size_nodes_byte=9874 size_edges_bits=31 size_total_byte=36067
file_name:uf125-052 model:o-nucx num_nodes=39 num_edges=1 size_nodes_bits=10784 size_nodes_byte=1348 size_edges_bits=43 size_total_byte=2221
file_name:uf125-052 model:o-u num_nodes=1190 num_edges=1 size_nodes_bits=77764 size_nodes_byte=9720 size_edges_bits=30 size_total_byte=35914
file_name:uf125-052 model:o-uc0 num_nodes=39 num_edges=1 size_nodes_bits=9642 size_nodes_byte=1205 size_edges_bits=39 size_total_byte=2078
file_name:uf125-052 model:u-nu num_nodes=1170 num_edges=1 size_nodes_bits=165532 size_nodes_byte=20691 size_edges_bits=141 size_total_byte=46459
file_name:uf125-052 model:u-nuc fail=true
file_name:uf125-052 model:u-nux fail=true
file_name:uf125-053 model:l-nux fail=true
file_name:uf125-053 model:o-c10 num_nodes=463 num_edges=1 size_nodes_bits=29772 size_nodes_byte=3721 size_edges_bits=30 size_total_byte=13921
file_name:uf125-053 model:o-nu num_nodes=826 num_edges=1 size_nodes_bits=52883 size_nodes_byte=6610 size_edges_bits=31 size_total_byte=24796
file_name:uf125-053 model:o-nucx num_nodes=24 num_edges=1 size_nodes_bits=7598 size_nodes_byte=949 size_edges_bits=57 size_total_byte=1494
file_name:uf125-053 model:o-u num_nodes=826 num_edges=1 size_nodes_bits=52034 size_nodes_byte=6504 size_edges_bits=30 size_total_byte=24690
file_name:uf125-053 model:o-uc0 num_nodes=24 num_edges=1 size_nodes_bits=6761 size_nodes_byte=845 size_edges_bits=51 size_total_byte=1389
file_name:uf125-053 model:u-nu num_nodes=815 num_edges=1 size_nodes_bits=110000 size_nodes_byte=13750 size_edges_bits=141 size_total_byte=31707
file_name:uf125-053 model:u-nuc fail=true
file_name:uf125-053 model:u-nux fail=true
file_name:uf125-054 model:l-nux fail=true
file_name:uf125-054 model:o-c10 num_nodes=2390 num_edges=1 size_nodes_bits=165734 size_nodes_byte=20716 size_edges_bits=30 size_total_byte=73310
file_name:uf125-054 model:o-nu num_nodes=4802 num_edges=1 size_nodes_bits=331077 size_nodes_byte=41384 size_edges_bits=31 size_total_byte=147042
file_name:uf125-054 model:o-nucx num_nodes=190 num_edges=1 size_nodes_bits=48890 size_nodes_byte=6111 size_edges_bits=25 size_total_byte=10304
file_name:uf125-054 model:o-u num_nodes=4802 num_edges=1 size_nodes_bits=326086 size_nodes_byte=40760 size_edges_bits=30 size_total_byte=146418
file_name:uf125-054 model:o-uc0 num_nodes=190 num_edges=1 size_nodes_bits=43935 size_nodes_byte=5491 size_edges_bits=23 size_total_byte=9684
file_name:uf125-054 model:u-nu num_nodes=4725 num_edges=1 size_nodes_bits=629964 size_nodes_byte=78745 size_edges_bits=141 size_total_byte=182723
file_name:uf125-054 model:u-nuc fail=true
file_name:uf125-054 model:u-nux fail=true
file_name:uf125-055 model:l-nux fail=true
file_name:uf125-055 model:o-c10 num_nodes=8457 num_edges=1 size_nodes_bits=668800 size_nodes_byte=83600 size_edges_bits=30 size_total_byte=269667
file_name:uf125-055 model:o-nu num_nodes=15973 num_edges=1 size_nodes_bits=1219624 size_nodes_byte=152453 size_edges_bits=31 size_total_byte=503872
file_name:uf125-055 model:o-nucx num_nodes=1088 num_edges=1 size_nodes_bits=265312 size_nodes_byte=33164 size_edges_bits=17 size_total_byte=57112
file_name:uf125-055 model:o-u num_nodes=15974 num_edges=1 size_nodes_bits=1202600 size_nodes_byte=150325 size_edges_bits=30 size_total_byte=501766
file_name:uf125-055 model:o-uc0 num_nodes=1088 num_edges=1 size_nodes_bits=240116 size_nodes_byte=30014 size_edges_bits=16 size_total_byte=53962
file_name:uf125-055 model:u-nu num_nodes=14746 num_edges=1 size_nodes_bits=2394700 size_nodes_byte=299337 size_edges_bits=141 size_total_byte=623777
file_name:uf125-055 model:u-nuc fail=true
file_name:uf125-055 model:u-nux fail=true
file_name:uf125-056 model:l-nux fail=true
file_name:uf125-056 model:o-c10 num_nodes=8177 num_edges=1 size_nodes_bits=604378 size_nodes_byte=75547 size_edges_bits=30 size_total_byte=255455
file_name:uf125-056 model:o-nu num_nodes=13194 num_edges=1 size_nodes_bits=958766 size_nodes_byte=119845 size_edges_bits=31 size_total_byte=410127
file_name:uf125-056 model:o-nucx num_nodes=566 num_edges=1 size_nodes_bits=143639 size_nodes_byte=17954 size_edges_bits=17 size_total_byte=30419
file_name:uf125-056 model:o-u num_nodes=13194 num_edges=1 size_nodes_bits=945008 size_nodes_byte=118126 size_edges_bits=30 size_total_byte=408407
file_name:uf125-056 model:o-uc0 num_nodes=566 num_edges=1 size_nodes_bits=129675 size_nodes_byte=16209 size_edges_bits=16 size_total_byte=28673
file_name:uf125-056 model:u-nu num_nodes=12071 num_edges=1 size_nodes_bits=1595293 size_nodes_byte=199411 size_edges_bits=141 size_total_byte=465001
file_name:uf125-056 model:u-nuc fail=true
file_name:uf125-056 model:u-nux fail=true
file_name:uf125-057 model:l-nux fail=true
file_name:uf125-057 model:o-c10 num_nodes=2951 num_edges=1 size_nodes_bits=210530 size_nodes_byte=26316 size_edges_bits=30 size_total_byte=91252
file_name:uf125-057 model:o-nu num_nodes=5640 num_edges=1 size_nodes_bits=394945 size_nodes_byte=49368 size_edges_bits=31 size_total_byte=173462
file_name:uf125-057 model:o-nucx num_nodes=248 num_edges=1 size_nodes_bits=65800 size_nodes_byte=8225 size_edges_bits=63 size_total_byte=13698
file_name:uf125-057 model:o-u num_nodes=5640 num_edges=1 size_nodes_bits=389058 size_nodes_byte=48632 size_edges_bits=30 size_total_byte=172726
file_name:uf125-057 model:o-uc0 num_nodes=248 num_edges=1 size_nodes_bits=59276 size_nodes_byte=7409 size_edges_bits=56 size_total_byte=12882
file_name:uf125-057 model:u-nu num_nodes=5064 num_edges=1 size_nodes_bits=672074 size_nodes_byte=84009 size_edges_bits=141 size_total_byte=195444
file_name:uf125-057 model:u-nuc fail=true
file_name:uf125-057 model:u-nux fail=true
file_name:uf125-058 model:l-nux fail=true
file_name:uf125-058 model:o-c10 num_nodes=9283 num_edges=1 size_nodes_bits=712754 size_nodes_byte=89094 size_edges_bits=30 size_total_byte=293334
file_name:uf125-058 model:o-nu num_nodes=17668 num_edges=1 size_nodes_bits=1328282 size_nodes_byte=166035 size_edges_bits=31 size_total_byte=554745
file_name:uf125-058 model:o-nucx num_nodes=1117 num_edges=1 size_nodes_bits=268612 size_nodes_byte=33576 size_edges_bits=17 size_total_byte=58162
file_name:uf125-058 model:o-u num_nodes=17668 num_edges=1 size_nodes_bits=1309500 size_nodes_byte=163687 size_edges_bits=30 size_total_byte=552397
file_name:uf125-058 model:o-uc0 num_nodes=1117 num_edges=1 size_nodes_bits=242932 size_nodes_byte=30366 size_edges_bits=16 size_total_byte=54952
file_name:uf125-058 model:u-nu num_nodes=15319 num_edges=1 size_nodes_bits=2312233 size_nodes_byte=289029 size_edges_bits=141 size_total_byte=626074
file_name:uf125-058 model:u-nuc fail=true
file_name:uf125-058 model:u-nux fail=true
file_name:uf125-059 model:l-nux fail=true
file_name:uf125-059 model:o-c10 num_nodes=2653 num_edges=1 size_nodes_bits=198958 size_nodes_byte=24869 size_edges_bits=30 size_total_byte=83249
file_name:uf125-059 model:o-nu num_nodes=4352 num_edges=1 size_nodes_bits=314385 size_nodes_byte=39298 size_edges_bits=31 size_total_byte=135056
file_name:uf125-059 model:o-nucx num_nodes=282 num_edges=1 size_nodes_bits=67717 size_nodes_byte=8464 size_edges_bits=17 size_total_byte=14680
file_name:uf125-059 model:o-u num_nodes=4352 num_edges=1 size_nodes_bits=309752 size_nodes_byte=38719 size_edges_bits=30 size_total_byte=134476
file_name:uf125-059 model:o-uc0 num_nodes=282 num_edges=1 size_nodes_bits=61064 size_nodes_byte=7633 size_edges_bits=16 size_total_byte=13849
file_name:uf125-059 model:u-nu num_nodes=4215 num_edges=1 size_nodes_bits=664406 size_nodes_byte=83050 size_edges_bits=141 size_total_byte=175808
file_name:uf125-059 model:u-nuc fail=true
file_name:uf125-059 model:u-nux fail=true
file_name:uf125-06 model:l-nux fail=true
file_name:uf125-06 model:o-c10 num_nodes=1333 num_edges=1 size_nodes_bits=91260 size_nodes_byte=11407 size_edges_bits=30 size_total_byte=40747
file_name:uf125-06 model:o-nu num_nodes=2597 num_edges=1 size_nodes_bits=175950 size_nodes_byte=21993 size_edges_bits=31 size_total_byte=79141
file_name:uf125-06 model:o-nucx num_nodes=123 num_edges=1 size_nodes_bits=25454 size_nodes_byte=3181 size_edges_bits=25 size_total_byte=5900
file_name:uf125-06 model:o-u num_nodes=2598 num_edges=1 size_nodes_bits=173272 size_nodes_byte=21659 size_edges_bits=30 size_total_byte=78828
file_name:uf125-06 model:o-uc0 num_nodes=123 num_edges=1 size_nodes_bits=23007 size_nodes_byte=2875 size_edges_bits=23 size_total_byte=5594
file_name:uf125-06 model:u-nu num_nodes=2575 num_edges=1 size_nodes_bits=352879 size_nodes_byte=44109 size_edges_bits=141 size_total_byte=100787
file_name:uf125-06 model:u-nuc fail=true
file_name:uf125-06 model:u-nux fail=true
file_name:uf125-060 model:l-nux fail=true
file_name:uf125-060 model:o-c10 num_nodes=8271 num_edges=1 size_nodes_bits=637886 size_nodes_byte=79735 size_edges_bits=30 size_total_byte=261711
file_name:uf125-060 model:o-nu num_nodes=15185 num_edges=1 size_nodes_bits=1138303 size_nodes_byte=142287 size_edges_bits=31 size_total_byte=476371
file_name:uf125-060 model:o-nucx num_nodes=859 num_edges=1 size_nodes_bits=218111 size_nodes_byte=27263 size_edges_bits=35 size_total_byte=46176
file_name:uf125-060 model:o-u num_nodes=15185 num_edges=1 size_nodes_bits=1122260 size_nodes_byte=140282 size_edges_bits=30 size_total_byte=474366
file_name:uf125-060 model:o-uc0 num_nodes=859 num_edges=1 size_nodes_bits=197480 size_nodes_byte=24685 size_edges_bits=32 size_total_byte=43597
file_name:uf125-060 model:u-nu num_nodes=14433 num_edges=1 size_nodes_bits=2093336 size_nodes_byte=261667 size_edges_bits=141 size_total_byte=579220
file_name:uf125-060 model:u-nuc fail=true
file_name:uf125-060 model:u-nux fail=true
file_name:uf125-061 model:l-nux fail=true
file_name:uf125-061 model:o-c10 num_nodes=11133 num_edges=1 size_nodes_bits=875380 size_nodes_byte=109422 size_edges_bits=30 size_total_byte=354362
file_name:uf125-061 model:o-nu num_nodes=19819 num_edges=1 size_nodes_bits=1526322 size_nodes_byte=190790 size_edges_bits=31 size_total_byte=626822
file_name:uf125-061 model:o-nucx num_nodes=933 num_edges=1 size_nodes_bits=264041 size_nodes_byte=33005 size_edges_bits=17 size_total_byte=53543
file_name:uf125-061 model:o-u num_nodes=19821 num_edges=1 size_nodes_bits=1505630 size_nodes_byte=188203 size_edges_bits=30 size_total_byte=624279
file_name:uf125-061 model:o-uc0 num_nodes=933 num_edges=1 size_nodes_bits=237190 size_nodes_byte=29648 size_edges_bits=16 size_total_byte=50186
file_name:uf125-061 model:u-nu num_nodes=19457 num_edges=1 size_nodes_bits=3313993 size_nodes_byte=414249 size_edges_bits=141 size_total_byte=842330
file_name:uf125-061 model:u-nuc fail=true
file_name:uf125-061 model:u-nux fail=true
file_name:uf125-062 model:l-nux fail=true
file_name:uf125-062 model:o-c10 num_nodes=10100 num_edges=1 size_nodes_bits=797312 size_nodes_byte=99664 size_edges_bits=30 size_total_byte=321877
file_name:uf125-062 model:o-nu num_nodes=17755 num_edges=1 size_nodes_bits=1358245 size_nodes_byte=169780 size_edges_bits=31 size_total_byte=560404
file_name:uf125-062 model:o-nucx num_nodes=1141 num_edges=1 size_nodes_bits=289959 size_nodes_byte=36244 size_edges_bits=17 size_total_byte=61359
file_name:uf125-062 model:o-u num_nodes=17755 num_edges=1 size_nodes_bits=1339350 size_nodes_byte=167418 size_edges_bits=30 size_total_byte=558042
file_name:uf125-062 model:o-uc0 num_nodes=1141 num_edges=1 size_nodes_bits=262660 size_nodes_byte=32832 size_edges_bits=16 size_total_byte=57946
file_name:uf125-062 model:u-nu num_nodes=16340 num_edges=1 size_nodes_bits=2630464 size_nodes_byte=328808 size_edges_bits=141 size_total_byte=688315
file_name:uf125-062 model:u-nuc fail=true
file_name:uf125-062 model:u-nux fail=true
file_name:uf125-063 model:l-nux fail=true
file_name:uf125-063 model:o-c10 num_nodes=1303 num_edges=1 size_nodes_bits=90894 size_nodes_byte=11361 size_edges_bits=30 size_total_byte=40041
file_name:uf125-063 model:o-nu num_nodes=2465 num_edges=1 size_nodes_bits=167699 size_nodes_byte=20962 size_edges_bits=31 size_total_byte=75206
file_name:uf125-063 model:o-nucx num_nodes=118 num_edges=1 size_nodes_bits=30286 size_nodes_byte=3785 size_edges_bits=17 size_total_byte=6393
file_name:uf125-063 model:o-u num_nodes=2465 num_edges=1 size_nodes_bits=165118 size_nodes_byte=20639 size_edges_bits=30 size_total_byte=74883
file_name:uf125-063 model:o-uc0 num_nodes=118 num_edges=1 size_nodes_bits=27187 size_nodes_byte=3398 size_edges_bits=16 size_total_byte=6006
file_name:uf125-063 model:u-nu num_nodes=2397 num_edges=1 size_nodes_bits=327850 size_nodes_byte=40981 size_edges_bits=141 size_total_byte=93742
file_name:uf125-063 model:u-nuc fail=true
file_name:uf125-063 model:u-nux fail=true
file_name:uf125-064 model:l-nux fail=true
file_name:uf125-064 model:o-c10 num_nodes=398 num_edges=1 size_nodes_bits=25956 size_nodes_byte=3244 size_edges_bits=30 size_total_byte=12014
file_name:uf125-064 model:o-nu num_nodes=667 num_edges=1 size_nodes_bits=42936 size_nodes_byte=5367 size_edges_bits=31 size_total_byte=20054
file_name:uf125-064 model:o-nucx num_nodes=12 num_edges=1 size_nodes_bits=4700 size_nodes_byte=587 size_edges_bits=17 size_total_byte=863
file_name:uf125-064 model:o-u num_nodes=667 num_edges=1 size_nodes_bits=42258 size_nodes_byte=5282 size_edges_bits=30 size_total_byte=19970
file_name:uf125-064 model:o-uc0 num_nodes=12 num_edges=1 size_nodes_bits=4187 size_nodes_byte=523 size_edges_bits=16 size_total_byte=799
file_name:uf125-064 model:u-nu num_nodes=611 num_edges=1 size_nodes_bits=90774 size_nodes_byte=11346 size_edges_bits=141 size_total_byte=24816
file_name:uf125-064 model:u-nuc fail=true
file_name:uf125-064 model:u-nux fail=true
file_name:uf125-065 model:l-nux fail=true
file_name:uf125-065 model:o-c10 num_nodes=3060 num_edges=1 size_nodes_bits=225110 size_nodes_byte=28138 size_edges_bits=30 size_total_byte=95472
file_name:uf125-065 model:o-nu num_nodes=5651 num_edges=1 size_nodes_bits=415168 size_nodes_byte=51896 size_edges_bits=31 size_total_byte=176231
file_name:uf125-065 model:o-nucx num_nodes=288 num_edges=1 size_nodes_bits=84692 size_nodes_byte=10586 size_edges_bits=59 size_total_byte=16939
file_name:uf125-065 model:o-u num_nodes=5651 num_edges=1 size_nodes_bits=409230 size_nodes_byte=51153 size_edges_bits=30 size_total_byte=175489
file_name:uf125-065 model:o-uc0 num_nodes=288 num_edges=1 size_nodes_bits=76197 size_nodes_byte=9524 size_edges_bits=53 size_total_byte=15877
file_name:uf125-065 model:u-nu num_nodes=5560 num_edges=1 size_nodes_bits=912635 size_nodes_byte=114079 size_edges_bits=141 size_total_byte=236427
file_name:uf125-065 model:u-nuc fail=true
file_name:uf125-065 model:u-nux fail=true
file_name:uf125-066 model:l-nux fail=true
file_name:uf125-066 model:o-c10 num_nodes=1282 num_edges=1 size_nodes_bits=86946 size_nodes_byte=10868 size_edges_bits=30 size_total_byte=39086
file_name:uf125-066 model:o-nu num_nodes=2211 num_edges=1 size_nodes_bits=147651 size_nodes_byte=18456 size_edges_bits=31 size_total_byte=67112
file_name:uf125-066 model:o-nucx num_nodes=55 num_edges=1 size_nodes_bits=16899 size_nodes_byte=2112 size_edges_bits=17 size_total_byte=3334
file_name:uf125-066 model:o-u num_nodes=2212 num_edges=1 size_nodes_bits=145418 size_nodes_byte=18177 size_edges_bits=30 size_total_byte=66855
file_name:uf125-066 model:o-uc0 num_nodes=55 num_edges=1 size_nodes_bits=15090 size_nodes_byte=1886 size_edges_bits=16 size_total_byte=3108
file_name:uf125-066 model:u-nu num_nodes=1974 num_edges=1 size_nodes_bits=267231 size_nodes_byte=33403 size_edges_bits=141 size_total_byte=76859
file_name:uf125-066 model:u-nuc fail=true
file_name:uf125-066 model:u-nux fail=true
file_name:uf125-067 model:l-nux fail=true
file_name:uf125-067 model:o-c10 num_nodes=1768 num_edges=1 size_nodes_bits=123776 size_nodes_byte=15472 size_edges_bits=30 size_total_byte=54381
file_name:uf125-067 model:o-nu num_nodes=3408 num_edges=1 size_nodes_bits=236807 size_nodes_byte=29600 size_edges_bits=31 size_total_byte=104590
file_name:uf125-067 model:o-nucx num_nodes=148 num_edges=1 size_nodes_bits=44816 size_nodes_byte=5602 size_edges_bits=39 size_total_byte=8872
file_name:uf125-067 model:o-u num_nodes=3408 num_edges=1 size_nodes_bits=233252 size_nodes_byte=29156 size_edges_bits=30 size_total_byte=104146
file_name:uf125-067 model:o-uc0 num_nodes=148 num_edges=1 size_nodes_bits=39844 size_nodes_byte=4980 size_edges_bits=35 size_total_byte=8250
file_name:uf125-067 model:u-nu num_nodes=3281 num_edges=1 size_nodes_bits=456742 size_nodes_byte=57092 size_edges_bits=141 size_total_byte=129302
file_name:uf125-067 model:u-nuc fail=true
file_name:uf125-067 model:u-nux fail=true
file_name:uf125-068 model:l-nux fail=true
file_name:uf125-068 model:o-c10 num_nodes=116755 num_edges=1 size_nodes_bits=10023016 size_nodes_byte=1252877 size_edges_bits=30 size_total_byte=3821500
file_name:uf125-068 model:o-nu num_nodes=191909 num_edges=1 size_nodes_bits=15836746 size_nodes_byte=1979593 size_edges_bits=31 size_total_byte=6201605
file_name:uf125-068 model:o-nucx num_nodes=15120 num_edges=1 size_nodes_bits=3308867 size_nodes_byte=413608 size_edges_bits=17 size_total_byte=746260
file_name:uf125-068 model:o-u num_nodes=191912 num_edges=1 size_nodes_bits=15629904 size_nodes_byte=1953738 size_edges_bits=30 size_total_byte=6175815
file_name:uf125-068 model:o-uc0 num_nodes=15121 num_edges=1 size_nodes_bits=3031587 size_nodes_byte=378948 size_edges_bits=16 size_total_byte=711622
file_name:uf125-068 model:u-nu num_nodes=177268 num_edges=1 size_nodes_bits=25565966 size_nodes_byte=3195745 size_edges_bits=141 size_total_byte=7095669
file_name:uf125-068 model:u-nuc fail=true
file_name:uf125-068 model:u-nux fail=true
file_name:uf125-069 model:l-nux fail=true
file_name:uf125-069 model:o-c10 num_nodes=1454 num_edges=1 size_nodes_bits=100476 size_nodes_byte=12559 size_edges_bits=30 size_total_byte=44561
file_name:uf125-069 model:o-nu num_nodes=2541 num_edges=1 size_nodes_bits=174529 size_nodes_byte=21816 size_edges_bits=31 size_total_byte=77732
file_name:uf125-069 model:o-nucx num_nodes=79 num_edges=1 size_nodes_bits=27028 size_nodes_byte=3378 size_edges_bits=17 size_total_byte=5128
file_name:uf125-069 model:o-u num_nodes=2542 num_edges=1 size_nodes_bits=171942 size_nodes_byte=21492 size_edges_bits=30 size_total_byte=77430
file_name:uf125-069 model:o-uc0 num_nodes=79 num_edges=1 size_nodes_bits=24042 size_nodes_byte=3005 size_edges_bits=16 size_total_byte=4755
file_name:uf125-069 model:u-nu num_nodes=2505 num_edges=1 size_nodes_bits=366797 size_nodes_byte=45849 size_edges_bits=141 size_total_byte=100987
file_name:uf125-069 model:u-nuc fail=true
file_name:uf125-069 model:u-nux fail=true
file_name:uf125-07 model:l-nux fail=true
file_name:uf125-07 model:o-c10 num_nodes=513633 num_edges=1 size_nodes_bits=49791438 size_nodes_byte=6223929 size_edges_bits=30 size_total_byte=17523869
file_name:uf125-07 model:o-nu num_nodes=922688 num_edges=1 size_nodes_bits=82899841 size_nodes_byte=10362480 size_edges_bits=31 size_total_byte=30661630
file_name:uf125-07 model:o-nucx num_nodes=105075 num_edges=1 size_nodes_bits=21383106 size_nodes_byte=2672888 size_edges_bits=17 size_total_byte=4984550
file_name:uf125-07 model:o-u num_nodes=922691 num_edges=1 size_nodes_bits=81872278 size_nodes_byte=10234034 size_edges_bits=30 size_total_byte=30533250
file_name:uf125-07 model:o-uc0 num_nodes=105075 num_edges=1 size_nodes_bits=19793937 size_nodes_byte=2474242 size_edges_bits=16 size_total_byte=4785904
file_name:uf125-07 model:u-nu num_nodes=873081 num_edges=1 size_nodes_bits=133629655 size_nodes_byte=16703706 size_edges_bits=141 size_total_byte=35911516
file_name:uf125-07 model:u-nuc fail=true
file_name:uf125-07 model:u-nux fail=true
file_name:uf125-070 model:l-nux fail=true
file_name:uf125-070 model:o-c10 num_nodes=50532 num_edges=1 size_nodes_bits=4196536 size_nodes_byte=524567 size_edges_bits=30 size_total_byte=1636284
file_name:uf125-070 model:o-nu num_nodes=72082 num_edges=1 size_nodes_bits=5755829 size_nodes_byte=719478 size_edges_bits=31 size_total_byte=2305296
file_name:uf125-070 model:o-nucx num_nodes=4947 num_edges=1 size_nodes_bits=1124257 size_nodes_byte=140532 size_edges_bits=17 size_total_byte=249378
file_name:uf125-070 model:o-u num_nodes=72084 num_edges=1 size_nodes_bits=5678894 size_nodes_byte=709861 size_edges_bits=30 size_total_byte=2295723
file_name:uf125-070 model:o-uc0 num_nodes=4947 num_edges=1 size_nodes_bits=1027250 size_nodes_byte=128406 size_edges_bits=16 size_total_byte=237252
file_name:uf125-070 model:u-nu num_nodes=68517 num_edges=1 size_nodes_bits=9930276 size_nodes_byte=1241284 size_edges_bits=141 size_total_byte=2748686
file_name:uf125-070 model:u-nuc fail=true
file_name:uf125-070 model:u-nux fail=true
file_name:uf125-071 model:l-nux fail=true
file_name:uf125-071 model:o-c10 num_nodes=825 num_edges=1 size_nodes_bits=55186 size_nodes_byte=6898 size_edges_bits=30 size_total_byte=25062
file_name:uf125-071 model:o-nu num_nodes=1390 num_edges=1 size_nodes_bits=91910 size_nodes_byte=11488 size_edges_bits=31 size_total_byte=42082
file_name:uf125-071 model:o-nucx num_nodes=45 num_edges=1 size_nodes_bits=12560 size_nodes_byte=1570 size_edges_bits=17 size_total_byte=2572
file_name:uf125-071 model:o-u num_nodes=1391 num_edges=1 size_nodes_bits=90506 size_nodes_byte=11313 size_edges_bits=30 size_total_byte=41929
file_name:uf125-071 model:o-uc0 num_nodes=45 num_edges=1 size_nodes_bits=11213 size_nodes_byte=1401 size_edges_bits=16 size_total_byte=2403
file_name:uf125-071 model:u-nu num_nodes=1363 num_edges=1 size_nodes_bits=191295 size_nodes_byte=23911 size_edges_bits=141 size_total_byte=53925
file_name:uf125-071 model:u-nuc fail=true
file_name:uf125-071 model:u-nux fail=true
file_name:uf125-072 model:l-nux fail=true
file_name:uf125-072 model:o-c10 num_nodes=429 num_edges=1 size_nodes_bits=26880 size_nodes_byte=3360 size_edges_bits=30 size_total_byte=12811
file_name:uf125-072 model:o-nu num_nodes=735 num_edges=1 size_nodes_bits=46388 size_nodes_byte=5798 size_edges_bits=31 size_total_byte=21982
file_name:uf125-072 model:o-nucx num_nodes=22 num_edges=1 size_nodes_bits=5759 size_nodes_byte=719 size_edges_bits=103 size_total_byte=1226
file_name:uf125-072 model:o-u num_nodes=735 num_edges=1 size_nodes_bits=45632 size_nodes_byte=5704 size_edges_bits=30 size_total_byte=21887
file_name:uf125-072 model:o-uc0 num_nodes=22 num_edges=1 size_nodes_bits=5168 size_nodes_byte=646 size_edges_bits=91 size_total_byte=1151
file_name:uf125-072 model:u-nu num_nodes=687 num_edges=1 size_nodes_bits=86168 size_nodes_byte=10771 size_edges_bits=141 size_total_byte=25912
file_name:uf125-072 model:u-nuc fail=true
file_name:uf125-072 model:u-nux fail=true
file_name:uf125-073 model:l-nux fail=true
file_name:uf125-073 model:o-c10 num_nodes=466 num_edges=1 size_nodes_bits=29020 size_nodes_byte=3627 size_edges_bits=30 size_total_byte=13893
file_name:uf125-073 model:o-nu num_nodes=763 num_edges=1 size_nodes_bits=47789 size_nodes_byte=5973 size_edges_bits=31 size_total_byte=22773
file_name:uf125-073 model:o-nucx num_nodes=37 num_edges=1 size_nodes_bits=8749 size_nodes_byte=1093 size_edges_bits=27 size_total_byte=1921
file_name:uf125-073 model:o-u num_nodes=763 num_edges=1 size_nodes_bits=46990 size_nodes_byte=5873 size_edges_bits=30 size_total_byte=22673
file_name:uf125-073 model:o-uc0 num_nodes=37 num_edges=1 size_nodes_bits=7859 size_nodes_byte=982 size_edges_bits=25 size_total_byte=1809
file_name:uf125-073 model:u-nu num_nodes=755 num_edges=1 size_nodes_bits=88715 size_nodes_byte=11089 size_edges_bits=141 size_total_byte=27727
file_name:uf125-073 model:u-nuc fail=true
file_name:uf125-073 model:u-nux fail=true
file_name:uf125-074 model:l-nux fail=true
file_name:uf125-074 model:o-c10 num_nodes=696 num_edges=1 size_nodes_bits=47888 size_nodes_byte=5986 size_edges_bits=30 size_total_byte=21311
file_name:uf125-074 model:o-nu num_nodes=1222 num_edges=1 size_nodes_bits=81310 size_nodes_byte=10163 size_edges_bits=31 size_total_byte=37061
file_name:uf125-074 model:o-nucx num_nodes=60 num_edges=1 size_nodes_bits=14156 size_nodes_byte=1769 size_edges_bits=25 size_total_byte=3102
file_name:uf125-074 model:o-u num_nodes=1223 num_edges=1 size_nodes_bits=80060 size_nodes_byte=10007 size_edges_bits=30 size_total_byte=36927
file_name:uf125-074 model:o-uc0 num_nodes=60 num_edges=1 size_nodes_bits=12763 size_nodes_byte=1595 size_edges_bits=23 size_total_byte=2928
file_name:uf125-074 model:u-nu num_nodes=1209 num_edges=1 size_nodes_bits=177808 size_nodes_byte=22226 size_edges_bits=141 size_total_byte=48851
file_name:uf125-074 model:u-nuc fail=true
file_name:uf125-074 model:u-nux fail=true
file_name:uf125-075 model:l-nux fail=true
file_name:uf125-075 model:o-c10 num_nodes=77363 num_edges=1 size_nodes_bits=6727622 size_nodes_byte=840952 size_edges_bits=30 size_total_byte=2542952
file_name:uf125-075 model:o-nu num_nodes=133275 num_edges=1 size_nodes_bits=10952913 size_nodes_byte=1369114 size_edges_bits=31 size_total_byte=4301178
file_name:uf125-075 model:o-nucx num_nodes=9606 num_edges=1 size_nodes_bits=2386875 size_nodes_byte=298359 size_edges_bits=17 size_total_byte=509703
file_name:uf125-075 model:o-u num_nodes=133277 num_edges=1 size_nodes_bits=10810108 size_nodes_byte=1351263 size_edges_bits=30 size_total_byte=4283371
file_name:uf125-075 model:o-uc0 num_nodes=9606 num_edges=1 size_nodes_bits=2169594 size_nodes_byte=271199 size_edges_bits=16 size_total_byte=482543
file_name:uf125-075 model:u-nu num_nodes=123121 num_edges=1 size_nodes_bits=19066182 size_nodes_byte=2383272 size_edges_bits=141 size_total_byte=5091962
file_name:uf125-075 model:u-nuc fail=true
file_name:uf125-075 model:u-nux fail=true
file_name:uf125-076 model:l-nux fail=true
file_name:uf125-076 model:o-c10 num_nodes=4017 num_edges=1 size_nodes_bits=279420 size_nodes_byte=34927 size_edges_bits=30 size_total_byte=123315
file_name:uf125-076 model:o-nu num_nodes=7665 num_edges=1 size_nodes_bits=538072 size_nodes_byte=67259 size_edges_bits=31 size_total_byte=235902
file_name:uf125-076 model:o-nucx num_nodes=279 num_edges=1 size_nodes_bits=67940 size_nodes_byte=8492 size_edges_bits=17 size_total_byte=14642
file_name:uf125-076 model:o-u num_nodes=7666 num_edges=1 size_nodes_bits=530164 size_nodes_byte=66270 size_edges_bits=30 size_total_byte=234936
file_name:uf125-076 model:o-uc0 num_nodes=279 num_edges=1 size_nodes_bits=60993 size_nodes_byte=7624 size_edges_bits=16 size_total_byte=13774
file_name:uf125-076 model:u-nu num_nodes=7211 num_edges=1 size_nodes_bits=995794 size_nodes_byte=124474 size_edges_bits=141 size_total_byte=283143
file_name:uf125-076 model:u-nuc fail=true
file_name:uf125-076 model:u-nux fail=true
file_name:uf125-077 model:l-nux fail=true
file_name:uf125-077 model:o-c10 num_nodes=295 num_edges=1 size_nodes_bits=19498 size_nodes_byte=2437 size_edges_bits=30 size_total_byte=8941
file_name:uf125-077 model:o-nu num_nodes=603 num_edges=1 size_nodes_bits=39189 size_nodes_byte=4898 size_edges_bits=31 size_total_byte=18178
file_name:uf125-077 model:o-nucx num_nodes=23 num_edges=1 size_nodes_bits=7165 size_nodes_byte=895 size_edges_bits=32 size_total_byte=1415
file_name:uf125-077 model:o-u num_nodes=603 num_edges=1 size_nodes_bits=38564 size_nodes_byte=4820 size_edges_bits=30 size_total_byte=18100
file_name:uf125-077 model:o-uc0 num_nodes=23 num_edges=1 size_nodes_bits=6417 size_nodes_byte=802 size_edges_bits=30 size_total_byte=1321
file_name:uf125-077 model:u-nu num_nodes=581 num_edges=1 size_nodes_bits=86403 size_nodes_byte=10800 size_edges_bits=141 size_total_byte=23610
file_name:uf125-077 model:u-nuc fail=true
file_name:uf125-077 model:u-nux fail=true
file_name:uf125-078 model:l-nux fail=true
file_name:uf125-078 model:o-c10 num_nodes=607 num_edges=1 size_nodes_bits=40318 size_nodes_byte=5039 size_edges_bits=30 size_total_byte=18407
file_name:uf125-078 model:o-nu num_nodes=1002 num_edges=1 size_nodes_bits=65462 size_nodes_byte=8182 size_edges_bits=31 size_total_byte=30240
file_name:uf125-078 model:o-nucx num_nodes=25 num_edges=1 size_nodes_bits=8068 size_nodes_byte=1008 size_edges_bits=17 size_total_byte=1570
file_name:uf125-078 model:o-u num_nodes=1002 num_edges=1 size_nodes_bits=64436 size_nodes_byte=8054 size_edges_bits=30 size_total_byte=30112
file_name:uf125-078 model:o-uc0 num_nodes=25 num_edges=1 size_nodes_bits=7217 size_nodes_byte=902 size_edges_bits=16 size_total_byte=1464
file_name:uf125-078 model:u-nu num_nodes=979 num_edges=1 size_nodes_bits=146331 size_nodes_byte=18291 size_edges_bits=141 size_total_byte=39857
file_name:uf125-078 model:u-nuc fail=true
file_name:uf125-078 model:u-nux fail=true
file_name:uf125-079 model:l-nux fail=true
file_name:uf125-079 model:o-c10 num_nodes=2347 num_edges=1 size_nodes_bits=172136 size_nodes_byte=21517 size_edges_bits=30 size_total_byte=73164
file_name:uf125-079 model:o-nu num_nodes=5016 num_edges=1 size_nodes_bits=361158 size_nodes_byte=45144 size_edges_bits=31 size_total_byte=155510
file_name:uf125-079 model:o-nucx num_nodes=329 num_edges=1 size_nodes_bits=70422 size_nodes_byte=8802 size_edges_bits=29 size_total_byte=16054
file_name:uf125-079 model:o-u num_nodes=5016 num_edges=1 size_nodes_bits=355814 size_nodes_byte=44476 size_edges_bits=30 size_total_byte=154842
file_name:uf125-079 model:o-uc0 num_nodes=329 num_edges=1 size_nodes_bits=63719 size_nodes_byte=7964 size_edges_bits=27 size_total_byte=15216
file_name:uf125-079 model:u-nu num_nodes=4915 num_edges=1 size_nodes_bits=736081 size_nodes_byte=92010 size_edges_bits=141 size_total_byte=200167
file_name:uf125-079 model:u-nuc fail=true
file_name:uf125-079 model:u-nux fail=true
file_name:uf125-08 model:l-nux fail=true
file_name:uf125-08 model:o-c10 num_nodes=7906 num_edges=1 size_nodes_bits=596234 size_nodes_byte=74529 size_edges_bits=30 size_total_byte=248475
file_name:uf125-08 model:o-nu num_nodes=14192 num_edges=1 size_nodes_bits=1044969 size_nodes_byte=130621 size_edges_bits=31 size_total_byte=442859
file_name:uf125-08 model:o-nucx num_nodes=726 num_edges=1 size_nodes_bits=187896 size_nodes_byte=23487 size_edges_bits=17 size_total_byte=39471
file_name:uf125-08 model:o-u num_nodes=14192 num_edges=1 size_nodes_bits=1030052 size_nodes_byte=128756 size_edges_bits=30 size_total_byte=440994
file_name:uf125-08 model:o-uc0 num_nodes=726 num_edges=1 size_nodes_bits=168767 size_nodes_byte=21095 size_edges_bits=16 size_total_byte=37079
file_name:uf125-08 model:u-nu num_nodes=13439 num_edges=1 size_nodes_bits=1906302 size_nodes_byte=238287 size_edges_bits=141 size_total_byte=533973
file_name:uf125-08 model:u-nuc fail=true
file_name:uf125-08 model:u-nux fail=true
file_name:uf125-080 model:l-nux fail=true
file_name:uf125-080 model:o-c10 num_nodes=23137 num_edges=1 size_nodes_bits=1831692 size_nodes_byte=228961 size_edges_bits=30 size_total_byte=737989
file_name:uf125-080 model:o-nu num_nodes=34417 num_edges=1 size_nodes_bits=2659951 size_nodes_byte=332493 size_edges_bits=31 size_total_byte=1089681
file_name:uf125-080 model:o-nucx num_nodes=1579 num_edges=1 size_nodes_bits=457424 size_nodes_byte=57178 size_edges_bits=17 size_total_byte=91928
file_name:uf125-080 model:o-u num_nodes=34418 num_edges=1 size_nodes_bits=2623998 size_nodes_byte=327999 size_edges_bits=30 size_total_byte=1085209
file_name:uf125-080 model:o-uc0 num_nodes=1579 num_edges=1 size_nodes_bits=411077 size_nodes_byte=51384 size_edges_bits=16 size_total_byte=86134
file_name:uf125-080 model:u-nu num_nodes=32357 num_edges=1 size_nodes_bits=5021495 size_nodes_byte=627686 size_edges_bits=141 size_total_byte=1339568
file_name:uf125-080 model:u-nuc fail=true
file_name:uf125-080 model:u-nux fail=true
file_name:uf125-081 model:l-nux fail=true
file_name:uf125-081 model:o-c10 num_nodes=284 num_edges=1 size_nodes_bits=18072 size_nodes_byte=2259 size_edges_bits=30 size_total_byte=8520
file_name:uf125-081 model:o-nu num_nodes=439 num_edges=1 size_nodes_bits=27780 size_nodes_byte=3472 size_edges_bits=31 size_total_byte=13144
file_name:uf125-081 model:o-nucx num_nodes=12 num_edges=1 size_nodes_bits=3077 size_nodes_byte=384 size_edges_bits=70 size_total_byte=667
file_name:uf125-081 model:o-u num_nodes=439 num_edges=1 size_nodes_bits=27330 size_nodes_byte=3416 size_edges_bits=30 size_total_byte=13088
file_name:uf125-081 model:o-uc0 num_nodes=12 num_edges=1 size_nodes_bits=2781 size_nodes_byte=347 size_edges_bits=63 size_total_byte=629
file_name:uf125-081 model:u-nu num_nodes=294 num_edges=1 size_nodes_bits=39191 size_nodes_byte=4898 size_edges_bits=141 size_total_byte=11394
file_name:uf125-081 model:u-nuc fail=true
file_name:uf125-081 model:u-nux fail=true
file_name:uf125-082 model:l-nux fail=true
file_name:uf125-082 model:o-c10 num_nodes=2520 num_edges=1 size_nodes_bits=191600 size_nodes_byte=23950 size_edges_bits=30 size_total_byte=79403
file_name:uf125-082 model:o-nu num_nodes=5165 num_edges=1 size_nodes_bits=376978 size_nodes_byte=47122 size_edges_bits=31 size_total_byte=160766
file_name:uf125-082 model:o-nucx num_nodes=264 num_edges=1 size_nodes_bits=81791 size_nodes_byte=10223 size_edges_bits=25 size_total_byte=16045
file_name:uf125-082 model:o-u num_nodes=5165 num_edges=1 size_nodes_bits=371550 size_nodes_byte=46443 size_edges_bits=30 size_total_byte=160087
file_name:uf125-082 model:o-uc0 num_nodes=264 num_edges=1 size_nodes_bits=73154 size_nodes_byte=9144 size_edges_bits=23 size_total_byte=14965
file_name:uf125-082 model:u-nu num_nodes=5017 num_edges=1 size_nodes_bits=820408 size_nodes_byte=102551 size_edges_bits=141 size_total_byte=212952
file_name:uf125-082 model:u-nuc fail=true
file_name:uf125-082 model:u-nux fail=true
file_name:uf125-083 model:l-nux fail=true
file_name:uf125-083 model:o-c10 num_nodes=116 num_edges=1 size_nodes_bits=6524 size_nodes_byte=815 size_edges_bits=30 size_total_byte=3381
file_name:uf125-083 model:o-nu num_nodes=215 num_edges=1 size_nodes_bits=12471 size_nodes_byte=1558 size_edges_bits=31 size_total_byte=6302
file_name:uf125-083 model:o-nucx num_nodes=3 num_edges=1 size_nodes_bits=1136 size_nodes_byte=142 size_edges_bits=148 size_total_byte=236
file_name:uf125-083 model:o-u num_nodes=215 num_edges=1 size_nodes_bits=12254 size_nodes_byte=1531 size_edges_bits=30 size_total_byte=6275
file_name:uf125-083 model:o-uc0 num_nodes=3 num_edges=1 size_nodes_bits=1010 size_nodes_byte=126 size_edges_bits=132 size_total_byte=218
file_name:uf125-083 model:u-nu num_nodes=215 num_edges=1 size_nodes_bits=26715 size_nodes_byte=3339 size_edges_bits=141 size_total_byte=8097
file_name:uf125-083 model:u-nuc fail=true
file_name:uf125-083 model:u-nux fail=true
file_name:uf125-084 model:l-nux fail=true
file_name:uf125-084 model:o-c10 num_nodes=35559 num_edges=1 size_nodes_bits=2884364 size_nodes_byte=360545 size_edges_bits=30 size_total_byte=1142857
file_name:uf125-084 model:o-nu num_nodes=53619 num_edges=1 size_nodes_bits=4215404 size_nodes_byte=526925 size_edges_bits=31 size_total_byte=1706557
file_name:uf125-084 model:o-nucx num_nodes=4128 num_edges=1 size_nodes_bits=830312 size_nodes_byte=103789 size_edges_bits=17 size_total_byte=194617
file_name:uf125-084 model:o-u num_nodes=53620 num_edges=1 size_nodes_bits=4157728 size_nodes_byte=519716 size_edges_bits=30 size_total_byte=1699369
file_name:uf125-084 model:o-uc0 num_nodes=4128 num_edges=1 size_nodes_bits=759613 size_nodes_byte=94951 size_edges_bits=16 size_total_byte=185779
file_name:uf125-084 model:u-nu num_nodes=47946 num_edges=1 size_nodes_bits=7204375 size_nodes_byte=900546 size_edges_bits=141 size_total_byte=1955386
file_name:uf125-084 model:u-nuc fail=true
file_name:uf125-084 model:u-nux fail=true
file_name:uf125-085 model:l-nux fail=true
file_name:uf125-085 model:o-c10 num_nodes=822 num_edges=1 size_nodes_bits=53818 size_nodes_byte=6727 size_edges_bits=30 size_total_byte=24825
file_name:uf125-085 model:o-nu num_nodes=1427 num_edges=1 size_nodes_bits=94213 size_nodes_byte=11776 size_edges_bits=31 size_total_byte=43184
file_name:uf125-085 model:o-nucx num_nodes=37 num_edges=1 size_nodes_bits=11809 size_nodes_byte=1476 size_edges_bits=33 size_total_byte=2304
file_name:uf125-085 model:o-u num_nodes=1427 num_edges=1 size_nodes_bits=92750 size_nodes_byte=11593 size_edges_bits=30 size_total_byte=43001
file_name:uf125-085 model:o-uc0 num_nodes=37 num_edges=1 size_nodes_bits=10567 size_nodes_byte=1320 size_edges_bits=30 size_total_byte=2148
file_name:uf125-085 model:u-nu num_nodes=1355 num_edges=1 size_nodes_bits=192833 size_nodes_byte=24104 size_edges_bits=141 size_total_byte=53941
file_name:uf125-085 model:u-nuc fail=true
file_name:uf125-085 model:u-nux fail=true
file_name:uf125-086 model:l-nux fail=true
file_name:uf125-086 model:o-c10 num_nodes=778 num_edges=1 size_nodes_bits=53846 size_nodes_byte=6730 size_edges_bits=30 size_total_byte=23860
file_name:uf125-086 model:o-nu num_nodes=1334 num_edges=1 size_nodes_bits=90636 size_nodes_byte=11329 size_edges_bits=31 size_total_byte=40691
file_name:uf125-086 model:o-nucx num_nodes=65 num_edges=1 size_nodes_bits=18063 size_nodes_byte=2257 size_edges_bits=17 size_total_byte=3700
file_name:uf125-086 model:o-u num_nodes=1334 num_edges=1 size_nodes_bits=89238 size_nodes_byte=11154 size_edges_bits=30 size_total_byte=40516
file_name:uf125-086 model:o-uc0 num_nodes=65 num_edges=1 size_nodes_bits=16143 size_nodes_byte=2017 size_edges_bits=16 size_total_byte=3459
file_name:uf125-086 model:u-nu num_nodes=1314 num_edges=1 size_nodes_bits=203956 size_nodes_byte=25494 size_edges_bits=141 size_total_byte=54430
file_name:uf125-086 model:u-nuc fail=true
file_name:uf125-086 model:u-nux fail=true
file_name:uf125-087 model:l-nux fail=true
file_name:uf125-087 model:o-c10 num_nodes=66234 num_edges=1 size_nodes_bits=5707690 size_nodes_byte=713461 size_edges_bits=30 size_total_byte=2170623
file_name:uf125-087 model:o-nu num_nodes=140630 num_edges=1 size_nodes_bits=11466172 size_nodes_byte=1433271 size_edges_bits=31 size_total_byte=4527145
file_name:uf125-087 model:o-nucx num_nodes=8905 num_edges=1 size_nodes_bits=2176939 size_nodes_byte=272117 size_edges_bits=17 size_total_byte=468039
file_name:uf125-087 model:o-u num_nodes=140634 num_edges=1 size_nodes_bits=11316750 size_nodes_byte=1414593 size_edges_bits=30 size_total_byte=4508555
file_name:uf125-087 model:o-uc0 num_nodes=8905 num_edges=1 size_nodes_bits=1980147 size_nodes_byte=247518 size_edges_bits=16 size_total_byte=443440
file_name:uf125-087 model:u-nu num_nodes=130175 num_edges=1 size_nodes_bits=19457862 size_nodes_byte=2432232 size_edges_bits=141 size_total_byte=5296110
file_name:uf125-087 model:u-nuc fail=true
file_name:uf125-087 model:u-nux fail=true
file_name:uf125-088 model:l-nux fail=true
file_name:uf125-088 model:o-c10 num_nodes=734 num_edges=1 size_nodes_bits=49482 size_nodes_byte=6185 size_edges_bits=30 size_total_byte=22347
file_name:uf125-088 model:o-nu num_nodes=1367 num_edges=1 size_nodes_bits=91777 size_nodes_byte=11472 size_edges_bits=31 size_total_byte=41560
file_name:uf125-088 model:o-nucx num_nodes=45 num_edges=1 size_nodes_bits=13665 size_nodes_byte=1708 size_edges_bits=37 size_total_byte=2712
file_name:uf125-088 model:o-u num_nodes=1367 num_edges=1 size_nodes_bits=90366 size_nodes_byte=11295 size_edges_bits=30 size_total_byte=41383
file_name:uf125-088 model:o-uc0 num_nodes=45 num_edges=1 size_nodes_bits=12105 size_nodes_byte=1513 size_edges_bits=34 size_total_byte=2517
file_name:uf125-088 model:u-nu num_nodes=1337 num_edges=1 size_nodes_bits=206297 size_nodes_byte=25787 size_edges_bits=141 size_total_byte=55228
file_name:uf125-088 model:u-nuc fail=true
file_name:uf125-088 model:u-nux fail=true
file_name:uf125-089 model:l-nux fail=true
file_name:uf125-089 model:o-c10 num_nodes=9974 num_edges=1 size_nodes_bits=795506 size_nodes_byte=99438 size_edges_bits=30 size_total_byte=318880
file_name:uf125-089 model:o-nu num_nodes=16108 num_edges=1 size_nodes_bits=1237837 size_nodes_byte=154729 size_edges_bits=31 size_total_byte=509119
file_name:uf125-089 model:o-nucx num_nodes=1529 num_edges=1 size_nodes_bits=339976 size_nodes_byte=42497 size_edges_bits=17 size_total_byte=76147
file_name:uf125-089 model:o-u num_nodes=16109 num_edges=1 size_nodes_bits=1220266 size_nodes_byte=152533 size_edges_bits=30 size_total_byte=506945
file_name:uf125-089 model:o-uc0 num_nodes=1529 num_edges=1 size_nodes_bits=307468 size_nodes_byte=38433 size_edges_bits=16 size_total_byte=72083
file_name:uf125-089 model:u-nu num_nodes=15779 num_edges=1 size_nodes_bits=2502785 size_nodes_byte=312848 size_edges_bits=141 size_total_byte=660013
file_name:uf125-089 model:u-nuc fail=true
file_name:uf125-089 model:u-nux fail=true
file_name:uf125-09 model:l-nux fail=true
file_name:uf125-09 model:o-c10 num_nodes=7473 num_edges=1 size_nodes_bits=564446 size_nodes_byte=70555 size_edges_bits=30 size_total_byte=234975
file_name:uf125-09 model:o-nu num_nodes=11311 num_edges=1 size_nodes_bits=821889 size_nodes_byte=102736 size_edges_bits=31 size_total_byte=351592
file_name:uf125-09 model:o-nucx num_nodes=619 num_edges=1 size_nodes_bits=150578 size_nodes_byte=18822 size_edges_bits=17 size_total_byte=32452
file_name:uf125-09 model:o-u num_nodes=11312 num_edges=1 size_nodes_bits=810020 size_nodes_byte=101252 size_edges_bits=30 size_total_byte=350130
file_name:uf125-09 model:o-uc0 num_nodes=619 num_edges=1 size_nodes_bits=136429 size_nodes_byte=17053 size_edges_bits=16 size_total_byte=30683
file_name:uf125-09 model:u-nu num_nodes=10696 num_edges=1 size_nodes_bits=1451764 size_nodes_byte=181470 size_edges_bits=141 size_total_byte=416810
file_name:uf125-09 model:u-nuc fail=true
file_name:uf125-09 model:u-nux fail=true
file_name:uf125-090 model:l-nux fail=true
file_name:uf125-090 model:o-c10 num_nodes=9478 num_edges=1 size_nodes_bits=717496 size_nodes_byte=89687 size_edges_bits=30 size_total_byte=298216
file_name:uf125-090 model:o-nu num_nodes=16048 num_edges=1 size_nodes_bits=1199256 size_nodes_byte=149907 size_edges_bits=31 size_total_byte=502976
file_name:uf125-090 model:o-nucx num_nodes=828 num_edges=1 size_nodes_bits=223409 size_nodes_byte=27926 size_edges_bits=17 size_total_byte=46154
file_name:uf125-090 model:o-u num_nodes=16049 num_edges=1 size_nodes_bits=1182438 size_nodes_byte=147804 size_edges_bits=30 size_total_byte=500896
file_name:uf125-090 model:o-uc0 num_nodes=828 num_edges=1 size_nodes_bits=201403 size_nodes_byte=25175 size_edges_bits=16 size_total_byte=43403
file_name:uf125-090 model:u-nu num_nodes=15467 num_edges=1 size_nodes_bits=2275622 size_nodes_byte=284452 size_edges_bits=141 size_total_byte=624754
file_name:uf125-090 model:u-nuc fail=true
file_name:uf125-090 model:u-nux fail=true
file_name:uf125-091 model:l-nux fail=true
file_name:uf125-091 model:o-c10 num_nodes=777 num_edges=1 size_nodes_bits=55046 size_nodes_byte=6880 size_edges_bits=30 size_total_byte=23988
file_name:uf125-091 model:o-nu num_nodes=1143 num_edges=1 size_nodes_bits=78936 size_nodes_byte=9867 size_edges_bits=31 size_total_byte=35026
file_name:uf125-091 model:o-nucx num_nodes=88 num_edges=1 size_nodes_bits=20297 size_nodes_byte=2537 size_edges_bits=27 size_total_byte=4486
file_name:uf125-091 model:o-u num_nodes=1143 num_edges=1 size_nodes_bits=77706 size_nodes_byte=9713 size_edges_bits=30 size_total_byte=34873
file_name:uf125-091 model:o-uc0 num_nodes=88 num_edges=1 size_nodes_bits=18247 size_nodes_byte=2280 size_edges_bits=25 size_total_byte=4230
file_name:uf125-091 model:u-nu num_nodes=1082 num_edges=1 size_nodes_bits=173455 size_nodes_byte=21681 size_edges_bits=141 size_total_byte=45513
file_name:uf125-091 model:u-nuc fail=true
file_name:uf125-091 model:u-nux fail=true
file_name:uf125-092 model:l-nux fail=true
file_name:uf125-092 model:o-c10 num_nodes=13578 num_edges=1 size_nodes_bits=1054196 size_nodes_byte=131774 size_edges_bits=30 size_total_byte=430504
file_name:uf125-092 model:o-nu num_nodes=22311 num_edges=1 size_nodes_bits=1693242 size_nodes_byte=211655 size_edges_bits=31 size_total_byte=702511
file_name:uf125-092 model:o-nucx num_nodes=962 num_edges=1 size_nodes_bits=311730 size_nodes_byte=38966 size_edges_bits=17 size_total_byte=60142
file_name:uf125-092 model:o-u num_nodes=22312 num_edges=1 size_nodes_bits=1670038 size_nodes_byte=208754 size_edges_bits=30 size_total_byte=699632
file_name:uf125-092 model:o-uc0 num_nodes=962 num_edges=1 size_nodes_bits=277458 size_nodes_byte=34682 size_edges_bits=16 size_total_byte=55858
file_name:uf125-092 model:u-nu num_nodes=21527 num_edges=1 size_nodes_bits=3336184 size_nodes_byte=417023 size_edges_bits=141 size_total_byte=890644
file_name:uf125-092 model:u-nuc fail=true
file_name:uf125-092 model:u-nux fail=true
file_name:uf125-093 model:l-nux fail=true
file_name:uf125-093 model:o-c10 num_nodes=84 num_edges=1 size_nodes_bits=5000 size_nodes_byte=625 size_edges_bits=30 size_total_byte=2486
file_name:uf125-093 model:o-nu num_nodes=162 num_edges=1 size_nodes_bits=9692 size_nodes_byte=1211 size_edges_bits=31 size_total_byte=4789
file_name:uf125-093 model:o-nucx num_nodes=3 num_edges=1 size_nodes_bits=1784 size_nodes_byte=223 size_edges_bits=99 size_total_byte=311
file_name:uf125-093 model:o-u num_nodes=162 num_edges=1 size_nodes_bits=9528 size_nodes_byte=1191 size_edges_bits=30 size_total_byte=4768
file_name:uf125-093 model:o-uc0 num_nodes=3 num_edges=1 size_nodes_bits=1570 size_nodes_byte=196 size_edges_bits=88 size_total_byte=283
file_name:uf125-093 model:u-nu num_nodes=162 num_edges=1 size_nodes_bits=23676 size_nodes_byte=2959 size_edges_bits=141 size_total_byte=6551
file_name:uf125-093 model:u-nuc fail=true
file_name:uf125-093 model:u-nux fail=true
file_name:uf125-094 model:l-nux fail=true
file_name:uf125-094 model:o-c10 num_nodes=74195 num_edges=1 size_nodes_bits=6305768 size_nodes_byte=788221 size_edges_bits=30 size_total_byte=2420524
file_name:uf125-094 model:o-nu num_nodes=99351 num_edges=1 size_nodes_bits=8120777 size_nodes_byte=1015097 size_edges_bits=31 size_total_byte=3200833
file_name:uf125-094 model:o-nucx num_nodes=9580 num_edges=1 size_nodes_bits=1988382 size_nodes_byte=248547 size_edges_bits=17 size_total_byte=459319
file_name:uf125-094 model:o-u num_nodes=99351 num_edges=1 size_nodes_bits=8011848 size_nodes_byte=1001481 size_edges_bits=30 size_total_byte=3187216
file_name:uf125-094 model:o-uc0 num_nodes=9580 num_edges=1 size_nodes_bits=1832540 size_nodes_byte=229067 size_edges_bits=16 size_total_byte=439839
file_name:uf125-094 model:u-nu num_nodes=80143 num_edges=1 size_nodes_bits=11907893 size_nodes_byte=1488486 size_edges_bits=141 size_total_byte=3251660
file_name:uf125-094 model:u-nuc fail=true
file_name:uf125-094 model:u-nux fail=true
file_name:uf125-095 model:l-nux fail=true
file_name:uf125-095 model:o-c10 num_nodes=184 num_edges=1 size_nodes_bits=11640 size_nodes_byte=1455 size_edges_bits=30 size_total_byte=5516
file_name:uf125-095 model:o-nu num_nodes=318 num_edges=1 size_nodes_bits=19975 size_nodes_byte=2496 size_edges_bits=31 size_total_byte=9506
file_name:uf125-095 model:o-nucx num_nodes=6 num_edges=1 size_nodes_bits=2814 size_nodes_byte=351 size_edges_bits=43 size_total_byte=499
file_name:uf125-095 model:o-u num_nodes=318 num_edges=1 size_nodes_bits=19652 size_nodes_byte=2456 size_edges_bits=30 size_total_byte=9466
file_name:uf125-095 model:o-uc0 num_nodes=6 num_edges=1 size_nodes_bits=2477 size_nodes_byte=309 size_edges_bits=39 size_total_byte=456
file_name:uf125-095 model:u-nu num_nodes=312 num_edges=1 size_nodes_bits=51261 size_nodes_byte=6407 size_edges_bits=141 size_total_byte=13299
file_name:uf125-095 model:u-nuc fail=true
file_name:uf125-095 model:u-nux fail=true
file_name:uf125-096 model:l-nux fail=true
file_name:uf125-096 model:o-c10 num_nodes=1214 num_edges=1 size_nodes_bits=87192 size_nodes_byte=10899 size_edges_bits=30 size_total_byte=37620
file_name:uf125-096 model:o-nu num_nodes=1883 num_edges=1 size_nodes_bits=130954 size_nodes_byte=16369 size_edges_bits=31 size_total_byte=57809
file_name:uf125-096 model:o-nucx num_nodes=98 num_edges=1 size_nodes_bits=25083 size_nodes_byte=3135 size_edges_bits=33 size_total_byte=5305
file_name:uf125-096 model:o-u num_nodes=1883 num_edges=1 size_nodes_bits=128974 size_nodes_byte=16121 size_edges_bits=30 size_total_byte=57561
file_name:uf125-096 model:o-uc0 num_nodes=98 num_edges=1 size_nodes_bits=22665 size_nodes_byte=2833 size_edges_bits=30 size_total_byte=5002
file_name:uf125-096 model:u-nu num_nodes=1811 num_edges=1 size_nodes_bits=279578 size_nodes_byte=34947 size_edges_bits=141 size_total_byte=74816
file_name:uf125-096 model:u-nuc fail=true
file_name:uf125-096 model:u-nux fail=true
file_name:uf125-097 model:l-nux fail=true
file_name:uf125-097 model:o-c10 num_nodes=23734 num_edges=1 size_nodes_bits=1978692 size_nodes_byte=247336 size_edges_bits=30 size_total_byte=769498
file_name:uf125-097 model:o-nu num_nodes=45751 num_edges=1 size_nodes_bits=3612337 size_nodes_byte=451542 size_edges_bits=31 size_total_byte=1458078
file_name:uf125-097 model:o-nucx num_nodes=3305 num_edges=1 size_nodes_bits=717651 size_nodes_byte=89706 size_edges_bits=17 size_total_byte=162428
file_name:uf125-097 model:o-u num_nodes=45752 num_edges=1 size_nodes_bits=3563322 size_nodes_byte=445415 size_edges_bits=30 size_total_byte=1451973
file_name:uf125-097 model:o-uc0 num_nodes=3305 num_edges=1 size_nodes_bits=653658 size_nodes_byte=81707 size_edges_bits=16 size_total_byte=154429
file_name:uf125-097 model:u-nu num_nodes=43412 num_edges=1 size_nodes_bits=6746241 size_nodes_byte=843280 size_edges_bits=141 size_total_byte=1798371
file_name:uf125-097 model:u-nuc fail=true
file_name:uf125-097 model:u-nux fail=true
file_name:uf125-098 model:l-nux fail=true
file_name:uf125-098 model:o-c10 num_nodes=408 num_edges=1 size_nodes_bits=25522 size_nodes_byte=3190 size_edges_bits=30 size_total_byte=12180
file_name:uf125-098 model:o-nu num_nodes=750 num_edges=1 size_nodes_bits=48217 size_nodes_byte=6027 size_edges_bits=31 size_total_byte=22541
file_name:uf125-098 model:o-nucx num_nodes=14 num_edges=1 size_nodes_bits=5273 size_nodes_byte=659 size_edges_bits=27 size_total_byte=980
file_name:uf125-098 model:o-u num_nodes=750 num_edges=1 size_nodes_bits=47454 size_nodes_byte=5931 size_edges_bits=30 size_total_byte=22445
file_name:uf125-098 model:o-uc0 num_nodes=14 num_edges=1 size_nodes_bits=4678 size_nodes_byte=584 size_edges_bits=25 size_total_byte=905
file_name:uf125-098 model:u-nu num_nodes=733 num_edges=1 size_nodes_bits=105152 size_nodes_byte=13144 size_edges_bits=141 size_total_byte=29297
file_name:uf125-098 model:u-nuc fail=true
file_name:uf125-098 model:u-nux fail=true
file_name:uf125-099 model:l-nux fail=true
file_name:uf125-099 model:o-c10 num_nodes=2300 num_edges=1 size_nodes_bits=168604 size_nodes_byte=21075 size_edges_bits=30 size_total_byte=71689
file_name:uf125-099 model:o-nu num_nodes=3288 num_edges=1 size_nodes_bits=232875 size_nodes_byte=29109 size_edges_bits=31 size_total_byte=101459
file_name:uf125-099 model:o-nucx num_nodes=160 num_edges=1 size_nodes_bits=45955 size_nodes_byte=5744 size_edges_bits=17 size_total_byte=9276
file_name:uf125-099 model:o-u num_nodes=3288 num_edges=1 size_nodes_bits=229428 size_nodes_byte=28678 size_edges_bits=30 size_total_byte=101028
file_name:uf125-099 model:o-uc0 num_nodes=160 num_edges=1 size_nodes_bits=41225 size_nodes_byte=5153 size_edges_bits=16 size_total_byte=8685
file_name:uf125-099 model:u-nu num_nodes=3223 num_edges=1 size_nodes_bits=490842 size_nodes_byte=61355 size_edges_bits=141 size_total_byte=132288
file_name:uf125-099 model:u-nuc fail=true
file_name:uf125-099 model:u-nux fail=true
